<?xml version="1.0" encoding="utf-8"?>
<!DOCTYPE eagle SYSTEM "eagle.dtd">
<eagle version="6.4">
<drawing>
<settings>
<setting alwaysvectorfont="yes"/>
<setting verticaltext="up"/>
</settings>
<grid distance="0.05" unitdist="inch" unit="inch" style="lines" multiple="1" display="no" altdistance="0.025" altunitdist="inch" altunit="inch"/>
<layers>
<layer number="1" name="Top" color="4" fill="1" visible="yes" active="yes"/>
<layer number="2" name="Route2" color="1" fill="3" visible="no" active="no"/>
<layer number="3" name="Route3" color="4" fill="3" visible="no" active="no"/>
<layer number="4" name="Route4" color="1" fill="4" visible="no" active="no"/>
<layer number="5" name="Route5" color="4" fill="4" visible="no" active="no"/>
<layer number="6" name="Route6" color="1" fill="8" visible="no" active="no"/>
<layer number="7" name="Route7" color="4" fill="8" visible="no" active="no"/>
<layer number="8" name="Route8" color="1" fill="2" visible="no" active="no"/>
<layer number="9" name="Route9" color="4" fill="2" visible="no" active="no"/>
<layer number="10" name="Route10" color="1" fill="7" visible="no" active="no"/>
<layer number="11" name="Route11" color="4" fill="7" visible="no" active="no"/>
<layer number="12" name="Route12" color="1" fill="5" visible="no" active="no"/>
<layer number="13" name="Route13" color="4" fill="5" visible="no" active="no"/>
<layer number="14" name="Route14" color="1" fill="6" visible="no" active="no"/>
<layer number="15" name="Route15" color="4" fill="6" visible="no" active="no"/>
<layer number="16" name="Bottom" color="1" fill="1" visible="yes" active="yes"/>
<layer number="17" name="Pads" color="2" fill="1" visible="yes" active="yes"/>
<layer number="18" name="Vias" color="2" fill="1" visible="yes" active="yes"/>
<layer number="19" name="Unrouted" color="6" fill="1" visible="yes" active="yes"/>
<layer number="20" name="Dimension" color="15" fill="1" visible="yes" active="yes"/>
<layer number="21" name="tPlace" color="7" fill="1" visible="yes" active="yes"/>
<layer number="22" name="bPlace" color="7" fill="1" visible="yes" active="yes"/>
<layer number="23" name="tOrigins" color="15" fill="1" visible="yes" active="yes"/>
<layer number="24" name="bOrigins" color="15" fill="1" visible="yes" active="yes"/>
<layer number="25" name="tNames" color="7" fill="1" visible="yes" active="yes"/>
<layer number="26" name="bNames" color="7" fill="1" visible="yes" active="yes"/>
<layer number="27" name="tValues" color="7" fill="1" visible="yes" active="yes"/>
<layer number="28" name="bValues" color="7" fill="1" visible="yes" active="yes"/>
<layer number="29" name="tStop" color="7" fill="3" visible="no" active="yes"/>
<layer number="30" name="bStop" color="7" fill="6" visible="no" active="yes"/>
<layer number="31" name="tCream" color="7" fill="4" visible="no" active="yes"/>
<layer number="32" name="bCream" color="7" fill="5" visible="no" active="yes"/>
<layer number="33" name="tFinish" color="6" fill="3" visible="no" active="yes"/>
<layer number="34" name="bFinish" color="6" fill="6" visible="no" active="yes"/>
<layer number="35" name="tGlue" color="7" fill="4" visible="no" active="yes"/>
<layer number="36" name="bGlue" color="7" fill="5" visible="no" active="yes"/>
<layer number="37" name="tTest" color="7" fill="1" visible="no" active="yes"/>
<layer number="38" name="bTest" color="7" fill="1" visible="no" active="yes"/>
<layer number="39" name="tKeepout" color="4" fill="11" visible="yes" active="yes"/>
<layer number="40" name="bKeepout" color="1" fill="11" visible="yes" active="yes"/>
<layer number="41" name="tRestrict" color="4" fill="10" visible="yes" active="yes"/>
<layer number="42" name="bRestrict" color="1" fill="10" visible="yes" active="yes"/>
<layer number="43" name="vRestrict" color="2" fill="10" visible="yes" active="yes"/>
<layer number="44" name="Drills" color="7" fill="1" visible="no" active="yes"/>
<layer number="45" name="Holes" color="7" fill="1" visible="no" active="yes"/>
<layer number="46" name="Milling" color="3" fill="1" visible="no" active="yes"/>
<layer number="47" name="Measures" color="7" fill="1" visible="no" active="yes"/>
<layer number="48" name="Document" color="7" fill="1" visible="yes" active="yes"/>
<layer number="49" name="Reference" color="7" fill="1" visible="yes" active="yes"/>
<layer number="50" name="dxf" color="7" fill="1" visible="yes" active="yes"/>
<layer number="51" name="tDocu" color="7" fill="1" visible="yes" active="yes"/>
<layer number="52" name="bDocu" color="7" fill="1" visible="yes" active="yes"/>
<layer number="53" name="tGND_GNDA" color="7" fill="9" visible="no" active="no"/>
<layer number="54" name="bGND_GNDA" color="1" fill="9" visible="no" active="no"/>
<layer number="91" name="Nets" color="2" fill="1" visible="no" active="no"/>
<layer number="92" name="Busses" color="1" fill="1" visible="no" active="no"/>
<layer number="93" name="Pins" color="2" fill="1" visible="no" active="no"/>
<layer number="94" name="Symbols" color="4" fill="1" visible="no" active="no"/>
<layer number="95" name="Names" color="7" fill="1" visible="no" active="no"/>
<layer number="96" name="Values" color="7" fill="1" visible="no" active="no"/>
<layer number="97" name="Info" color="7" fill="1" visible="no" active="no"/>
<layer number="98" name="Guide" color="6" fill="1" visible="no" active="no"/>
<layer number="116" name="centerDrill" color="7" fill="1" visible="no" active="yes"/>
<layer number="144" name="Drill_legend" color="7" fill="1" visible="no" active="yes"/>
<layer number="250" name="Descript" color="3" fill="1" visible="no" active="no"/>
<layer number="251" name="SMDround" color="12" fill="11" visible="no" active="no"/>
</layers>
<board>
<plain>
<wire x1="0" y1="0" x2="45.39" y2="0" width="0" layer="20"/>
<wire x1="45.39" y1="0" x2="45.39" y2="48.25" width="0" layer="20"/>
<wire x1="45.39" y1="48.25" x2="0" y2="48.25" width="0" layer="20"/>
<wire x1="0" y1="48.25" x2="0" y2="0" width="0" layer="20"/>
<text x="43.18" y="6.35" size="1.016" layer="21" font="vector" rot="R90">GND</text>
<text x="31.75" y="1.27" size="0.8128" layer="21" font="vector" rot="R90">VOUT</text>
<text x="39.37" y="39.37" size="0.8128" layer="21" font="vector" rot="R180">VCC</text>
<text x="26.67" y="39.37" size="0.8128" layer="21" font="vector" rot="R180">GND</text>
<text x="38.1" y="13.97" size="0.8128" layer="21">Caution</text>
<text x="35.56" y="12.7" size="0.8128" layer="21">High Voltage!!!</text>
<text x="22.86" y="2.54" size="0.8128" layer="21">Caution</text>
<text x="20.32" y="1.27" size="0.8128" layer="21">High Voltage!!!</text>
<text x="1.27" y="45.72" size="1.016" layer="21" font="vector" ratio="10">http://www.xyzio.com</text>
<text x="15.24" y="44.45" size="1.016" layer="21" font="vector" ratio="10" rot="R180">MSK 2014</text>
</plain>
<libraries>
<library name="transistor-pnp">
<packages>
<package name="TO92-CBE">
<description>&lt;b&gt;TO-92&lt;/b&gt;&lt;p&gt;
grid 5.08 mm</description>
<wire x1="-2.095" y1="-1.651" x2="2.095" y2="-1.651" width="0.127" layer="21"/>
<wire x1="-2.413" y1="1.1359" x2="2.413" y2="1.1359" width="0.127" layer="21" curve="-129.583345" cap="flat"/>
<wire x1="1.136" y1="-0.127" x2="-1.136" y2="-0.127" width="0.127" layer="51"/>
<wire x1="-2.413" y1="1.1359" x2="-2.413" y2="-1.1359" width="0.127" layer="51" curve="50.416655" cap="flat"/>
<wire x1="-1.404" y1="-0.127" x2="-2.664" y2="-0.127" width="0.127" layer="51"/>
<wire x1="-2.4135" y1="-1.1359" x2="-2.095" y2="-1.651" width="0.127" layer="21" curve="13.038528" cap="flat"/>
<wire x1="-1.136" y1="-0.127" x2="-1.404" y2="-0.127" width="0.127" layer="21"/>
<wire x1="2.413" y1="-1.1359" x2="2.413" y2="1.1359" width="0.127" layer="51" curve="50.416655" cap="flat"/>
<wire x1="2.664" y1="-0.127" x2="1.404" y2="-0.127" width="0.127" layer="51"/>
<wire x1="1.404" y1="-0.127" x2="1.136" y2="-0.127" width="0.127" layer="21"/>
<wire x1="2.095" y1="-1.651" x2="2.4247" y2="-1.1118" width="0.127" layer="21" curve="13.609443" cap="flat"/>
<pad name="C" x="2.54" y="0" drill="0.8128" shape="long" rot="R90"/>
<pad name="E" x="-2.54" y="0" drill="0.8128" shape="long" rot="R90"/>
<pad name="B" x="0" y="0" drill="0.8128" shape="long" rot="R90"/>
<text x="-2.54" y="3.048" size="1.27" layer="25" ratio="10">&gt;NAME</text>
<text x="-2.54" y="-3.302" size="1.27" layer="27" ratio="10">&gt;VALUE</text>
</package>
</packages>
</library>
<library name="inductors">
<packages>
<package name="MESC26">
<description>&lt;B&gt;INDUCTOR&lt;/B&gt;&lt;p&gt; manufacturer Fastron, distributor Buerklin,</description>
<wire x1="13.335" y1="0" x2="12.065" y2="0" width="0.8128" layer="51"/>
<wire x1="-13.335" y1="0" x2="-12.065" y2="0" width="0.8128" layer="51"/>
<wire x1="-11.557" y1="2.921" x2="-11.303" y2="3.175" width="0.1524" layer="21" curve="-90"/>
<wire x1="-11.557" y1="-2.921" x2="-11.303" y2="-3.175" width="0.1524" layer="21" curve="90"/>
<wire x1="11.303" y1="-3.175" x2="11.557" y2="-2.921" width="0.1524" layer="21" curve="90"/>
<wire x1="11.303" y1="3.175" x2="11.557" y2="2.921" width="0.1524" layer="21" curve="-90"/>
<wire x1="-11.557" y1="-2.921" x2="-11.557" y2="2.921" width="0.1524" layer="21"/>
<wire x1="-11.303" y1="3.175" x2="-9.144" y2="3.81" width="0.1524" layer="21"/>
<wire x1="-11.303" y1="-3.175" x2="-9.144" y2="-3.81" width="0.1524" layer="21"/>
<wire x1="9.017" y1="3.81" x2="-9.144" y2="3.81" width="0.1524" layer="21"/>
<wire x1="9.144" y1="-3.81" x2="-9.144" y2="-3.81" width="0.1524" layer="21"/>
<wire x1="11.303" y1="3.175" x2="9.017" y2="3.81" width="0.1524" layer="21"/>
<wire x1="11.303" y1="-3.175" x2="9.144" y2="-3.81" width="0.1524" layer="21"/>
<wire x1="11.557" y1="-2.921" x2="11.557" y2="2.921" width="0.1524" layer="21"/>
<wire x1="-9.144" y1="3.429" x2="-9.144" y2="-3.429" width="0.0508" layer="21"/>
<wire x1="9.144" y1="3.429" x2="9.144" y2="-3.429" width="0.0508" layer="21"/>
<pad name="1" x="-13.335" y="0" drill="1.016" shape="long"/>
<pad name="2" x="13.335" y="0" drill="1.016" shape="long"/>
<text x="-9.779" y="4.0894" size="1.27" layer="25" ratio="10">&gt;NAME</text>
<text x="-7.874" y="-1.6002" size="1.27" layer="27" ratio="10">&gt;VALUE</text>
<rectangle x1="11.557" y1="-0.4064" x2="12.0142" y2="0.4064" layer="21"/>
<rectangle x1="-12.0142" y1="-0.4064" x2="-11.557" y2="0.4064" layer="21"/>
</package>
</packages>
</library>
<library name="rcl">
<packages>
<package name="0207/2V">
<description>&lt;b&gt;RESISTOR&lt;/b&gt;&lt;p&gt;
type 0207, grid 2.5 mm</description>
<wire x1="-1.27" y1="0" x2="-0.381" y2="0" width="0.6096" layer="51"/>
<wire x1="-0.254" y1="0" x2="0.254" y2="0" width="0.6096" layer="21"/>
<wire x1="0.381" y1="0" x2="1.27" y2="0" width="0.6096" layer="51"/>
<circle x="-1.27" y="0" radius="1.27" width="0.1524" layer="21"/>
<circle x="-1.27" y="0" radius="1.016" width="0.1524" layer="51"/>
<pad name="1" x="-1.27" y="0" drill="0.8128" shape="octagon"/>
<pad name="2" x="1.27" y="0" drill="0.8128" shape="octagon"/>
<text x="-0.0508" y="1.016" size="1.27" layer="25" ratio="10">&gt;NAME</text>
<text x="-0.0508" y="-2.2352" size="1.27" layer="27" ratio="10">&gt;VALUE</text>
</package>
<package name="E2,5-7">
<description>&lt;b&gt;ELECTROLYTIC CAPACITOR&lt;/b&gt;&lt;p&gt;
grid 2.54 mm, diameter 7 mm</description>
<wire x1="-3.048" y1="0" x2="-2.286" y2="0" width="0.1524" layer="21"/>
<wire x1="-2.667" y1="-0.381" x2="-2.667" y2="0.381" width="0.1524" layer="21"/>
<wire x1="-1.651" y1="0" x2="-0.762" y2="0" width="0.1524" layer="51"/>
<wire x1="-0.762" y1="0" x2="-0.762" y2="-1.27" width="0.1524" layer="51"/>
<wire x1="-0.762" y1="-1.27" x2="-0.254" y2="-1.27" width="0.1524" layer="51"/>
<wire x1="-0.254" y1="-1.27" x2="-0.254" y2="1.27" width="0.1524" layer="51"/>
<wire x1="-0.254" y1="1.27" x2="-0.762" y2="1.27" width="0.1524" layer="51"/>
<wire x1="-0.762" y1="1.27" x2="-0.762" y2="0" width="0.1524" layer="51"/>
<wire x1="0.635" y1="0" x2="1.651" y2="0" width="0.1524" layer="51"/>
<circle x="0" y="0" radius="3.429" width="0.1524" layer="21"/>
<pad name="-" x="1.27" y="0" drill="0.8128" diameter="1.6002" shape="octagon"/>
<pad name="+" x="-1.27" y="0" drill="0.8128" diameter="1.6002"/>
<text x="3.048" y="2.032" size="1.27" layer="25" ratio="10">&gt;NAME</text>
<text x="3.048" y="-3.175" size="1.27" layer="27" ratio="10">&gt;VALUE</text>
<rectangle x1="0.254" y1="-1.27" x2="0.762" y2="1.27" layer="51"/>
</package>
<package name="E5-10,5">
<description>&lt;b&gt;ELECTROLYTIC CAPACITOR&lt;/b&gt;&lt;p&gt;
grid 5.08 mm, diameter 10.5 mm</description>
<wire x1="-1.143" y1="0" x2="-0.889" y2="0" width="0.1524" layer="21"/>
<wire x1="-0.889" y1="0" x2="-0.889" y2="-1.143" width="0.1524" layer="21"/>
<wire x1="-0.889" y1="-1.143" x2="-0.254" y2="-1.143" width="0.1524" layer="21"/>
<wire x1="-0.254" y1="-1.143" x2="-0.254" y2="1.143" width="0.1524" layer="21"/>
<wire x1="-0.254" y1="1.143" x2="-0.889" y2="1.143" width="0.1524" layer="21"/>
<wire x1="-0.889" y1="1.143" x2="-0.889" y2="0" width="0.1524" layer="21"/>
<wire x1="0.635" y1="0" x2="1.143" y2="0" width="0.1524" layer="21"/>
<wire x1="-3.81" y1="1.651" x2="-3.81" y2="0.889" width="0.1524" layer="21"/>
<wire x1="-3.429" y1="1.27" x2="-4.191" y2="1.27" width="0.1524" layer="21"/>
<wire x1="1.143" y1="0" x2="1.651" y2="0" width="0.1524" layer="51"/>
<wire x1="-1.651" y1="0" x2="-1.143" y2="0" width="0.1524" layer="51"/>
<circle x="0" y="0" radius="5.08" width="0.1524" layer="21"/>
<pad name="+" x="-2.54" y="0" drill="1.016" diameter="2.54"/>
<pad name="-" x="2.54" y="0" drill="1.016" diameter="2.54" shape="octagon"/>
<text x="4.699" y="2.7432" size="1.27" layer="25" ratio="10">&gt;NAME</text>
<text x="-3.1242" y="-3.2258" size="1.27" layer="27" ratio="10">&gt;VALUE</text>
<rectangle x1="0.254" y1="-1.143" x2="0.889" y2="1.143" layer="21"/>
</package>
<package name="C050-024X044">
<description>&lt;b&gt;CAPACITOR&lt;/b&gt;&lt;p&gt;
grid 5 mm, outline 2.4 x 4.4 mm</description>
<wire x1="-2.159" y1="-0.635" x2="-2.159" y2="0.635" width="0.1524" layer="51"/>
<wire x1="-2.159" y1="0.635" x2="-1.651" y2="1.143" width="0.1524" layer="21" curve="-90" cap="flat"/>
<wire x1="-2.159" y1="-0.635" x2="-1.651" y2="-1.143" width="0.1524" layer="21" curve="90" cap="flat"/>
<wire x1="1.651" y1="1.143" x2="-1.651" y2="1.143" width="0.1524" layer="21"/>
<wire x1="2.159" y1="-0.635" x2="2.159" y2="0.635" width="0.1524" layer="51"/>
<wire x1="1.651" y1="-1.143" x2="-1.651" y2="-1.143" width="0.1524" layer="21"/>
<wire x1="1.651" y1="1.143" x2="2.159" y2="0.635" width="0.1524" layer="21" curve="-90" cap="flat"/>
<wire x1="1.651" y1="-1.143" x2="2.159" y2="-0.635" width="0.1524" layer="21" curve="90" cap="flat"/>
<wire x1="-0.3048" y1="0.762" x2="-0.3048" y2="0" width="0.3048" layer="21"/>
<wire x1="-0.3048" y1="0" x2="-0.3048" y2="-0.762" width="0.3048" layer="21"/>
<wire x1="0.3302" y1="0.762" x2="0.3302" y2="0" width="0.3048" layer="21"/>
<wire x1="0.3302" y1="0" x2="0.3302" y2="-0.762" width="0.3048" layer="21"/>
<wire x1="1.27" y1="0" x2="0.3302" y2="0" width="0.1524" layer="21"/>
<wire x1="-1.27" y1="0" x2="-0.3048" y2="0" width="0.1524" layer="21"/>
<pad name="1" x="-2.54" y="0" drill="0.8128" shape="octagon"/>
<pad name="2" x="2.54" y="0" drill="0.8128" shape="octagon"/>
<text x="-2.159" y="1.397" size="1.27" layer="25" ratio="10">&gt;NAME</text>
<text x="-2.159" y="-2.667" size="1.27" layer="27" ratio="10">&gt;VALUE</text>
<rectangle x1="2.159" y1="-0.381" x2="2.54" y2="0.381" layer="51"/>
<rectangle x1="-2.54" y1="-0.381" x2="-2.159" y2="0.381" layer="51"/>
</package>
<package name="C075-032X103">
<description>&lt;b&gt;CAPACITOR&lt;/b&gt;&lt;p&gt;
grid 7.5 mm, outline 3.2 x 10.3 mm</description>
<wire x1="4.826" y1="1.524" x2="-4.826" y2="1.524" width="0.1524" layer="21"/>
<wire x1="-5.08" y1="1.27" x2="-5.08" y2="-1.27" width="0.1524" layer="21"/>
<wire x1="-4.826" y1="-1.524" x2="4.826" y2="-1.524" width="0.1524" layer="21"/>
<wire x1="5.08" y1="-1.27" x2="5.08" y2="1.27" width="0.1524" layer="21"/>
<wire x1="4.826" y1="1.524" x2="5.08" y2="1.27" width="0.1524" layer="21" curve="-90"/>
<wire x1="4.826" y1="-1.524" x2="5.08" y2="-1.27" width="0.1524" layer="21" curve="90"/>
<wire x1="-5.08" y1="-1.27" x2="-4.826" y2="-1.524" width="0.1524" layer="21" curve="90"/>
<wire x1="-5.08" y1="1.27" x2="-4.826" y2="1.524" width="0.1524" layer="21" curve="-90"/>
<wire x1="0.508" y1="0" x2="2.54" y2="0" width="0.1524" layer="21"/>
<wire x1="-2.54" y1="0" x2="-0.508" y2="0" width="0.1524" layer="21"/>
<wire x1="-0.508" y1="0.889" x2="-0.508" y2="0" width="0.4064" layer="21"/>
<wire x1="-0.508" y1="0" x2="-0.508" y2="-0.889" width="0.4064" layer="21"/>
<wire x1="0.508" y1="0.889" x2="0.508" y2="0" width="0.4064" layer="21"/>
<wire x1="0.508" y1="0" x2="0.508" y2="-0.889" width="0.4064" layer="21"/>
<pad name="1" x="-3.81" y="0" drill="0.9144" shape="octagon"/>
<pad name="2" x="3.81" y="0" drill="0.9144" shape="octagon"/>
<text x="-4.826" y="1.905" size="1.27" layer="25" ratio="10">&gt;NAME</text>
<text x="-4.826" y="-3.048" size="1.27" layer="27" ratio="10">&gt;VALUE</text>
</package>
</packages>
</library>
<library name="diode">
<packages>
<package name="DO41-10">
<description>&lt;B&gt;DIODE&lt;/B&gt;&lt;p&gt;
diameter 2.54 mm, horizontal, grid 10.16 mm</description>
<wire x1="2.032" y1="-1.27" x2="-2.032" y2="-1.27" width="0.1524" layer="21"/>
<wire x1="2.032" y1="-1.27" x2="2.032" y2="1.27" width="0.1524" layer="21"/>
<wire x1="-2.032" y1="1.27" x2="2.032" y2="1.27" width="0.1524" layer="21"/>
<wire x1="-2.032" y1="1.27" x2="-2.032" y2="-1.27" width="0.1524" layer="21"/>
<wire x1="5.08" y1="0" x2="4.064" y2="0" width="0.762" layer="51"/>
<wire x1="-5.08" y1="0" x2="-4.064" y2="0" width="0.762" layer="51"/>
<wire x1="-0.635" y1="0" x2="0" y2="0" width="0.1524" layer="21"/>
<wire x1="1.016" y1="0.635" x2="1.016" y2="-0.635" width="0.1524" layer="21"/>
<wire x1="1.016" y1="-0.635" x2="0" y2="0" width="0.1524" layer="21"/>
<wire x1="0" y1="0" x2="1.524" y2="0" width="0.1524" layer="21"/>
<wire x1="0" y1="0" x2="1.016" y2="0.635" width="0.1524" layer="21"/>
<wire x1="0" y1="0.635" x2="0" y2="0" width="0.1524" layer="21"/>
<wire x1="0" y1="0" x2="0" y2="-0.635" width="0.1524" layer="21"/>
<pad name="A" x="5.08" y="0" drill="1.1176"/>
<pad name="C" x="-5.08" y="0" drill="1.1176"/>
<text x="-2.032" y="1.651" size="1.27" layer="25" ratio="10">&gt;NAME</text>
<text x="-2.032" y="-2.794" size="1.27" layer="27" ratio="10">&gt;VALUE</text>
<rectangle x1="-1.651" y1="-1.27" x2="-1.143" y2="1.27" layer="21"/>
<rectangle x1="2.032" y1="-0.381" x2="3.937" y2="0.381" layer="21"/>
<rectangle x1="-3.937" y1="-0.381" x2="-2.032" y2="0.381" layer="21"/>
</package>
</packages>
</library>
<library name="st-microelectronics">
<packages>
<package name="DIL-08">
<description>&lt;b&gt;Dual In Line Package&lt;/b&gt;</description>
<wire x1="5.08" y1="2.921" x2="-5.08" y2="2.921" width="0.1524" layer="21"/>
<wire x1="-5.08" y1="-2.921" x2="5.08" y2="-2.921" width="0.1524" layer="21"/>
<wire x1="5.08" y1="2.921" x2="5.08" y2="-2.921" width="0.1524" layer="21"/>
<wire x1="-5.08" y1="2.921" x2="-5.08" y2="1.016" width="0.1524" layer="21"/>
<wire x1="-5.08" y1="-2.921" x2="-5.08" y2="-1.016" width="0.1524" layer="21"/>
<wire x1="-5.08" y1="1.016" x2="-5.08" y2="-1.016" width="0.1524" layer="21" curve="-180"/>
<pad name="1" x="-3.81" y="-3.81" drill="0.8128" shape="long" rot="R90"/>
<pad name="2" x="-1.27" y="-3.81" drill="0.8128" shape="long" rot="R90"/>
<pad name="7" x="-1.27" y="3.81" drill="0.8128" shape="long" rot="R90"/>
<pad name="8" x="-3.81" y="3.81" drill="0.8128" shape="long" rot="R90"/>
<pad name="3" x="1.27" y="-3.81" drill="0.8128" shape="long" rot="R90"/>
<pad name="4" x="3.81" y="-3.81" drill="0.8128" shape="long" rot="R90"/>
<pad name="6" x="1.27" y="3.81" drill="0.8128" shape="long" rot="R90"/>
<pad name="5" x="3.81" y="3.81" drill="0.8128" shape="long" rot="R90"/>
<text x="-5.334" y="-2.921" size="1.27" layer="25" ratio="10" rot="R90">&gt;NAME</text>
<text x="-3.556" y="-0.635" size="1.27" layer="27" ratio="10">&gt;VALUE</text>
</package>
</packages>
</library>
<library name="pot">
<packages>
<package name="B25P">
<description>&lt;b&gt;POTENTIOMETER&lt;/b&gt;&lt;p&gt;
Beckman Helitrim 25</description>
<wire x1="3.175" y1="3.429" x2="-3.175" y2="3.429" width="0.1524" layer="21"/>
<wire x1="-3.175" y1="-3.429" x2="-2.54" y2="-3.429" width="0.1524" layer="21"/>
<wire x1="3.175" y1="3.429" x2="3.429" y2="3.175" width="0.1524" layer="21"/>
<wire x1="3.175" y1="-3.429" x2="3.429" y2="-3.175" width="0.1524" layer="21"/>
<wire x1="3.429" y1="-3.175" x2="3.429" y2="-1.524" width="0.1524" layer="21"/>
<wire x1="3.429" y1="-1.524" x2="3.429" y2="-0.254" width="0.1524" layer="51"/>
<wire x1="3.429" y1="-0.254" x2="3.429" y2="3.175" width="0.1524" layer="21"/>
<wire x1="-3.175" y1="-3.429" x2="-3.429" y2="-3.175" width="0.1524" layer="21"/>
<wire x1="-3.175" y1="3.429" x2="-3.429" y2="3.175" width="0.1524" layer="21"/>
<wire x1="-3.429" y1="3.175" x2="-3.429" y2="-0.254" width="0.1524" layer="21"/>
<wire x1="-3.429" y1="-0.254" x2="-3.429" y2="-1.524" width="0.1524" layer="51"/>
<wire x1="-3.429" y1="-1.524" x2="-3.429" y2="-3.175" width="0.1524" layer="21"/>
<wire x1="0.762" y1="0" x2="1.524" y2="0" width="0.1524" layer="21"/>
<wire x1="1.524" y1="0" x2="1.524" y2="0.762" width="0.1524" layer="21"/>
<wire x1="1.524" y1="0.762" x2="0.762" y2="0.762" width="0.1524" layer="21"/>
<wire x1="0.762" y1="0.762" x2="0.381" y2="1.143" width="0.1524" layer="21"/>
<wire x1="0.381" y1="1.143" x2="0.381" y2="1.524" width="0.1524" layer="21"/>
<wire x1="0.381" y1="2.286" x2="-0.381" y2="2.286" width="0.1524" layer="21"/>
<wire x1="-0.381" y1="2.286" x2="-0.381" y2="1.524" width="0.1524" layer="21"/>
<wire x1="-0.381" y1="1.143" x2="-0.762" y2="0.762" width="0.1524" layer="21"/>
<wire x1="-0.762" y1="0.762" x2="-1.524" y2="0.762" width="0.1524" layer="21"/>
<wire x1="-1.524" y1="0.762" x2="-1.524" y2="0" width="0.1524" layer="21"/>
<wire x1="-1.524" y1="0" x2="-0.762" y2="0" width="0.1524" layer="21"/>
<wire x1="-0.381" y1="-0.381" x2="-0.762" y2="0" width="0.1524" layer="21"/>
<wire x1="-0.381" y1="-0.381" x2="-0.381" y2="-0.762" width="0.1524" layer="21"/>
<wire x1="-0.381" y1="-1.524" x2="0.381" y2="-1.524" width="0.1524" layer="21"/>
<wire x1="0.381" y1="-1.524" x2="0.381" y2="-0.762" width="0.1524" layer="21"/>
<wire x1="0.381" y1="-0.381" x2="0.762" y2="0" width="0.1524" layer="21"/>
<wire x1="-1.778" y1="-1.397" x2="-2.032" y2="-1.651" width="0.3048" layer="51"/>
<wire x1="1.778" y1="-1.397" x2="2.032" y2="-1.651" width="0.3048" layer="51"/>
<wire x1="2.3876" y1="0.381" x2="2.7686" y2="0.381" width="0.3048" layer="21"/>
<wire x1="1.778" y1="2.032" x2="2.032" y2="2.286" width="0.3048" layer="21"/>
<wire x1="0" y1="2.7178" x2="0" y2="3.0988" width="0.3048" layer="21"/>
<wire x1="-1.905" y1="2.032" x2="-2.159" y2="2.286" width="0.3048" layer="21"/>
<wire x1="-2.3876" y1="0.381" x2="-2.7686" y2="0.381" width="0.3048" layer="21"/>
<wire x1="0.381" y1="1.524" x2="-0.381" y2="1.524" width="0.1524" layer="21"/>
<wire x1="0.381" y1="1.524" x2="0.381" y2="2.286" width="0.1524" layer="21"/>
<wire x1="-0.381" y1="1.524" x2="-0.381" y2="1.143" width="0.1524" layer="21"/>
<wire x1="0.381" y1="-0.762" x2="-0.381" y2="-0.762" width="0.1524" layer="21"/>
<wire x1="0.381" y1="-0.762" x2="0.381" y2="-0.381" width="0.1524" layer="21"/>
<wire x1="-0.381" y1="-0.762" x2="-0.381" y2="-1.524" width="0.1524" layer="21"/>
<wire x1="-2.54" y1="-3.048" x2="-2.54" y2="-3.429" width="0.1524" layer="21"/>
<wire x1="-1.016" y1="-3.048" x2="1.016" y2="-3.048" width="0.1524" layer="51"/>
<wire x1="2.54" y1="-3.429" x2="2.54" y2="-3.048" width="0.1524" layer="21"/>
<wire x1="-2.54" y1="-3.429" x2="-0.635" y2="-3.429" width="0.1524" layer="21"/>
<wire x1="-0.635" y1="-3.429" x2="0.635" y2="-3.429" width="0.1524" layer="51"/>
<wire x1="0.635" y1="-3.429" x2="2.54" y2="-3.429" width="0.1524" layer="21"/>
<wire x1="2.54" y1="-3.429" x2="3.175" y2="-3.429" width="0.1524" layer="21"/>
<wire x1="-2.54" y1="-3.048" x2="-1.016" y2="-3.048" width="0.1524" layer="21"/>
<wire x1="1.016" y1="-3.048" x2="2.54" y2="-3.048" width="0.1524" layer="21"/>
<circle x="0" y="0.381" radius="2.032" width="0.1524" layer="51"/>
<pad name="A" x="-2.54" y="0" drill="0.8128" shape="octagon"/>
<pad name="E" x="2.54" y="0" drill="0.8128" shape="octagon"/>
<pad name="S" x="0" y="2.54" drill="0.8128" shape="octagon"/>
<text x="-3.175" y="3.81" size="1.27" layer="25" ratio="10">&gt;NAME</text>
<text x="-3.1496" y="-5.08" size="1.27" layer="27" ratio="10">&gt;VALUE</text>
<text x="2.413" y="-2.794" size="0.9906" layer="21" ratio="12">3</text>
<text x="-2.921" y="-2.794" size="0.9906" layer="21" ratio="12">1</text>
</package>
</packages>
</library>
<library name="transistor-power">
<packages>
<package name="TO220BV">
<description>&lt;b&gt;Molded Package&lt;/b&gt;&lt;p&gt;
grid 2.54 mm</description>
<wire x1="4.699" y1="-4.318" x2="4.953" y2="-4.064" width="0.1524" layer="21"/>
<wire x1="4.699" y1="-4.318" x2="-4.699" y2="-4.318" width="0.1524" layer="21"/>
<wire x1="-4.953" y1="-4.064" x2="-4.699" y2="-4.318" width="0.1524" layer="21"/>
<wire x1="5.08" y1="-1.143" x2="4.953" y2="-4.064" width="0.1524" layer="21"/>
<wire x1="-4.953" y1="-4.064" x2="-5.08" y2="-1.143" width="0.1524" layer="21"/>
<circle x="-4.4958" y="-3.7084" radius="0.254" width="0" layer="21"/>
<pad name="G" x="-2.54" y="-2.54" drill="1.016" shape="long" rot="R90"/>
<pad name="D" x="0" y="-2.54" drill="1.016" shape="long" rot="R90"/>
<pad name="S" x="2.54" y="-2.54" drill="1.016" shape="long" rot="R90"/>
<text x="-5.08" y="-6.0452" size="1.27" layer="25" ratio="10">&gt;NAME</text>
<text x="-5.08" y="-7.62" size="1.27" layer="27" ratio="10">&gt;VALUE</text>
<rectangle x1="-5.334" y1="-0.762" x2="5.334" y2="0" layer="21"/>
<rectangle x1="-5.334" y1="-1.27" x2="-3.429" y2="-0.762" layer="21"/>
<rectangle x1="-1.651" y1="-1.27" x2="-0.889" y2="-0.762" layer="21"/>
<rectangle x1="-3.429" y1="-1.27" x2="-1.651" y2="-0.762" layer="51"/>
<rectangle x1="0.889" y1="-1.27" x2="1.651" y2="-0.762" layer="21"/>
<rectangle x1="3.429" y1="-1.27" x2="5.334" y2="-0.762" layer="21"/>
<rectangle x1="-0.889" y1="-1.27" x2="0.889" y2="-0.762" layer="51"/>
<rectangle x1="1.651" y1="-1.27" x2="3.429" y2="-0.762" layer="51"/>
</package>
</packages>
</library>
<library name="nick">
<packages>
<package name="SCREW-2-02">
<wire x1="-3.491" y1="-1.016" x2="-1.484" y2="0.991" width="0.254" layer="51"/>
<wire x1="1.488" y1="-0.991" x2="3.469" y2="1.016" width="0.254" layer="51"/>
<wire x1="-4.989" y1="-4.191" x2="4.993" y2="-4.191" width="0.1524" layer="21"/>
<wire x1="4.993" y1="5.004" x2="4.993" y2="4.801" width="0.1524" layer="21"/>
<wire x1="4.993" y1="5.004" x2="-4.989" y2="5.004" width="0.1524" layer="21"/>
<wire x1="-4.989" y1="-4.191" x2="-4.989" y2="-1.803" width="0.1524" layer="21"/>
<wire x1="-4.989" y1="-1.803" x2="-3.389" y2="-1.803" width="0.1524" layer="21"/>
<wire x1="-3.389" y1="-1.803" x2="-1.611" y2="-1.803" width="0.1524" layer="51"/>
<wire x1="-1.611" y1="-1.803" x2="1.615" y2="-1.803" width="0.1524" layer="21"/>
<wire x1="3.393" y1="-1.803" x2="4.993" y2="-1.803" width="0.1524" layer="21"/>
<wire x1="-4.989" y1="-1.803" x2="-4.989" y2="4.801" width="0.1524" layer="21"/>
<wire x1="4.993" y1="-1.803" x2="4.993" y2="-4.191" width="0.1524" layer="21"/>
<wire x1="-4.989" y1="4.801" x2="4.993" y2="4.801" width="0.1524" layer="21"/>
<wire x1="-4.989" y1="4.801" x2="-4.989" y2="5.004" width="0.1524" layer="21"/>
<wire x1="4.993" y1="4.801" x2="4.993" y2="-1.803" width="0.1524" layer="21"/>
<wire x1="1.615" y1="-1.803" x2="3.393" y2="-1.803" width="0.1524" layer="51"/>
<circle x="-2.5" y="0" radius="1.4986" width="0.1524" layer="51"/>
<circle x="-2.5" y="3.4798" radius="0.508" width="0.1524" layer="21"/>
<circle x="2.5038" y="0" radius="1.4986" width="0.1524" layer="51"/>
<circle x="2.5038" y="3.4798" radius="0.508" width="0.1524" layer="21"/>
<pad name="1" x="-2.5" y="0" drill="1.1938" shape="long" rot="R90"/>
<pad name="2" x="2.5" y="0" drill="1.1938" shape="long" rot="R90"/>
<text x="-5.04" y="-6.35" size="1.27" layer="27" ratio="10">&gt;VALUE</text>
<text x="-3.8462" y="-3.7338" size="1.27" layer="25" ratio="10">&gt;NAME</text>
<text x="-4.532" y="1.905" size="1.27" layer="21" ratio="10">1</text>
<text x="0.421" y="1.905" size="1.27" layer="21" ratio="10">2</text>
</package>
</packages>
</library>
<library name="resistor">
<packages>
<package name="C1206">
<description>&lt;b&gt;CAPACITOR&lt;/b&gt;&lt;p&gt;
chip</description>
<wire x1="-2.473" y1="0.983" x2="2.473" y2="0.983" width="0.0508" layer="39"/>
<wire x1="2.473" y1="-0.983" x2="-2.473" y2="-0.983" width="0.0508" layer="39"/>
<wire x1="-2.473" y1="-0.983" x2="-2.473" y2="0.983" width="0.0508" layer="39"/>
<wire x1="2.473" y1="0.983" x2="2.473" y2="-0.983" width="0.0508" layer="39"/>
<wire x1="-0.965" y1="0.787" x2="0.965" y2="0.787" width="0.1016" layer="51"/>
<wire x1="-0.965" y1="-0.787" x2="0.965" y2="-0.787" width="0.1016" layer="51"/>
<smd name="1" x="-1.4" y="0" dx="1.6" dy="1.8" layer="1"/>
<smd name="2" x="1.4" y="0" dx="1.6" dy="1.8" layer="1"/>
<text x="-1.27" y="1.143" size="1.27" layer="25">&gt;NAME</text>
<text x="-1.27" y="-2.413" size="1.27" layer="27">&gt;VALUE</text>
<rectangle x1="-1.7018" y1="-0.8509" x2="-0.9517" y2="0.8491" layer="51"/>
<rectangle x1="0.9517" y1="-0.8491" x2="1.7018" y2="0.8509" layer="51"/>
<rectangle x1="-0.1999" y1="-0.4001" x2="0.1999" y2="0.4001" layer="35"/>
</package>
</packages>
</library>
<library name="holes">
<packages>
<package name="2,8">
<description>&lt;b&gt;MOUNTING HOLE&lt;/b&gt; 2.8 mm with drill center</description>
<wire x1="-1.778" y1="0" x2="0" y2="-1.778" width="2.286" layer="51" curve="90" cap="flat"/>
<wire x1="0" y1="1.778" x2="1.778" y2="0" width="2.286" layer="51" curve="-90" cap="flat"/>
<circle x="0" y="0" radius="0.635" width="0.4572" layer="51"/>
<circle x="0" y="0" radius="2.921" width="0.1524" layer="21"/>
<circle x="0" y="0" radius="2.54" width="2.032" layer="40"/>
<circle x="0" y="0" radius="2.54" width="2.032" layer="39"/>
<circle x="0" y="0" radius="2.54" width="2.032" layer="41"/>
<circle x="0" y="0" radius="2.54" width="2.032" layer="42"/>
<circle x="0" y="0" radius="2.54" width="2.032" layer="43"/>
<circle x="0" y="0" radius="1.5" width="0.2032" layer="21"/>
<hole x="0" y="0" drill="2.8"/>
</package>
</packages>
</library>
</libraries>
<attributes>
</attributes>
<variantdefs>
</variantdefs>
<classes>
<class number="0" name="default" width="0" drill="0">
</class>
<class number="1" name="power" width="0.762" drill="0">
<clearance class="1" value="0.508"/>
</class>
</classes>
<designrules name="LaenPCBOrder">
<description language="de">&lt;b&gt;EAGLE Design Rules&lt;/b&gt;
&lt;p&gt;
Die Standard-Design-Rules sind so gewählt, dass sie für 
die meisten Anwendungen passen. Sollte ihre Platine 
besondere Anforderungen haben, treffen Sie die erforderlichen
Einstellungen hier und speichern die Design Rules unter 
einem neuen Namen ab.</description>
<description language="en">&lt;b&gt;Laen's PCB Order Design Rules&lt;/b&gt;
&lt;p&gt;
Please make sure your boards conform to these design rules.</description>
<param name="layerSetup" value="(1*16)"/>
<param name="mtCopper" value="0.0356mm 0.0356mm 0.0356mm 0.0356mm 0.0356mm 0.0356mm 0.0356mm 0.0356mm 0.0356mm 0.0356mm 0.0356mm 0.0356mm 0.0356mm 0.0356mm 0.0356mm 0.0356mm"/>
<param name="mtIsolate" value="1.5011mm 0.1499mm 0.2007mm 0.1499mm 0.2007mm 0.1499mm 0.2007mm 0.1499mm 0.2007mm 0.1499mm 0.2007mm 0.1499mm 0.2007mm 0.1499mm 0.2007mm"/>
<param name="mdWireWire" value="6mil"/>
<param name="mdWirePad" value="6mil"/>
<param name="mdWireVia" value="6mil"/>
<param name="mdPadPad" value="6mil"/>
<param name="mdPadVia" value="6mil"/>
<param name="mdViaVia" value="6mil"/>
<param name="mdSmdPad" value="6mil"/>
<param name="mdSmdVia" value="6mil"/>
<param name="mdSmdSmd" value="6mil"/>
<param name="mdViaViaSameLayer" value="8mil"/>
<param name="mnLayersViaInSmd" value="2"/>
<param name="mdCopperDimension" value="15mil"/>
<param name="mdDrill" value="6mil"/>
<param name="mdSmdStop" value="0mil"/>
<param name="msWidth" value="6mil"/>
<param name="msDrill" value="13mil"/>
<param name="msMicroVia" value="13mil"/>
<param name="msBlindViaRatio" value="0.5"/>
<param name="rvPadTop" value="0.25"/>
<param name="rvPadInner" value="0.25"/>
<param name="rvPadBottom" value="0.25"/>
<param name="rvViaOuter" value="0.25"/>
<param name="rvViaInner" value="0.25"/>
<param name="rvMicroViaOuter" value="0.25"/>
<param name="rvMicroViaInner" value="0.25"/>
<param name="rlMinPadTop" value="7mil"/>
<param name="rlMaxPadTop" value="20mil"/>
<param name="rlMinPadInner" value="7mil"/>
<param name="rlMaxPadInner" value="20mil"/>
<param name="rlMinPadBottom" value="7mil"/>
<param name="rlMaxPadBottom" value="20mil"/>
<param name="rlMinViaOuter" value="7mil"/>
<param name="rlMaxViaOuter" value="20mil"/>
<param name="rlMinViaInner" value="7mil"/>
<param name="rlMaxViaInner" value="20mil"/>
<param name="rlMinMicroViaOuter" value="4mil"/>
<param name="rlMaxMicroViaOuter" value="20mil"/>
<param name="rlMinMicroViaInner" value="4mil"/>
<param name="rlMaxMicroViaInner" value="20mil"/>
<param name="psTop" value="-1"/>
<param name="psBottom" value="-1"/>
<param name="psFirst" value="-1"/>
<param name="psElongationLong" value="100"/>
<param name="psElongationOffset" value="100"/>
<param name="mvStopFrame" value="1"/>
<param name="mvCreamFrame" value="0"/>
<param name="mlMinStopFrame" value="4mil"/>
<param name="mlMaxStopFrame" value="4mil"/>
<param name="mlMinCreamFrame" value="0mil"/>
<param name="mlMaxCreamFrame" value="0mil"/>
<param name="mlViaStopLimit" value="0mil"/>
<param name="srRoundness" value="0"/>
<param name="srMinRoundness" value="0mil"/>
<param name="srMaxRoundness" value="0mil"/>
<param name="slThermalIsolate" value="10mil"/>
<param name="slThermalsForVias" value="0"/>
<param name="dpMaxLengthDifference" value="10mm"/>
<param name="dpGapFactor" value="2.5"/>
<param name="checkGrid" value="0"/>
<param name="checkAngle" value="0"/>
<param name="checkFont" value="1"/>
<param name="checkRestrict" value="1"/>
<param name="useDiameter" value="13"/>
<param name="maxErrors" value="50"/>
</designrules>
<autorouter>
<pass name="Default">
<param name="RoutingGrid" value="50mil"/>
<param name="tpViaShape" value="round"/>
<param name="PrefDir.1" value="|"/>
<param name="PrefDir.2" value="0"/>
<param name="PrefDir.3" value="0"/>
<param name="PrefDir.4" value="0"/>
<param name="PrefDir.5" value="0"/>
<param name="PrefDir.6" value="0"/>
<param name="PrefDir.7" value="0"/>
<param name="PrefDir.8" value="0"/>
<param name="PrefDir.9" value="0"/>
<param name="PrefDir.10" value="0"/>
<param name="PrefDir.11" value="0"/>
<param name="PrefDir.12" value="0"/>
<param name="PrefDir.13" value="0"/>
<param name="PrefDir.14" value="0"/>
<param name="PrefDir.15" value="0"/>
<param name="PrefDir.16" value="-"/>
<param name="cfVia" value="8"/>
<param name="cfNonPref" value="5"/>
<param name="cfChangeDir" value="2"/>
<param name="cfOrthStep" value="2"/>
<param name="cfDiagStep" value="3"/>
<param name="cfExtdStep" value="0"/>
<param name="cfBonusStep" value="1"/>
<param name="cfMalusStep" value="1"/>
<param name="cfPadImpact" value="4"/>
<param name="cfSmdImpact" value="4"/>
<param name="cfBusImpact" value="0"/>
<param name="cfHugging" value="3"/>
<param name="cfAvoid" value="4"/>
<param name="cfPolygon" value="10"/>
<param name="cfBase.1" value="0"/>
<param name="cfBase.2" value="1"/>
<param name="cfBase.3" value="1"/>
<param name="cfBase.4" value="1"/>
<param name="cfBase.5" value="1"/>
<param name="cfBase.6" value="1"/>
<param name="cfBase.7" value="1"/>
<param name="cfBase.8" value="1"/>
<param name="cfBase.9" value="1"/>
<param name="cfBase.10" value="1"/>
<param name="cfBase.11" value="1"/>
<param name="cfBase.12" value="1"/>
<param name="cfBase.13" value="1"/>
<param name="cfBase.14" value="1"/>
<param name="cfBase.15" value="1"/>
<param name="cfBase.16" value="0"/>
<param name="mnVias" value="20"/>
<param name="mnSegments" value="9999"/>
<param name="mnExtdSteps" value="9999"/>
<param name="mnRipupLevel" value="10"/>
<param name="mnRipupSteps" value="100"/>
<param name="mnRipupTotal" value="100"/>
</pass>
<pass name="Follow-me" refer="Default" active="yes">
</pass>
<pass name="Busses" refer="Default" active="yes">
<param name="cfNonPref" value="4"/>
<param name="cfBusImpact" value="4"/>
<param name="cfHugging" value="0"/>
<param name="mnVias" value="0"/>
</pass>
<pass name="Route" refer="Default" active="yes">
</pass>
</autorouter>
<elements>
<element name="L1" library="inductors" package="MESC26" value="100uH 1A" x="5.08" y="29.21" rot="R90"/>
<element name="IC1" library="st-microelectronics" package="DIL-08" value="NE555" x="22.86" y="21.59"/>
<element name="R17" library="rcl" package="0207/2V" value="220k" x="33.02" y="27.94" rot="R270"/>
<element name="R18" library="rcl" package="0207/2V" value="470" x="39.37" y="25.4"/>
<element name="R15" library="rcl" package="0207/2V" value="1k" x="15.24" y="10.16"/>
<element name="R5" library="rcl" package="0207/2V" value="33k" x="31.75" y="35.56" rot="R90"/>
<element name="R14" library="rcl" package="0207/2V" value="1k" x="20.32" y="29.21" rot="R180"/>
<element name="R16" library="rcl" package="0207/2V" value="10k" x="15.24" y="22.86" rot="R90"/>
<element name="R19" library="pot" package="B25P" value="VAR" x="38.1" y="31.75" rot="R180"/>
<element name="C1" library="rcl" package="E2,5-7" value="1uF 350v" x="33.02" y="20.32" rot="R270"/>
<element name="C2" library="rcl" package="E5-10,5" value="470uF 25v" x="15.24" y="35.56" rot="R180"/>
<element name="Q10" library="transistor-power" package="TO220BV" value="IRF740" x="26.67" y="10.16" rot="R270"/>
<element name="Q5" library="transistor-pnp" package="TO92-CBE" value="MPSA42" x="27.94" y="31.75" rot="R90"/>
<element name="C3" library="rcl" package="C050-024X044" value="5.6p" x="13.97" y="17.78" rot="R180"/>
<element name="C4" library="rcl" package="C075-032X103" value="47pF" x="6.35" y="10.16" rot="R180"/>
<element name="J3" library="nick" package="SCREW-2-02" value="OUTPUTS" x="36.83" y="2.54"/>
<element name="J1" library="nick" package="SCREW-2-02" value="INPUTS" x="31.75" y="41.91"/>
<element name="C5" library="resistor" package="C1206" value="10uF" x="22.86" y="41.91" rot="R90"/>
<element name="D2" library="diode" package="DO41-10" value="1N4004" x="33.02" y="10.16" rot="R180"/>
<element name="U$2" library="holes" package="2,8" value="" x="41.308" y="42.7914"/>
<element name="C7" library="rcl" package="E2,5-7" value="0.47uF" x="15.24" y="2.54" rot="R180"/>
<element name="U$3" library="holes" package="2,8" value="" x="7.018" y="4.6914"/>
<element name="C6" library="resistor" package="C1206" value="0.22uF" x="20.32" y="45.72"/>
</elements>
<signals>
<signal name="N$45">
<contactref element="L1" pad="1"/>
<contactref element="R15" pad="2"/>
<contactref element="Q10" pad="D"/>
<contactref element="D2" pad="A"/>
<wire x1="16.51" y1="10.16" x2="24.13" y2="10.16" width="0.8128" layer="1"/>
<wire x1="5.08" y1="15.875" x2="9.525" y2="15.875" width="0.8128" layer="1"/>
<wire x1="9.525" y1="15.875" x2="11.43" y2="13.97" width="0.8128" layer="1"/>
<wire x1="11.43" y1="13.97" x2="16.51" y2="13.97" width="0.8128" layer="1"/>
<wire x1="16.51" y1="13.97" x2="16.51" y2="10.16" width="0.8128" layer="1"/>
<wire x1="24.13" y1="10.16" x2="27.94" y2="10.16" width="0.8128" layer="1"/>
</signal>
<signal name="GND">
<contactref element="R18" pad="1"/>
<contactref element="C1" pad="-"/>
<contactref element="IC1" pad="1"/>
<contactref element="C2" pad="-"/>
<contactref element="Q10" pad="S"/>
<contactref element="Q5" pad="E"/>
<contactref element="C3" pad="2"/>
<contactref element="C4" pad="2"/>
<contactref element="J3" pad="2"/>
<contactref element="J1" pad="1"/>
<contactref element="C5" pad="2"/>
<contactref element="C7" pad="-"/>
<contactref element="C6" pad="2"/>
<wire x1="21.72" y1="45.72" x2="25.4" y2="45.72" width="1.016" layer="1"/>
<wire x1="22.86" y1="43.31" x2="25.4" y2="43.31" width="1.016" layer="1"/>
<wire x1="25.4" y1="43.31" x2="25.4" y2="44.45" width="1.016" layer="1"/>
<wire x1="25.4" y1="44.45" x2="25.4" y2="45.72" width="1.016" layer="1"/>
<wire x1="13.97" y1="2.54" x2="13.97" y2="6.35" width="1.016" layer="16"/>
<wire x1="13.97" y1="6.35" x2="15.24" y2="7.62" width="1.016" layer="16"/>
<wire x1="17.78" y1="7.62" x2="24.13" y2="7.62" width="1.016" layer="16"/>
<wire x1="38.1" y1="25.4" x2="30.48" y2="25.4" width="1.016" layer="16"/>
<wire x1="30.48" y1="25.4" x2="29.21" y2="26.67" width="1.016" layer="16"/>
<wire x1="29.21" y1="26.67" x2="29.21" y2="27.94" width="1.016" layer="16"/>
<wire x1="29.21" y1="27.94" x2="27.94" y2="29.21" width="1.016" layer="16"/>
<wire x1="33.02" y1="19.05" x2="30.48" y2="19.05" width="1.016" layer="16"/>
<wire x1="30.48" y1="19.05" x2="30.48" y2="25.4" width="1.016" layer="16"/>
<wire x1="29.25" y1="41.91" x2="27.94" y2="41.91" width="1.016" layer="16"/>
<wire x1="27.94" y1="41.91" x2="26.67" y2="43.18" width="1.016" layer="16"/>
<wire x1="26.67" y1="43.18" x2="26.67" y2="44.45" width="1.016" layer="16"/>
<wire x1="26.67" y1="44.45" x2="25.4" y2="44.45" width="1.016" layer="16"/>
<via x="25.4" y="44.45" extent="1-16" drill="0.6"/>
<wire x1="12.7" y1="35.56" x2="12.7" y2="21.59" width="1.016" layer="16"/>
<wire x1="12.7" y1="21.59" x2="11.43" y2="20.32" width="1.016" layer="16"/>
<wire x1="11.43" y1="20.32" x2="11.43" y2="17.78" width="1.016" layer="16"/>
<wire x1="2.54" y1="10.16" x2="2.54" y2="11.43" width="1.016" layer="16"/>
<wire x1="2.54" y1="11.43" x2="3.81" y2="12.7" width="1.016" layer="16"/>
<wire x1="3.81" y1="12.7" x2="11.43" y2="12.7" width="1.016" layer="16"/>
<wire x1="11.43" y1="15.24" x2="11.43" y2="17.78" width="1.016" layer="16"/>
<wire x1="15.24" y1="7.62" x2="17.78" y2="7.62" width="1.016" layer="16"/>
<wire x1="17.78" y1="7.62" x2="19.05" y2="8.89" width="1.016" layer="16"/>
<wire x1="19.05" y1="8.89" x2="19.05" y2="15.24" width="1.016" layer="16"/>
<wire x1="11.43" y1="12.7" x2="11.43" y2="15.24" width="1.016" layer="16"/>
<wire x1="11.43" y1="15.24" x2="19.05" y2="15.24" width="1.016" layer="16"/>
<wire x1="19.05" y1="17.78" x2="19.05" y2="15.24" width="1.016" layer="16"/>
<wire x1="19.05" y1="15.24" x2="29.21" y2="15.24" width="1.016" layer="16"/>
<wire x1="29.21" y1="15.24" x2="30.48" y2="16.51" width="1.016" layer="16"/>
<wire x1="30.48" y1="16.51" x2="30.48" y2="19.05" width="1.016" layer="16"/>
<wire x1="27.94" y1="41.91" x2="30.48" y2="39.37" width="1.016" layer="16"/>
<wire x1="30.48" y1="39.37" x2="31.75" y2="39.37" width="1.016" layer="16"/>
<wire x1="31.75" y1="39.37" x2="33.02" y2="38.1" width="1.016" layer="16"/>
<wire x1="33.02" y1="38.1" x2="41.91" y2="38.1" width="1.016" layer="16"/>
<wire x1="41.91" y1="38.1" x2="43.18" y2="36.83" width="1.016" layer="16"/>
<wire x1="43.18" y1="36.83" x2="43.18" y2="19.05" width="1.016" layer="16"/>
<wire x1="43.18" y1="19.05" x2="43.18" y2="3.81" width="1.016" layer="16"/>
<wire x1="43.18" y1="3.81" x2="41.91" y2="2.54" width="1.016" layer="16"/>
<wire x1="41.91" y1="2.54" x2="39.33" y2="2.54" width="1.016" layer="16"/>
<wire x1="33.02" y1="19.05" x2="43.18" y2="19.05" width="1.016" layer="16"/>
</signal>
<signal name="N$46">
<contactref element="R17" pad="1"/>
<contactref element="R19" pad="E"/>
<contactref element="R19" pad="S"/>
<contactref element="Q5" pad="B"/>
<wire x1="33.02" y1="31.75" x2="33.02" y2="29.21" width="0.8128" layer="1"/>
<wire x1="33.02" y1="31.75" x2="35.56" y2="31.75" width="0.8128" layer="1"/>
<wire x1="27.94" y1="31.75" x2="33.02" y2="31.75" width="0.8128" layer="1"/>
<wire x1="35.56" y1="31.75" x2="38.1" y2="29.21" width="0.8128" layer="1"/>
</signal>
<signal name="N$47">
<contactref element="R19" pad="A"/>
<contactref element="R18" pad="2"/>
<wire x1="43.18" y1="31.75" x2="40.64" y2="31.75" width="0.8128" layer="1"/>
<wire x1="43.18" y1="26.67" x2="43.18" y2="31.75" width="0.8128" layer="1"/>
<wire x1="40.64" y1="25.4" x2="43.18" y2="26.67" width="0.8128" layer="1"/>
</signal>
<signal name="DIS">
<contactref element="R14" pad="1"/>
<contactref element="R16" pad="2"/>
<contactref element="IC1" pad="7"/>
<contactref element="IC1" pad="6"/>
<wire x1="21.59" y1="25.4" x2="24.13" y2="25.4" width="0.8128" layer="1"/>
<wire x1="21.59" y1="25.4" x2="21.59" y2="29.21" width="0.8128" layer="1"/>
<wire x1="15.24" y1="24.13" x2="16.51" y2="24.13" width="0.8128" layer="16"/>
<wire x1="16.51" y1="24.13" x2="17.78" y2="22.86" width="0.8128" layer="16"/>
<wire x1="17.78" y1="22.86" x2="21.59" y2="22.86" width="0.8128" layer="16"/>
<wire x1="21.59" y1="22.86" x2="21.59" y2="25.4" width="0.8128" layer="16"/>
</signal>
<signal name="CON">
<contactref element="R5" pad="1"/>
<contactref element="IC1" pad="5"/>
<contactref element="Q5" pad="C"/>
<wire x1="27.94" y1="34.29" x2="31.75" y2="34.29" width="0.8128" layer="1"/>
<wire x1="26.67" y1="25.4" x2="26.67" y2="26.67" width="0.8128" layer="1"/>
<wire x1="26.67" y1="26.67" x2="24.13" y2="29.21" width="0.8128" layer="1"/>
<wire x1="24.13" y1="29.21" x2="24.13" y2="34.29" width="0.8128" layer="1"/>
<wire x1="24.13" y1="34.29" x2="27.94" y2="34.29" width="0.8128" layer="1"/>
</signal>
<signal name="TRI">
<contactref element="IC1" pad="2"/>
<contactref element="R16" pad="1"/>
<contactref element="C3" pad="1"/>
<wire x1="16.51" y1="21.59" x2="15.24" y2="21.59" width="0.8128" layer="1"/>
<wire x1="16.51" y1="21.59" x2="21.59" y2="21.59" width="0.8128" layer="1"/>
<wire x1="21.59" y1="21.59" x2="21.59" y2="17.78" width="0.8128" layer="1"/>
<wire x1="16.51" y1="17.78" x2="16.51" y2="21.59" width="0.8128" layer="1"/>
</signal>
<signal name="OUT">
<contactref element="Q10" pad="G"/>
<contactref element="IC1" pad="3"/>
<wire x1="24.13" y1="12.7" x2="24.13" y2="17.78" width="0.8128" layer="1"/>
</signal>
<signal name="VCC">
<contactref element="R14" pad="2"/>
<contactref element="IC1" pad="4"/>
<contactref element="R5" pad="2"/>
<contactref element="IC1" pad="8"/>
<contactref element="L1" pad="2"/>
<contactref element="C2" pad="+"/>
<contactref element="J1" pad="2"/>
<contactref element="C5" pad="1"/>
<contactref element="C6" pad="1"/>
<wire x1="19.05" y1="25.4" x2="19.05" y2="29.21" width="0.8128" layer="1"/>
<wire x1="26.67" y1="22.86" x2="26.67" y2="17.78" width="0.8128" layer="1"/>
<wire x1="19.05" y1="22.86" x2="19.05" y2="25.4" width="0.8128" layer="1"/>
<wire x1="19.05" y1="22.86" x2="26.67" y2="22.86" width="0.8128" layer="1"/>
<wire x1="17.78" y1="30.48" x2="17.78" y2="35.56" width="0.8128" layer="1"/>
<wire x1="19.05" y1="29.21" x2="17.78" y2="30.48" width="0.8128" layer="1"/>
<wire x1="35.56" y1="41.91" x2="34.25" y2="41.91" width="0.8128" layer="1"/>
<wire x1="35.56" y1="38.1" x2="35.56" y2="41.91" width="0.8128" layer="1"/>
<wire x1="22.86" y1="36.83" x2="22.86" y2="40.51" width="0.8128" layer="1"/>
<wire x1="33.02" y1="38.1" x2="35.56" y2="38.1" width="0.8128" layer="1"/>
<wire x1="31.75" y1="36.83" x2="33.02" y2="38.1" width="0.8128" layer="1"/>
<wire x1="17.78" y1="42.545" x2="18.92" y2="42.545" width="1.016" layer="1"/>
<wire x1="18.92" y1="42.545" x2="18.92" y2="45.72" width="1.016" layer="1"/>
<wire x1="17.78" y1="36.83" x2="17.78" y2="35.56" width="1.016" layer="1"/>
<wire x1="17.78" y1="42.545" x2="5.08" y2="42.545" width="1.016" layer="1"/>
<wire x1="22.86" y1="36.83" x2="31.75" y2="36.83" width="1.016" layer="1"/>
<wire x1="17.78" y1="42.545" x2="17.78" y2="35.56" width="1.016" layer="1"/>
<wire x1="17.78" y1="36.83" x2="22.86" y2="36.83" width="1.016" layer="1"/>
</signal>
<signal name="N$8">
<contactref element="R15" pad="1"/>
<contactref element="C4" pad="1"/>
<wire x1="10.16" y1="10.16" x2="13.97" y2="10.16" width="0.8128" layer="1"/>
</signal>
<signal name="VOUT">
<contactref element="C1" pad="+"/>
<contactref element="R17" pad="2"/>
<contactref element="J3" pad="1"/>
<contactref element="D2" pad="C"/>
<contactref element="C7" pad="+"/>
<wire x1="33.02" y1="21.59" x2="33.02" y2="26.67" width="0.8128" layer="1"/>
<wire x1="34.33" y1="2.54" x2="34.29" y2="2.54" width="0.8128" layer="1"/>
<wire x1="34.29" y1="2.54" x2="34.29" y2="6.35" width="0.8128" layer="1"/>
<wire x1="34.29" y1="6.35" x2="38.1" y2="6.35" width="0.8128" layer="1"/>
<wire x1="38.1" y1="6.35" x2="38.1" y2="10.16" width="0.8128" layer="1"/>
<wire x1="36.83" y1="21.59" x2="33.02" y2="21.59" width="0.8128" layer="1"/>
<wire x1="36.83" y1="11.43" x2="36.83" y2="21.59" width="0.8128" layer="1"/>
<wire x1="38.1" y1="10.16" x2="36.83" y2="11.43" width="0.8128" layer="1"/>
<wire x1="34.29" y1="2.54" x2="16.51" y2="2.54" width="1.016" layer="1"/>
</signal>
</signals>
</board>
</drawing>
</eagle>
