<?xml version="1.0" encoding="utf-8"?>
<!DOCTYPE eagle SYSTEM "eagle.dtd">
<eagle version="7.3.0">
<drawing>
<settings>
<setting alwaysvectorfont="yes"/>
<setting verticaltext="up"/>
</settings>
<grid distance="5" unitdist="mil" unit="mil" style="lines" multiple="1" display="no" altdistance="5" altunitdist="mil" altunit="mil"/>
<layers>
<layer number="1" name="Top" color="4" fill="1" visible="yes" active="yes"/>
<layer number="2" name="Route2" color="1" fill="3" visible="no" active="no"/>
<layer number="3" name="Route3" color="4" fill="3" visible="no" active="no"/>
<layer number="4" name="Route4" color="1" fill="4" visible="no" active="no"/>
<layer number="5" name="Route5" color="4" fill="4" visible="no" active="no"/>
<layer number="6" name="Route6" color="1" fill="8" visible="no" active="no"/>
<layer number="7" name="Route7" color="4" fill="8" visible="no" active="no"/>
<layer number="8" name="Route8" color="1" fill="2" visible="no" active="no"/>
<layer number="9" name="Route9" color="4" fill="2" visible="no" active="no"/>
<layer number="10" name="Route10" color="1" fill="7" visible="no" active="no"/>
<layer number="11" name="Route11" color="4" fill="7" visible="no" active="no"/>
<layer number="12" name="Route12" color="1" fill="5" visible="no" active="no"/>
<layer number="13" name="Route13" color="4" fill="5" visible="no" active="no"/>
<layer number="14" name="Route14" color="1" fill="6" visible="no" active="no"/>
<layer number="15" name="Route15" color="4" fill="6" visible="no" active="no"/>
<layer number="16" name="Bottom" color="1" fill="1" visible="yes" active="yes"/>
<layer number="17" name="Pads" color="2" fill="1" visible="yes" active="yes"/>
<layer number="18" name="Vias" color="2" fill="1" visible="yes" active="yes"/>
<layer number="19" name="Unrouted" color="6" fill="1" visible="yes" active="yes"/>
<layer number="20" name="Dimension" color="15" fill="1" visible="yes" active="yes"/>
<layer number="21" name="tPlace" color="7" fill="1" visible="yes" active="yes"/>
<layer number="22" name="bPlace" color="7" fill="1" visible="yes" active="yes"/>
<layer number="23" name="tOrigins" color="15" fill="1" visible="yes" active="yes"/>
<layer number="24" name="bOrigins" color="15" fill="1" visible="yes" active="yes"/>
<layer number="25" name="tNames" color="7" fill="1" visible="yes" active="yes"/>
<layer number="26" name="bNames" color="7" fill="1" visible="yes" active="yes"/>
<layer number="27" name="tValues" color="7" fill="1" visible="yes" active="yes"/>
<layer number="28" name="bValues" color="7" fill="1" visible="yes" active="yes"/>
<layer number="29" name="tStop" color="7" fill="3" visible="no" active="yes"/>
<layer number="30" name="bStop" color="7" fill="6" visible="no" active="yes"/>
<layer number="31" name="tCream" color="7" fill="4" visible="no" active="yes"/>
<layer number="32" name="bCream" color="7" fill="5" visible="no" active="yes"/>
<layer number="33" name="tFinish" color="6" fill="3" visible="no" active="yes"/>
<layer number="34" name="bFinish" color="6" fill="6" visible="no" active="yes"/>
<layer number="35" name="tGlue" color="7" fill="4" visible="no" active="yes"/>
<layer number="36" name="bGlue" color="7" fill="5" visible="no" active="yes"/>
<layer number="37" name="tTest" color="7" fill="1" visible="no" active="yes"/>
<layer number="38" name="bTest" color="7" fill="1" visible="no" active="yes"/>
<layer number="39" name="tKeepout" color="4" fill="11" visible="yes" active="yes"/>
<layer number="40" name="bKeepout" color="1" fill="11" visible="yes" active="yes"/>
<layer number="41" name="tRestrict" color="4" fill="10" visible="no" active="yes"/>
<layer number="42" name="bRestrict" color="1" fill="10" visible="no" active="yes"/>
<layer number="43" name="vRestrict" color="2" fill="10" visible="no" active="yes"/>
<layer number="44" name="Drills" color="7" fill="1" visible="no" active="yes"/>
<layer number="45" name="Holes" color="7" fill="1" visible="no" active="yes"/>
<layer number="46" name="Milling" color="3" fill="1" visible="no" active="yes"/>
<layer number="47" name="Measures" color="7" fill="1" visible="no" active="yes"/>
<layer number="48" name="Document" color="7" fill="1" visible="no" active="yes"/>
<layer number="49" name="Reference" color="7" fill="1" visible="no" active="yes"/>
<layer number="50" name="dxf" color="7" fill="1" visible="no" active="yes"/>
<layer number="51" name="tDocu" color="7" fill="1" visible="no" active="yes"/>
<layer number="52" name="bDocu" color="7" fill="1" visible="no" active="yes"/>
<layer number="53" name="tGND_GNDA" color="7" fill="9" visible="no" active="no"/>
<layer number="54" name="bGND_GNDA" color="1" fill="9" visible="no" active="no"/>
<layer number="56" name="wert" color="7" fill="1" visible="no" active="yes"/>
<layer number="57" name="tCAD" color="7" fill="1" visible="no" active="no"/>
<layer number="90" name="Modules" color="5" fill="1" visible="no" active="no"/>
<layer number="91" name="Nets" color="2" fill="1" visible="no" active="no"/>
<layer number="92" name="Busses" color="1" fill="1" visible="no" active="no"/>
<layer number="93" name="Pins" color="2" fill="1" visible="no" active="no"/>
<layer number="94" name="Symbols" color="4" fill="1" visible="no" active="no"/>
<layer number="95" name="Names" color="7" fill="1" visible="no" active="no"/>
<layer number="96" name="Values" color="7" fill="1" visible="no" active="no"/>
<layer number="97" name="Info" color="7" fill="1" visible="no" active="no"/>
<layer number="98" name="Guide" color="6" fill="1" visible="no" active="no"/>
<layer number="99" name="SpiceOrder" color="7" fill="1" visible="no" active="no"/>
<layer number="100" name="Muster" color="7" fill="1" visible="no" active="no"/>
<layer number="101" name="Patch_Top" color="12" fill="4" visible="no" active="yes"/>
<layer number="102" name="Vscore" color="7" fill="1" visible="no" active="yes"/>
<layer number="103" name="fp3" color="7" fill="1" visible="no" active="yes"/>
<layer number="104" name="Name" color="7" fill="1" visible="no" active="yes"/>
<layer number="105" name="Beschreib" color="9" fill="1" visible="no" active="yes"/>
<layer number="106" name="BGA-Top" color="4" fill="1" visible="no" active="yes"/>
<layer number="107" name="BD-Top" color="5" fill="1" visible="no" active="yes"/>
<layer number="108" name="fp8" color="7" fill="1" visible="no" active="yes"/>
<layer number="109" name="fp9" color="7" fill="1" visible="no" active="yes"/>
<layer number="110" name="fp0" color="7" fill="1" visible="no" active="yes"/>
<layer number="111" name="LPC17xx" color="7" fill="1" visible="no" active="yes"/>
<layer number="112" name="tSilk" color="7" fill="1" visible="no" active="yes"/>
<layer number="113" name="IDFDebug" color="4" fill="1" visible="yes" active="yes"/>
<layer number="116" name="Patch_BOT" color="9" fill="4" visible="no" active="yes"/>
<layer number="121" name="_tsilk" color="7" fill="1" visible="no" active="yes"/>
<layer number="122" name="_bsilk" color="7" fill="1" visible="no" active="yes"/>
<layer number="123" name="tTestmark" color="7" fill="1" visible="no" active="yes"/>
<layer number="124" name="bTestmark" color="7" fill="1" visible="no" active="yes"/>
<layer number="125" name="_tNames" color="7" fill="1" visible="no" active="yes"/>
<layer number="126" name="_bNames" color="7" fill="1" visible="no" active="yes"/>
<layer number="127" name="_tValues" color="7" fill="1" visible="no" active="yes"/>
<layer number="128" name="_bValues" color="7" fill="1" visible="no" active="yes"/>
<layer number="131" name="tAdjust" color="7" fill="1" visible="no" active="yes"/>
<layer number="132" name="bAdjust" color="7" fill="1" visible="no" active="yes"/>
<layer number="144" name="Drill_legend" color="7" fill="1" visible="no" active="yes"/>
<layer number="150" name="Notes" color="7" fill="1" visible="no" active="yes"/>
<layer number="151" name="HeatSink" color="7" fill="1" visible="no" active="yes"/>
<layer number="152" name="_bDocu" color="7" fill="1" visible="no" active="yes"/>
<layer number="153" name="FabDoc1" color="6" fill="1" visible="no" active="no"/>
<layer number="154" name="FabDoc2" color="2" fill="1" visible="no" active="no"/>
<layer number="155" name="FabDoc3" color="7" fill="15" visible="no" active="no"/>
<layer number="199" name="Contour" color="7" fill="1" visible="no" active="yes"/>
<layer number="200" name="200bmp" color="1" fill="10" visible="no" active="no"/>
<layer number="201" name="201bmp" color="2" fill="1" visible="no" active="no"/>
<layer number="202" name="202bmp" color="3" fill="1" visible="no" active="no"/>
<layer number="203" name="203bmp" color="4" fill="10" visible="no" active="yes"/>
<layer number="204" name="204bmp" color="5" fill="10" visible="no" active="yes"/>
<layer number="205" name="205bmp" color="6" fill="10" visible="no" active="yes"/>
<layer number="206" name="206bmp" color="7" fill="10" visible="no" active="yes"/>
<layer number="207" name="207bmp" color="8" fill="10" visible="no" active="yes"/>
<layer number="208" name="208bmp" color="9" fill="10" visible="no" active="yes"/>
<layer number="209" name="209bmp" color="7" fill="1" visible="no" active="yes"/>
<layer number="210" name="210bmp" color="7" fill="1" visible="no" active="yes"/>
<layer number="211" name="211bmp" color="7" fill="1" visible="no" active="yes"/>
<layer number="212" name="212bmp" color="7" fill="1" visible="no" active="yes"/>
<layer number="213" name="213bmp" color="7" fill="1" visible="no" active="yes"/>
<layer number="214" name="214bmp" color="7" fill="1" visible="no" active="yes"/>
<layer number="215" name="215bmp" color="7" fill="1" visible="no" active="yes"/>
<layer number="216" name="216bmp" color="7" fill="1" visible="no" active="yes"/>
<layer number="217" name="217bmp" color="18" fill="1" visible="no" active="no"/>
<layer number="218" name="218bmp" color="19" fill="1" visible="no" active="no"/>
<layer number="219" name="219bmp" color="20" fill="1" visible="no" active="no"/>
<layer number="220" name="220bmp" color="21" fill="1" visible="no" active="no"/>
<layer number="221" name="221bmp" color="22" fill="1" visible="no" active="no"/>
<layer number="222" name="222bmp" color="23" fill="1" visible="no" active="no"/>
<layer number="223" name="223bmp" color="24" fill="1" visible="no" active="no"/>
<layer number="224" name="224bmp" color="25" fill="1" visible="no" active="no"/>
<layer number="248" name="Housing" color="7" fill="1" visible="no" active="yes"/>
<layer number="249" name="Edge" color="7" fill="1" visible="no" active="yes"/>
<layer number="250" name="Descript" color="7" fill="1" visible="no" active="no"/>
<layer number="251" name="SMDround" color="7" fill="1" visible="no" active="no"/>
<layer number="254" name="cooling" color="7" fill="1" visible="no" active="yes"/>
<layer number="255" name="routoute" color="7" fill="1" visible="yes" active="yes"/>
</layers>
<board>
<plain>
<wire x1="0" y1="0" x2="99.822" y2="0" width="0" layer="20"/>
<wire x1="99.822" y1="0" x2="99.822" y2="79.883" width="0" layer="20"/>
<wire x1="99.822" y1="79.883" x2="0" y2="79.883" width="0" layer="20"/>
<wire x1="0" y1="79.883" x2="0" y2="0" width="0" layer="20"/>
<text x="36.83" y="6.985" size="1.778" layer="21">Nixie Tube Clock</text>
<text x="36.83" y="4.318" size="1.778" layer="21">MSK 2015</text>
<text x="42.418" y="71.628" size="1.27" layer="21" rot="R90">GND</text>
<text x="44.958" y="71.755" size="1.27" layer="21" rot="R90">RST</text>
<text x="47.498" y="72.009" size="1.27" layer="21" rot="R90">INT</text>
<text x="50.165" y="71.501" size="1.27" layer="21" rot="R90">+5V</text>
<text x="54.991" y="71.374" size="1.27" layer="21" rot="R90">SCL</text>
<text x="40.005" y="70.612" size="1.27" layer="21" rot="R90">VBAT</text>
<text x="52.451" y="69.342" size="1.27" layer="21" rot="R90">32KHz</text>
<text x="36.703" y="2.032" size="1.27" layer="21">http://xyzio.com</text>
<text x="23.495" y="74.549" size="1.27" layer="21" rot="R270">PWR</text>
<text x="20.955" y="74.549" size="1.27" layer="21" rot="R270">GND</text>
<text x="26.162" y="74.549" size="1.27" layer="21" rot="R270">TXD</text>
<text x="29.21" y="74.549" size="1.27" layer="21" rot="R270">RXD</text>
<text x="37.338" y="71.501" size="1.27" layer="21" rot="R90">SDA</text>
</plain>
<libraries>
<library name="adafruit">
<packages>
<package name="AVRISP">
<wire x1="-2.54" y1="3.048" x2="-1.778" y2="3.81" width="0.127" layer="21"/>
<wire x1="-1.778" y1="3.81" x2="1.778" y2="3.81" width="0.127" layer="21"/>
<wire x1="1.778" y1="3.81" x2="2.54" y2="3.048" width="0.127" layer="21"/>
<wire x1="2.54" y1="3.048" x2="2.54" y2="1.778" width="0.127" layer="21"/>
<wire x1="2.54" y1="1.778" x2="2.032" y2="1.27" width="0.127" layer="21"/>
<wire x1="2.032" y1="1.27" x2="2.54" y2="0.762" width="0.127" layer="21"/>
<wire x1="2.54" y1="0.762" x2="2.54" y2="-0.762" width="0.127" layer="21"/>
<wire x1="2.54" y1="-0.762" x2="2.032" y2="-1.27" width="0.127" layer="21"/>
<wire x1="2.032" y1="-1.27" x2="2.54" y2="-1.778" width="0.127" layer="21"/>
<wire x1="2.54" y1="-1.778" x2="2.54" y2="-3.048" width="0.127" layer="21"/>
<wire x1="2.54" y1="-3.048" x2="1.778" y2="-3.81" width="0.127" layer="21"/>
<wire x1="1.778" y1="-3.81" x2="-1.778" y2="-3.81" width="0.127" layer="21"/>
<wire x1="-1.778" y1="-3.81" x2="-2.54" y2="-3.048" width="0.127" layer="21"/>
<wire x1="-2.54" y1="-3.048" x2="-2.54" y2="-1.778" width="0.127" layer="21"/>
<wire x1="-2.54" y1="-1.778" x2="-2.032" y2="-1.27" width="0.127" layer="21"/>
<wire x1="-2.032" y1="-1.27" x2="-2.54" y2="-0.762" width="0.127" layer="21"/>
<wire x1="-2.54" y1="-0.762" x2="-2.54" y2="0.762" width="0.127" layer="21"/>
<wire x1="-2.54" y1="0.762" x2="-2.032" y2="1.27" width="0.127" layer="21"/>
<wire x1="-2.032" y1="1.27" x2="-2.54" y2="1.778" width="0.127" layer="21"/>
<wire x1="-2.54" y1="1.778" x2="-2.54" y2="3.048" width="0.127" layer="21"/>
<pad name="3" x="-1.27" y="0" drill="0.9" diameter="1.6256"/>
<pad name="4" x="1.27" y="0" drill="0.9" diameter="1.6256"/>
<pad name="2" x="1.27" y="2.54" drill="0.9" diameter="1.6256"/>
<pad name="1" x="-1.27" y="2.54" drill="0.9" diameter="1.6256"/>
<pad name="5" x="-1.27" y="-2.54" drill="0.9" diameter="1.6256"/>
<pad name="6" x="1.27" y="-2.54" drill="0.9" diameter="1.6256"/>
<text x="-3.048" y="-3.048" size="1.27" layer="25" rot="R90">&gt;NAME</text>
<text x="-3.048" y="3.556" size="1.016" layer="21" font="vector">1</text>
</package>
<package name="R1206">
<description>&lt;b&gt;RESISTOR&lt;/b&gt;&lt;p&gt;
chip</description>
<wire x1="0.9525" y1="-0.8128" x2="-0.9652" y2="-0.8128" width="0.1524" layer="51"/>
<wire x1="0.9525" y1="0.8128" x2="-0.9652" y2="0.8128" width="0.1524" layer="51"/>
<wire x1="-2.473" y1="0.983" x2="2.473" y2="0.983" width="0.0508" layer="39"/>
<wire x1="2.473" y1="0.983" x2="2.473" y2="-0.983" width="0.0508" layer="39"/>
<wire x1="2.473" y1="-0.983" x2="-2.473" y2="-0.983" width="0.0508" layer="39"/>
<wire x1="-2.473" y1="-0.983" x2="-2.473" y2="0.983" width="0.0508" layer="39"/>
<smd name="2" x="1.422" y="0" dx="1.6" dy="1.803" layer="1"/>
<smd name="1" x="-1.422" y="0" dx="1.6" dy="1.803" layer="1"/>
<text x="-1.397" y="1.143" size="1.27" layer="25">&gt;NAME</text>
<text x="-1.397" y="-2.413" size="1.27" layer="27">&gt;VALUE</text>
<rectangle x1="-1.6891" y1="-0.8763" x2="-0.9525" y2="0.8763" layer="51"/>
<rectangle x1="0.9525" y1="-0.8763" x2="1.6891" y2="0.8763" layer="51"/>
<rectangle x1="-0.3" y1="-0.7" x2="0.3" y2="0.7" layer="35"/>
</package>
<package name="CHIPLED_1206">
<description>&lt;b&gt;CHIPLED&lt;/b&gt;&lt;p&gt;
Source: http://www.osram.convergy.de/ ... LG_LY N971.pdf</description>
<wire x1="-0.4" y1="1.625" x2="0.4" y2="1.625" width="0.1016" layer="51" curve="180" cap="flat"/>
<wire x1="-0.8" y1="-0.95" x2="-0.8" y2="0.95" width="0.1016" layer="51"/>
<wire x1="0.8" y1="0.95" x2="0.8" y2="-0.95" width="0.1016" layer="51"/>
<circle x="-0.55" y="1.425" radius="0.1" width="0.1016" layer="51"/>
<smd name="C" x="0" y="1.75" dx="1.5" dy="1.5" layer="1"/>
<smd name="A" x="0" y="-1.75" dx="1.5" dy="1.5" layer="1"/>
<text x="-1.27" y="-1.27" size="1.27" layer="25" rot="R90">&gt;NAME</text>
<text x="2.54" y="-1.27" size="1.27" layer="27" rot="R90">&gt;VALUE</text>
<rectangle x1="-0.85" y1="1.525" x2="-0.35" y2="1.65" layer="51"/>
<rectangle x1="-0.85" y1="1.225" x2="-0.625" y2="1.55" layer="51"/>
<rectangle x1="-0.45" y1="1.225" x2="-0.325" y2="1.45" layer="51"/>
<rectangle x1="-0.65" y1="1.225" x2="-0.225" y2="1.35" layer="51"/>
<rectangle x1="0.35" y1="1.3" x2="0.85" y2="1.65" layer="51"/>
<rectangle x1="0.25" y1="1.225" x2="0.85" y2="1.35" layer="51"/>
<rectangle x1="-0.85" y1="0.95" x2="0.85" y2="1.25" layer="51"/>
<rectangle x1="-0.85" y1="-1.65" x2="0.85" y2="-0.95" layer="51"/>
<rectangle x1="-0.85" y1="0.35" x2="-0.525" y2="0.775" layer="21"/>
<rectangle x1="0.525" y1="0.35" x2="0.85" y2="0.775" layer="21"/>
<rectangle x1="-0.175" y1="0" x2="0.175" y2="0.35" layer="21"/>
</package>
<package name="CERM_OSC">
<wire x1="-2.4" y1="2" x2="-2.4" y2="-2" width="0.127" layer="21" curve="180"/>
<wire x1="2.6" y1="-2" x2="2.6" y2="2" width="0.127" layer="21" curve="180"/>
<wire x1="-2.4" y1="2" x2="2.6" y2="2" width="0.127" layer="21"/>
<wire x1="2.6" y1="-2" x2="-2.4" y2="-2" width="0.127" layer="21"/>
<pad name="P$1" x="-2.54" y="0" drill="0.8128" diameter="1.6764"/>
<pad name="P$2" x="0" y="0" drill="0.8128" diameter="1.6764"/>
<pad name="P$3" x="2.54" y="0" drill="0.8128" diameter="1.6764"/>
<text x="-3" y="3" size="1.27" layer="25">&gt;NAME</text>
<text x="-3.5" y="-4.5" size="1.27" layer="27">&gt;VALUE</text>
</package>
<package name="PJ-102A">
<wire x1="-4.6" y1="4.4" x2="4.4" y2="4.4" width="0.127" layer="21"/>
<wire x1="4.4" y1="4.4" x2="4.4" y2="-10.2" width="0.127" layer="21"/>
<wire x1="4.4" y1="-10.2" x2="-4.6" y2="-10.2" width="0.127" layer="21"/>
<wire x1="-4.6" y1="-10.2" x2="-4.6" y2="4.4" width="0.127" layer="21"/>
<pad name="RING_SW" x="-4.6" y="-6.29" drill="3" diameter="4.8" rot="R180"/>
<pad name="TIP" x="0.1" y="-9.29" drill="3" diameter="4.8" rot="R180"/>
<pad name="RING" x="0.1" y="-3.39" drill="3" diameter="4.8" rot="R180"/>
</package>
<package name="PS12">
<circle x="0" y="0" radius="6.096" width="0.1524" layer="21"/>
<pad name="P$1" x="-2.5" y="0" drill="1" diameter="2.54"/>
<pad name="P$2" x="2.5" y="0" drill="1" diameter="2.54"/>
<text x="-2.54" y="6.35" size="1.27" layer="25" ratio="10">&gt;NAME</text>
<text x="-3.8862" y="-3.81" size="1.27" layer="27" ratio="10">&gt;VALUE</text>
</package>
<package name="M1206">
<description>&lt;b&gt;RESISTOR&lt;/b&gt;&lt;p&gt;
MELF 0.25 W</description>
<wire x1="-2.473" y1="1.483" x2="2.473" y2="1.483" width="0.0508" layer="39"/>
<wire x1="2.473" y1="-1.483" x2="-2.473" y2="-1.483" width="0.0508" layer="39"/>
<wire x1="-2.473" y1="-1.483" x2="-2.473" y2="1.483" width="0.0508" layer="39"/>
<wire x1="2.473" y1="1.483" x2="2.473" y2="-1.483" width="0.0508" layer="39"/>
<wire x1="1.143" y1="0.8382" x2="-1.143" y2="0.8382" width="0.1524" layer="51"/>
<wire x1="1.143" y1="-0.8382" x2="-1.143" y2="-0.8382" width="0.1524" layer="51"/>
<smd name="1" x="-1.4" y="0" dx="1.6" dy="2" layer="1"/>
<smd name="2" x="1.4" y="0" dx="1.6" dy="2" layer="1"/>
<text x="-1.27" y="1.27" size="1.27" layer="25">&gt;NAME</text>
<text x="-1.27" y="-2.54" size="1.27" layer="27">&gt;VALUE</text>
<rectangle x1="-1.7018" y1="-0.9144" x2="-1.1176" y2="0.9144" layer="51"/>
<rectangle x1="1.1176" y1="-0.9144" x2="1.7018" y2="0.9144" layer="51"/>
<rectangle x1="-0.3" y1="-0.8001" x2="0.3" y2="0.8001" layer="35"/>
</package>
<package name="EG1218">
<wire x1="-5.842" y1="2.032" x2="-0.254" y2="2.032" width="0.127" layer="21"/>
<wire x1="-0.254" y1="2.032" x2="0" y2="1.778" width="0.127" layer="21"/>
<wire x1="0" y1="1.778" x2="0.254" y2="2.032" width="0.127" layer="21"/>
<wire x1="0.254" y1="2.032" x2="5.842" y2="2.032" width="0.127" layer="21"/>
<wire x1="5.842" y1="2.032" x2="5.842" y2="1.524" width="0.127" layer="21"/>
<wire x1="5.842" y1="1.524" x2="5.334" y2="1.524" width="0.127" layer="21"/>
<wire x1="5.334" y1="1.524" x2="5.334" y2="-1.524" width="0.127" layer="21"/>
<wire x1="5.334" y1="-1.524" x2="5.842" y2="-1.524" width="0.127" layer="21"/>
<wire x1="5.842" y1="-1.524" x2="5.842" y2="-2.032" width="0.127" layer="21"/>
<wire x1="5.842" y1="-2.032" x2="0.254" y2="-2.032" width="0.127" layer="21"/>
<wire x1="0.254" y1="-2.032" x2="0" y2="-1.778" width="0.127" layer="21"/>
<wire x1="0" y1="-1.778" x2="-0.254" y2="-2.032" width="0.127" layer="21"/>
<wire x1="-0.254" y1="-2.032" x2="-5.842" y2="-2.032" width="0.127" layer="21"/>
<wire x1="-5.842" y1="-2.032" x2="-5.842" y2="-1.524" width="0.127" layer="21"/>
<wire x1="-5.842" y1="-1.524" x2="-5.334" y2="-1.524" width="0.127" layer="21"/>
<wire x1="-5.334" y1="-1.524" x2="-5.334" y2="1.524" width="0.127" layer="21"/>
<wire x1="-5.334" y1="1.524" x2="-5.842" y2="1.524" width="0.127" layer="21"/>
<wire x1="-5.842" y1="1.524" x2="-5.842" y2="2.032" width="0.127" layer="21"/>
<wire x1="-2.286" y1="1.016" x2="2.286" y2="1.016" width="0.127" layer="25"/>
<wire x1="2.286" y1="1.016" x2="2.286" y2="-1.016" width="0.127" layer="25"/>
<wire x1="2.286" y1="-1.016" x2="-2.286" y2="-1.016" width="0.127" layer="25"/>
<wire x1="-2.286" y1="-1.016" x2="-2.286" y2="1.016" width="0.127" layer="25"/>
<wire x1="-2.032" y1="1.016" x2="-2.032" y2="-1.016" width="0.127" layer="21"/>
<wire x1="-1.778" y1="-1.016" x2="-1.778" y2="1.016" width="0.127" layer="21"/>
<wire x1="-1.524" y1="1.016" x2="-1.524" y2="-1.016" width="0.127" layer="21"/>
<wire x1="-1.27" y1="-1.016" x2="-1.27" y2="1.016" width="0.127" layer="21"/>
<wire x1="-1.016" y1="1.016" x2="-1.016" y2="-1.016" width="0.127" layer="21"/>
<wire x1="-0.762" y1="-1.016" x2="-0.762" y2="1.016" width="0.127" layer="21"/>
<wire x1="-0.508" y1="1.016" x2="-0.508" y2="-1.016" width="0.127" layer="21"/>
<pad name="P" x="0" y="0" drill="0.9" diameter="1.6764"/>
<pad name="O" x="-2.54" y="0" drill="0.9" diameter="1.6764"/>
<pad name="S" x="2.54" y="0" drill="0.9" diameter="1.6764"/>
<text x="-2.794" y="2.54" size="1.27" layer="25" font="vector">&gt;NAME</text>
</package>
<package name="1X08-LOCK">
<wire x1="-10.16" y1="1.27" x2="10.16" y2="1.27" width="0.127" layer="21"/>
<wire x1="10.16" y1="1.27" x2="10.16" y2="-1.27" width="0.127" layer="21"/>
<wire x1="10.16" y1="-1.27" x2="-10.16" y2="-1.27" width="0.127" layer="21"/>
<wire x1="-10.16" y1="-1.27" x2="-10.16" y2="1.27" width="0.127" layer="21"/>
<pad name="1" x="-8.89" y="0.127" drill="1.016" diameter="1.778" shape="octagon" rot="R90"/>
<pad name="2" x="-6.35" y="-0.127" drill="1.016" diameter="1.778" shape="octagon" rot="R90"/>
<pad name="3" x="-3.81" y="0.127" drill="1.016" diameter="1.778" shape="octagon" rot="R90"/>
<pad name="4" x="-1.27" y="-0.127" drill="1.016" diameter="1.778" shape="octagon" rot="R90"/>
<pad name="5" x="1.27" y="0.127" drill="1.016" diameter="1.778" shape="octagon" rot="R90"/>
<pad name="6" x="3.81" y="-0.127" drill="1.016" diameter="1.778" shape="octagon" rot="R90"/>
<pad name="7" x="6.35" y="0.127" drill="1.016" diameter="1.778" shape="octagon" rot="R90"/>
<pad name="8" x="8.89" y="-0.127" drill="1.016" diameter="1.778" shape="octagon" rot="R90"/>
<text x="-10.2362" y="1.8288" size="1.27" layer="25" ratio="10">&gt;NAME</text>
<text x="-10.16" y="-3.175" size="1.27" layer="27">&gt;VALUE</text>
<rectangle x1="6.096" y1="-0.254" x2="6.604" y2="0.254" layer="51"/>
<rectangle x1="3.556" y1="-0.254" x2="4.064" y2="0.254" layer="51"/>
<rectangle x1="1.016" y1="-0.254" x2="1.524" y2="0.254" layer="51"/>
<rectangle x1="-1.524" y1="-0.254" x2="-1.016" y2="0.254" layer="51"/>
<rectangle x1="-4.064" y1="-0.254" x2="-3.556" y2="0.254" layer="51"/>
<rectangle x1="-6.604" y1="-0.254" x2="-6.096" y2="0.254" layer="51"/>
<rectangle x1="-9.144" y1="-0.254" x2="-8.636" y2="0.254" layer="51"/>
<rectangle x1="8.636" y1="-0.254" x2="9.144" y2="0.254" layer="51"/>
</package>
</packages>
</library>
<library name="rcl">
<packages>
<package name="C1206">
<description>&lt;b&gt;CAPACITOR&lt;/b&gt;</description>
<wire x1="-2.473" y1="0.983" x2="2.473" y2="0.983" width="0.0508" layer="39"/>
<wire x1="2.473" y1="-0.983" x2="-2.473" y2="-0.983" width="0.0508" layer="39"/>
<wire x1="-2.473" y1="-0.983" x2="-2.473" y2="0.983" width="0.0508" layer="39"/>
<wire x1="2.473" y1="0.983" x2="2.473" y2="-0.983" width="0.0508" layer="39"/>
<wire x1="-0.965" y1="0.787" x2="0.965" y2="0.787" width="0.1016" layer="51"/>
<wire x1="-0.965" y1="-0.787" x2="0.965" y2="-0.787" width="0.1016" layer="51"/>
<smd name="1" x="-1.4" y="0" dx="1.6" dy="1.8" layer="1"/>
<smd name="2" x="1.4" y="0" dx="1.6" dy="1.8" layer="1"/>
<text x="-1.27" y="1.27" size="1.27" layer="25">&gt;NAME</text>
<text x="-1.27" y="-2.54" size="1.27" layer="27">&gt;VALUE</text>
<rectangle x1="-1.7018" y1="-0.8509" x2="-0.9517" y2="0.8491" layer="51"/>
<rectangle x1="0.9517" y1="-0.8491" x2="1.7018" y2="0.8509" layer="51"/>
<rectangle x1="-0.1999" y1="-0.4001" x2="0.1999" y2="0.4001" layer="35"/>
</package>
</packages>
</library>
<library name="nick">
<packages>
<package name="SCREW-2-02">
<wire x1="-3.491" y1="-1.016" x2="-1.484" y2="0.991" width="0.254" layer="51"/>
<wire x1="1.488" y1="-0.991" x2="3.469" y2="1.016" width="0.254" layer="51"/>
<wire x1="-4.989" y1="-4.191" x2="4.993" y2="-4.191" width="0.1524" layer="21"/>
<wire x1="4.993" y1="5.004" x2="4.993" y2="4.801" width="0.1524" layer="21"/>
<wire x1="4.993" y1="5.004" x2="-4.989" y2="5.004" width="0.1524" layer="21"/>
<wire x1="-4.989" y1="-4.191" x2="-4.989" y2="-1.803" width="0.1524" layer="21"/>
<wire x1="-4.989" y1="-1.803" x2="-3.389" y2="-1.803" width="0.1524" layer="21"/>
<wire x1="-3.389" y1="-1.803" x2="-1.611" y2="-1.803" width="0.1524" layer="51"/>
<wire x1="-1.611" y1="-1.803" x2="1.615" y2="-1.803" width="0.1524" layer="21"/>
<wire x1="3.393" y1="-1.803" x2="4.993" y2="-1.803" width="0.1524" layer="21"/>
<wire x1="-4.989" y1="-1.803" x2="-4.989" y2="4.801" width="0.1524" layer="21"/>
<wire x1="4.993" y1="-1.803" x2="4.993" y2="-4.191" width="0.1524" layer="21"/>
<wire x1="-4.989" y1="4.801" x2="4.993" y2="4.801" width="0.1524" layer="21"/>
<wire x1="-4.989" y1="4.801" x2="-4.989" y2="5.004" width="0.1524" layer="21"/>
<wire x1="4.993" y1="4.801" x2="4.993" y2="-1.803" width="0.1524" layer="21"/>
<wire x1="1.615" y1="-1.803" x2="3.393" y2="-1.803" width="0.1524" layer="51"/>
<circle x="-2.5" y="0" radius="1.4986" width="0.1524" layer="51"/>
<circle x="-2.5" y="3.4798" radius="0.508" width="0.1524" layer="21"/>
<circle x="2.5038" y="0" radius="1.4986" width="0.1524" layer="51"/>
<circle x="2.5038" y="3.4798" radius="0.508" width="0.1524" layer="21"/>
<pad name="1" x="-2.5" y="0" drill="1.1938" shape="long" rot="R90"/>
<pad name="2" x="2.5" y="0" drill="1.1938" shape="long" rot="R90"/>
<text x="-5.04" y="-6.35" size="1.27" layer="27" ratio="10">&gt;VALUE</text>
<text x="-3.8462" y="-3.7338" size="1.27" layer="25" ratio="10">&gt;NAME</text>
<text x="-4.532" y="1.905" size="1.27" layer="21" ratio="10">1</text>
<text x="0.421" y="1.905" size="1.27" layer="21" ratio="10">2</text>
</package>
</packages>
</library>
<library name="pinhead">
<packages>
<package name="1X08">
<description>&lt;b&gt;PIN HEADER&lt;/b&gt;</description>
<wire x1="5.715" y1="1.27" x2="6.985" y2="1.27" width="0.1524" layer="21"/>
<wire x1="6.985" y1="1.27" x2="7.62" y2="0.635" width="0.1524" layer="21"/>
<wire x1="7.62" y1="0.635" x2="7.62" y2="-0.635" width="0.1524" layer="21"/>
<wire x1="7.62" y1="-0.635" x2="6.985" y2="-1.27" width="0.1524" layer="21"/>
<wire x1="2.54" y1="0.635" x2="3.175" y2="1.27" width="0.1524" layer="21"/>
<wire x1="3.175" y1="1.27" x2="4.445" y2="1.27" width="0.1524" layer="21"/>
<wire x1="4.445" y1="1.27" x2="5.08" y2="0.635" width="0.1524" layer="21"/>
<wire x1="5.08" y1="0.635" x2="5.08" y2="-0.635" width="0.1524" layer="21"/>
<wire x1="5.08" y1="-0.635" x2="4.445" y2="-1.27" width="0.1524" layer="21"/>
<wire x1="4.445" y1="-1.27" x2="3.175" y2="-1.27" width="0.1524" layer="21"/>
<wire x1="3.175" y1="-1.27" x2="2.54" y2="-0.635" width="0.1524" layer="21"/>
<wire x1="5.715" y1="1.27" x2="5.08" y2="0.635" width="0.1524" layer="21"/>
<wire x1="5.08" y1="-0.635" x2="5.715" y2="-1.27" width="0.1524" layer="21"/>
<wire x1="6.985" y1="-1.27" x2="5.715" y2="-1.27" width="0.1524" layer="21"/>
<wire x1="-1.905" y1="1.27" x2="-0.635" y2="1.27" width="0.1524" layer="21"/>
<wire x1="-0.635" y1="1.27" x2="0" y2="0.635" width="0.1524" layer="21"/>
<wire x1="0" y1="0.635" x2="0" y2="-0.635" width="0.1524" layer="21"/>
<wire x1="0" y1="-0.635" x2="-0.635" y2="-1.27" width="0.1524" layer="21"/>
<wire x1="0" y1="0.635" x2="0.635" y2="1.27" width="0.1524" layer="21"/>
<wire x1="0.635" y1="1.27" x2="1.905" y2="1.27" width="0.1524" layer="21"/>
<wire x1="1.905" y1="1.27" x2="2.54" y2="0.635" width="0.1524" layer="21"/>
<wire x1="2.54" y1="0.635" x2="2.54" y2="-0.635" width="0.1524" layer="21"/>
<wire x1="2.54" y1="-0.635" x2="1.905" y2="-1.27" width="0.1524" layer="21"/>
<wire x1="1.905" y1="-1.27" x2="0.635" y2="-1.27" width="0.1524" layer="21"/>
<wire x1="0.635" y1="-1.27" x2="0" y2="-0.635" width="0.1524" layer="21"/>
<wire x1="-5.08" y1="0.635" x2="-4.445" y2="1.27" width="0.1524" layer="21"/>
<wire x1="-4.445" y1="1.27" x2="-3.175" y2="1.27" width="0.1524" layer="21"/>
<wire x1="-3.175" y1="1.27" x2="-2.54" y2="0.635" width="0.1524" layer="21"/>
<wire x1="-2.54" y1="0.635" x2="-2.54" y2="-0.635" width="0.1524" layer="21"/>
<wire x1="-2.54" y1="-0.635" x2="-3.175" y2="-1.27" width="0.1524" layer="21"/>
<wire x1="-3.175" y1="-1.27" x2="-4.445" y2="-1.27" width="0.1524" layer="21"/>
<wire x1="-4.445" y1="-1.27" x2="-5.08" y2="-0.635" width="0.1524" layer="21"/>
<wire x1="-1.905" y1="1.27" x2="-2.54" y2="0.635" width="0.1524" layer="21"/>
<wire x1="-2.54" y1="-0.635" x2="-1.905" y2="-1.27" width="0.1524" layer="21"/>
<wire x1="-0.635" y1="-1.27" x2="-1.905" y2="-1.27" width="0.1524" layer="21"/>
<wire x1="-9.525" y1="1.27" x2="-8.255" y2="1.27" width="0.1524" layer="21"/>
<wire x1="-8.255" y1="1.27" x2="-7.62" y2="0.635" width="0.1524" layer="21"/>
<wire x1="-7.62" y1="0.635" x2="-7.62" y2="-0.635" width="0.1524" layer="21"/>
<wire x1="-7.62" y1="-0.635" x2="-8.255" y2="-1.27" width="0.1524" layer="21"/>
<wire x1="-7.62" y1="0.635" x2="-6.985" y2="1.27" width="0.1524" layer="21"/>
<wire x1="-6.985" y1="1.27" x2="-5.715" y2="1.27" width="0.1524" layer="21"/>
<wire x1="-5.715" y1="1.27" x2="-5.08" y2="0.635" width="0.1524" layer="21"/>
<wire x1="-5.08" y1="0.635" x2="-5.08" y2="-0.635" width="0.1524" layer="21"/>
<wire x1="-5.08" y1="-0.635" x2="-5.715" y2="-1.27" width="0.1524" layer="21"/>
<wire x1="-5.715" y1="-1.27" x2="-6.985" y2="-1.27" width="0.1524" layer="21"/>
<wire x1="-6.985" y1="-1.27" x2="-7.62" y2="-0.635" width="0.1524" layer="21"/>
<wire x1="-10.16" y1="0.635" x2="-10.16" y2="-0.635" width="0.1524" layer="21"/>
<wire x1="-9.525" y1="1.27" x2="-10.16" y2="0.635" width="0.1524" layer="21"/>
<wire x1="-10.16" y1="-0.635" x2="-9.525" y2="-1.27" width="0.1524" layer="21"/>
<wire x1="-8.255" y1="-1.27" x2="-9.525" y2="-1.27" width="0.1524" layer="21"/>
<wire x1="8.255" y1="1.27" x2="9.525" y2="1.27" width="0.1524" layer="21"/>
<wire x1="9.525" y1="1.27" x2="10.16" y2="0.635" width="0.1524" layer="21"/>
<wire x1="10.16" y1="0.635" x2="10.16" y2="-0.635" width="0.1524" layer="21"/>
<wire x1="10.16" y1="-0.635" x2="9.525" y2="-1.27" width="0.1524" layer="21"/>
<wire x1="8.255" y1="1.27" x2="7.62" y2="0.635" width="0.1524" layer="21"/>
<wire x1="7.62" y1="-0.635" x2="8.255" y2="-1.27" width="0.1524" layer="21"/>
<wire x1="9.525" y1="-1.27" x2="8.255" y2="-1.27" width="0.1524" layer="21"/>
<pad name="1" x="-8.89" y="0" drill="1.016" shape="long" rot="R90"/>
<pad name="2" x="-6.35" y="0" drill="1.016" shape="long" rot="R90"/>
<pad name="3" x="-3.81" y="0" drill="1.016" shape="long" rot="R90"/>
<pad name="4" x="-1.27" y="0" drill="1.016" shape="long" rot="R90"/>
<pad name="5" x="1.27" y="0" drill="1.016" shape="long" rot="R90"/>
<pad name="6" x="3.81" y="0" drill="1.016" shape="long" rot="R90"/>
<pad name="7" x="6.35" y="0" drill="1.016" shape="long" rot="R90"/>
<pad name="8" x="8.89" y="0" drill="1.016" shape="long" rot="R90"/>
<text x="-10.2362" y="1.8288" size="1.27" layer="25" ratio="10">&gt;NAME</text>
<text x="-10.16" y="-3.175" size="1.27" layer="27">&gt;VALUE</text>
<rectangle x1="6.096" y1="-0.254" x2="6.604" y2="0.254" layer="51"/>
<rectangle x1="3.556" y1="-0.254" x2="4.064" y2="0.254" layer="51"/>
<rectangle x1="1.016" y1="-0.254" x2="1.524" y2="0.254" layer="51"/>
<rectangle x1="-1.524" y1="-0.254" x2="-1.016" y2="0.254" layer="51"/>
<rectangle x1="-4.064" y1="-0.254" x2="-3.556" y2="0.254" layer="51"/>
<rectangle x1="-6.604" y1="-0.254" x2="-6.096" y2="0.254" layer="51"/>
<rectangle x1="-9.144" y1="-0.254" x2="-8.636" y2="0.254" layer="51"/>
<rectangle x1="8.636" y1="-0.254" x2="9.144" y2="0.254" layer="51"/>
</package>
</packages>
</library>
<library name="linear">
<packages>
<package name="TO220H">
<description>&lt;b&gt;TO-220&lt;/b&gt;</description>
<wire x1="-5.207" y1="-7.62" x2="5.207" y2="-7.62" width="0.1524" layer="21"/>
<wire x1="5.207" y1="8.255" x2="-5.207" y2="8.255" width="0.1524" layer="21"/>
<wire x1="5.207" y1="-7.62" x2="5.207" y2="4.826" width="0.1524" layer="21"/>
<wire x1="5.207" y1="4.826" x2="4.318" y2="4.826" width="0.1524" layer="21"/>
<wire x1="4.318" y1="4.826" x2="4.318" y2="6.35" width="0.1524" layer="21"/>
<wire x1="4.318" y1="6.35" x2="5.207" y2="6.35" width="0.1524" layer="21"/>
<wire x1="5.207" y1="6.35" x2="5.207" y2="8.255" width="0.1524" layer="21"/>
<wire x1="-5.207" y1="-7.62" x2="-5.207" y2="4.826" width="0.1524" layer="21"/>
<wire x1="-5.207" y1="4.826" x2="-4.318" y2="4.826" width="0.1524" layer="21"/>
<wire x1="-4.318" y1="4.826" x2="-4.318" y2="6.35" width="0.1524" layer="21"/>
<wire x1="-4.318" y1="6.35" x2="-5.207" y2="6.35" width="0.1524" layer="21"/>
<wire x1="-5.207" y1="6.35" x2="-5.207" y2="8.255" width="0.1524" layer="21"/>
<wire x1="-4.572" y1="-6.985" x2="4.572" y2="-6.985" width="0.0508" layer="21"/>
<wire x1="4.572" y1="1.27" x2="4.572" y2="-6.985" width="0.0508" layer="21"/>
<wire x1="4.572" y1="1.27" x2="-4.572" y2="1.27" width="0.0508" layer="21"/>
<wire x1="-4.572" y1="-6.985" x2="-4.572" y2="1.27" width="0.0508" layer="21"/>
<circle x="0" y="4.826" radius="1.8034" width="0.1524" layer="21"/>
<circle x="0" y="4.826" radius="2.54" width="0" layer="43"/>
<circle x="0" y="4.826" radius="2.54" width="0" layer="42"/>
<pad name="1" x="-2.54" y="-10.16" drill="1.1176" shape="long" rot="R90"/>
<pad name="2" x="0" y="-10.16" drill="1.1176" shape="long" rot="R90"/>
<pad name="3" x="2.54" y="-10.16" drill="1.1176" shape="long" rot="R90"/>
<text x="-5.461" y="-10.922" size="1.778" layer="25" ratio="10" rot="R90">&gt;NAME</text>
<text x="7.366" y="-11.049" size="1.778" layer="27" ratio="10" rot="R90">&gt;VALUE</text>
<rectangle x1="2.159" y1="-11.049" x2="2.921" y2="-10.414" layer="21"/>
<rectangle x1="-0.381" y1="-11.049" x2="0.381" y2="-10.414" layer="21"/>
<rectangle x1="-2.921" y1="-11.049" x2="-2.159" y2="-10.414" layer="21"/>
<rectangle x1="-3.175" y1="-10.414" x2="-1.905" y2="-7.62" layer="21"/>
<rectangle x1="-0.635" y1="-10.414" x2="0.635" y2="-7.62" layer="21"/>
<rectangle x1="1.905" y1="-10.414" x2="3.175" y2="-7.62" layer="21"/>
<hole x="0" y="4.826" drill="3.302"/>
</package>
</packages>
</library>
<library name="con-lstb">
<packages>
<package name="MA04-1">
<description>&lt;b&gt;PIN HEADER&lt;/b&gt;</description>
<wire x1="-4.445" y1="1.27" x2="-3.175" y2="1.27" width="0.1524" layer="21"/>
<wire x1="-3.175" y1="1.27" x2="-2.54" y2="0.635" width="0.1524" layer="21"/>
<wire x1="-2.54" y1="-0.635" x2="-3.175" y2="-1.27" width="0.1524" layer="21"/>
<wire x1="-2.54" y1="0.635" x2="-1.905" y2="1.27" width="0.1524" layer="21"/>
<wire x1="-1.905" y1="1.27" x2="-0.635" y2="1.27" width="0.1524" layer="21"/>
<wire x1="-0.635" y1="1.27" x2="0" y2="0.635" width="0.1524" layer="21"/>
<wire x1="0" y1="-0.635" x2="-0.635" y2="-1.27" width="0.1524" layer="21"/>
<wire x1="-0.635" y1="-1.27" x2="-1.905" y2="-1.27" width="0.1524" layer="21"/>
<wire x1="-1.905" y1="-1.27" x2="-2.54" y2="-0.635" width="0.1524" layer="21"/>
<wire x1="-5.08" y1="0.635" x2="-5.08" y2="-0.635" width="0.1524" layer="21"/>
<wire x1="-4.445" y1="1.27" x2="-5.08" y2="0.635" width="0.1524" layer="21"/>
<wire x1="-5.08" y1="-0.635" x2="-4.445" y2="-1.27" width="0.1524" layer="21"/>
<wire x1="-3.175" y1="-1.27" x2="-4.445" y2="-1.27" width="0.1524" layer="21"/>
<wire x1="0" y1="0.635" x2="0.635" y2="1.27" width="0.1524" layer="21"/>
<wire x1="0.635" y1="1.27" x2="1.905" y2="1.27" width="0.1524" layer="21"/>
<wire x1="1.905" y1="1.27" x2="2.54" y2="0.635" width="0.1524" layer="21"/>
<wire x1="2.54" y1="-0.635" x2="1.905" y2="-1.27" width="0.1524" layer="21"/>
<wire x1="1.905" y1="-1.27" x2="0.635" y2="-1.27" width="0.1524" layer="21"/>
<wire x1="0.635" y1="-1.27" x2="0" y2="-0.635" width="0.1524" layer="21"/>
<wire x1="3.175" y1="1.27" x2="4.445" y2="1.27" width="0.1524" layer="21"/>
<wire x1="4.445" y1="1.27" x2="5.08" y2="0.635" width="0.1524" layer="21"/>
<wire x1="5.08" y1="0.635" x2="5.08" y2="-0.635" width="0.1524" layer="21"/>
<wire x1="5.08" y1="-0.635" x2="4.445" y2="-1.27" width="0.1524" layer="21"/>
<wire x1="3.175" y1="1.27" x2="2.54" y2="0.635" width="0.1524" layer="21"/>
<wire x1="2.54" y1="-0.635" x2="3.175" y2="-1.27" width="0.1524" layer="21"/>
<wire x1="4.445" y1="-1.27" x2="3.175" y2="-1.27" width="0.1524" layer="21"/>
<pad name="1" x="-3.81" y="0" drill="1.016" shape="long" rot="R90"/>
<pad name="2" x="-1.27" y="0" drill="1.016" shape="long" rot="R90"/>
<pad name="3" x="1.27" y="0" drill="1.016" shape="long" rot="R90"/>
<pad name="4" x="3.81" y="0" drill="1.016" shape="long" rot="R90"/>
<text x="-5.08" y="1.651" size="1.27" layer="25" ratio="10">&gt;NAME</text>
<text x="-6.223" y="-0.635" size="1.27" layer="21" ratio="10">1</text>
<text x="0.635" y="1.651" size="1.27" layer="27" ratio="10">&gt;VALUE</text>
<text x="5.334" y="-0.635" size="1.27" layer="21" ratio="10">4</text>
<rectangle x1="-1.524" y1="-0.254" x2="-1.016" y2="0.254" layer="51"/>
<rectangle x1="-4.064" y1="-0.254" x2="-3.556" y2="0.254" layer="51"/>
<rectangle x1="1.016" y1="-0.254" x2="1.524" y2="0.254" layer="51"/>
<rectangle x1="3.556" y1="-0.254" x2="4.064" y2="0.254" layer="51"/>
</package>
</packages>
</library>
<library name="switch-omron">
<description>&lt;b&gt;Omron Switches&lt;/b&gt;&lt;p&gt;
&lt;author&gt;Created by librarian@cadsoft.de&lt;/author&gt;</description>
<packages>
<package name="B3F-10XX">
<description>&lt;b&gt;OMRON SWITCH&lt;/b&gt;</description>
<wire x1="3.302" y1="-0.762" x2="3.048" y2="-0.762" width="0.1524" layer="21"/>
<wire x1="3.302" y1="-0.762" x2="3.302" y2="0.762" width="0.1524" layer="21"/>
<wire x1="3.048" y1="0.762" x2="3.302" y2="0.762" width="0.1524" layer="21"/>
<wire x1="3.048" y1="1.016" x2="3.048" y2="2.54" width="0.1524" layer="51"/>
<wire x1="-3.302" y1="0.762" x2="-3.048" y2="0.762" width="0.1524" layer="21"/>
<wire x1="-3.302" y1="0.762" x2="-3.302" y2="-0.762" width="0.1524" layer="21"/>
<wire x1="-3.048" y1="-0.762" x2="-3.302" y2="-0.762" width="0.1524" layer="21"/>
<wire x1="3.048" y1="2.54" x2="2.54" y2="3.048" width="0.1524" layer="51"/>
<wire x1="2.54" y1="-3.048" x2="3.048" y2="-2.54" width="0.1524" layer="51"/>
<wire x1="3.048" y1="-2.54" x2="3.048" y2="-1.016" width="0.1524" layer="51"/>
<wire x1="-2.54" y1="3.048" x2="-3.048" y2="2.54" width="0.1524" layer="51"/>
<wire x1="-3.048" y1="2.54" x2="-3.048" y2="1.016" width="0.1524" layer="51"/>
<wire x1="-2.54" y1="-3.048" x2="-3.048" y2="-2.54" width="0.1524" layer="51"/>
<wire x1="-3.048" y1="-2.54" x2="-3.048" y2="-1.016" width="0.1524" layer="51"/>
<wire x1="-1.27" y1="1.27" x2="-1.27" y2="-1.27" width="0.0508" layer="51"/>
<wire x1="1.27" y1="-1.27" x2="-1.27" y2="-1.27" width="0.0508" layer="51"/>
<wire x1="1.27" y1="-1.27" x2="1.27" y2="1.27" width="0.0508" layer="51"/>
<wire x1="-1.27" y1="1.27" x2="1.27" y2="1.27" width="0.0508" layer="51"/>
<wire x1="-1.27" y1="3.048" x2="-1.27" y2="2.794" width="0.0508" layer="21"/>
<wire x1="1.27" y1="2.794" x2="-1.27" y2="2.794" width="0.0508" layer="21"/>
<wire x1="1.27" y1="2.794" x2="1.27" y2="3.048" width="0.0508" layer="21"/>
<wire x1="1.143" y1="-2.794" x2="-1.27" y2="-2.794" width="0.0508" layer="21"/>
<wire x1="1.143" y1="-2.794" x2="1.143" y2="-3.048" width="0.0508" layer="21"/>
<wire x1="-1.27" y1="-2.794" x2="-1.27" y2="-3.048" width="0.0508" layer="21"/>
<wire x1="2.54" y1="-3.048" x2="2.159" y2="-3.048" width="0.1524" layer="51"/>
<wire x1="-2.54" y1="-3.048" x2="-2.159" y2="-3.048" width="0.1524" layer="51"/>
<wire x1="-2.159" y1="-3.048" x2="-1.27" y2="-3.048" width="0.1524" layer="21"/>
<wire x1="-2.54" y1="3.048" x2="-2.159" y2="3.048" width="0.1524" layer="51"/>
<wire x1="2.54" y1="3.048" x2="2.159" y2="3.048" width="0.1524" layer="51"/>
<wire x1="2.159" y1="3.048" x2="1.27" y2="3.048" width="0.1524" layer="21"/>
<wire x1="1.27" y1="3.048" x2="-1.27" y2="3.048" width="0.1524" layer="21"/>
<wire x1="-1.27" y1="3.048" x2="-2.159" y2="3.048" width="0.1524" layer="21"/>
<wire x1="-1.27" y1="-3.048" x2="1.143" y2="-3.048" width="0.1524" layer="21"/>
<wire x1="1.143" y1="-3.048" x2="2.159" y2="-3.048" width="0.1524" layer="21"/>
<wire x1="3.048" y1="-0.762" x2="3.048" y2="-1.016" width="0.1524" layer="21"/>
<wire x1="3.048" y1="0.762" x2="3.048" y2="1.016" width="0.1524" layer="21"/>
<wire x1="-3.048" y1="-0.762" x2="-3.048" y2="-1.016" width="0.1524" layer="21"/>
<wire x1="-3.048" y1="0.762" x2="-3.048" y2="1.016" width="0.1524" layer="21"/>
<wire x1="-1.27" y1="-2.159" x2="1.27" y2="-2.159" width="0.1524" layer="51"/>
<wire x1="1.27" y1="2.286" x2="-1.27" y2="2.286" width="0.1524" layer="51"/>
<wire x1="-2.413" y1="1.27" x2="-2.413" y2="0.508" width="0.1524" layer="51"/>
<wire x1="-2.413" y1="-0.508" x2="-2.413" y2="-1.27" width="0.1524" layer="51"/>
<wire x1="-2.413" y1="0.508" x2="-2.159" y2="-0.381" width="0.1524" layer="51"/>
<circle x="0" y="0" radius="1.778" width="0.1524" layer="21"/>
<circle x="-2.159" y="-2.159" radius="0.508" width="0.1524" layer="51"/>
<circle x="2.159" y="-2.032" radius="0.508" width="0.1524" layer="51"/>
<circle x="2.159" y="2.159" radius="0.508" width="0.1524" layer="51"/>
<circle x="-2.159" y="2.159" radius="0.508" width="0.1524" layer="51"/>
<circle x="0" y="0" radius="0.635" width="0.0508" layer="51"/>
<circle x="0" y="0" radius="0.254" width="0.1524" layer="21"/>
<pad name="1" x="-3.2512" y="2.2606" drill="1.016" shape="long"/>
<pad name="3" x="-3.2512" y="-2.2606" drill="1.016" shape="long"/>
<pad name="2" x="3.2512" y="2.2606" drill="1.016" shape="long"/>
<pad name="4" x="3.2512" y="-2.2606" drill="1.016" shape="long"/>
<text x="-3.048" y="3.683" size="1.27" layer="25" ratio="10">&gt;NAME</text>
<text x="-3.048" y="-5.08" size="1.27" layer="27" ratio="10">&gt;VALUE</text>
<text x="-4.318" y="1.651" size="1.27" layer="51" ratio="10">1</text>
<text x="3.556" y="1.524" size="1.27" layer="51" ratio="10">2</text>
<text x="-4.572" y="-2.794" size="1.27" layer="51" ratio="10">3</text>
<text x="3.556" y="-2.794" size="1.27" layer="51" ratio="10">4</text>
</package>
</packages>
</library>
<library name="transistor">
<description>&lt;b&gt;Transistors&lt;/b&gt;&lt;p&gt;
&lt;author&gt;Created by librarian@cadsoft.de&lt;/author&gt;</description>
<packages>
<package name="TO92-CBE">
<description>&lt;b&gt;TO-92&lt;/b&gt; Pads In Line  C B E from top&lt;p&gt;</description>
<wire x1="-2.095" y1="-1.651" x2="2.095" y2="-1.651" width="0.127" layer="21"/>
<wire x1="-2.413" y1="1.1359" x2="2.413" y2="1.1359" width="0.127" layer="21" curve="-129.583"/>
<wire x1="1.136" y1="-0.127" x2="-1.136" y2="-0.127" width="0.127" layer="51"/>
<wire x1="-2.413" y1="1.1359" x2="-2.664" y2="-0.127" width="0.127" layer="51" curve="27.9376"/>
<wire x1="-2.664" y1="-0.127" x2="-2.413" y2="-1.1359" width="0.127" layer="51" curve="22.4788"/>
<wire x1="-1.404" y1="-0.127" x2="-2.664" y2="-0.127" width="0.127" layer="51"/>
<wire x1="-2.4135" y1="-1.1359" x2="-2.095" y2="-1.651" width="0.127" layer="21" curve="13.0385"/>
<wire x1="-1.136" y1="-0.127" x2="-1.404" y2="-0.127" width="0.127" layer="21"/>
<wire x1="2.413" y1="-1.1359" x2="2.664" y2="-0.127" width="0.127" layer="51" curve="22.4788"/>
<wire x1="2.664" y1="-0.127" x2="2.413" y2="1.1359" width="0.127" layer="51" curve="27.9376"/>
<wire x1="2.664" y1="-0.127" x2="1.404" y2="-0.127" width="0.127" layer="51"/>
<wire x1="1.404" y1="-0.127" x2="1.136" y2="-0.127" width="0.127" layer="21"/>
<wire x1="2.095" y1="-1.651" x2="2.4247" y2="-1.1118" width="0.127" layer="21" curve="13.6094"/>
<pad name="C" x="-2.54" y="0" drill="0.8128" shape="long" rot="R90"/>
<pad name="E" x="2.54" y="0" drill="0.8128" shape="long" rot="R90"/>
<pad name="B" x="0" y="0" drill="0.8128" shape="long" rot="R90"/>
<text x="-2.54" y="3.048" size="1.27" layer="25" ratio="10">&gt;NAME</text>
<text x="-2.54" y="-3.302" size="1.27" layer="27" ratio="10">&gt;VALUE</text>
</package>
</packages>
</library>
<library name="SparkFun-DigitalIC">
<description>&lt;h3&gt;SparkFun Electronics' preferred foot prints&lt;/h3&gt;
In this library you'll find all manner of digital ICs- microcontrollers, memory chips, logic chips, FPGAs, etc.&lt;br&gt;&lt;br&gt;
We've spent an enormous amount of time creating and checking these footprints and parts, but it is the end user's responsibility to ensure correctness and suitablity for a given componet or application. If you enjoy using this library, please buy one of our products at www.sparkfun.com.
&lt;br&gt;&lt;br&gt;
&lt;b&gt;Licensing:&lt;/b&gt; Creative Commons ShareAlike 4.0 International - https://creativecommons.org/licenses/by-sa/4.0/ 
&lt;br&gt;&lt;br&gt;
You are welcome to use this library for commercial purposes. For attribution, we ask that when you begin to sell your device using our footprint, you email us with a link to the product being sold. We want bragging rights that we helped (in a very small part) to create your 8th world wonder. We would like the opportunity to feature your device on our homepage.</description>
<packages>
<package name="DIL28-3">
<description>Standard 28-pin DIP package.&lt;br&gt;
IC needs to have legs bent before insertion.</description>
<wire x1="-17.78" y1="-1.27" x2="-17.78" y2="-3.048" width="0.2032" layer="21"/>
<wire x1="-17.78" y1="-1.27" x2="-17.78" y2="1.27" width="0.2032" layer="21" curve="180"/>
<wire x1="17.78" y1="-3.048" x2="17.78" y2="3.048" width="0.2032" layer="21"/>
<wire x1="-17.78" y1="3.048" x2="-17.78" y2="1.27" width="0.2032" layer="21"/>
<wire x1="-17.78" y1="3.048" x2="-17.526" y2="3.048" width="0.2032" layer="21"/>
<wire x1="-17.78" y1="-3.048" x2="-17.526" y2="-3.048" width="0.2032" layer="21"/>
<wire x1="17.78" y1="-3.048" x2="17.526" y2="-3.048" width="0.2032" layer="21"/>
<wire x1="17.78" y1="3.048" x2="17.526" y2="3.048" width="0.2032" layer="21"/>
<pad name="1" x="-16.51" y="-3.81" drill="0.8128" shape="long" rot="R90"/>
<pad name="2" x="-13.97" y="-3.81" drill="0.8128" shape="long" rot="R90"/>
<pad name="3" x="-11.43" y="-3.81" drill="0.8128" shape="long" rot="R90"/>
<pad name="4" x="-8.89" y="-3.81" drill="0.8128" shape="long" rot="R90"/>
<pad name="5" x="-6.35" y="-3.81" drill="0.8128" shape="long" rot="R90"/>
<pad name="6" x="-3.81" y="-3.81" drill="0.8128" shape="long" rot="R90"/>
<pad name="7" x="-1.27" y="-3.81" drill="0.8128" shape="long" rot="R90"/>
<pad name="8" x="1.27" y="-3.81" drill="0.8128" shape="long" rot="R90"/>
<pad name="9" x="3.81" y="-3.81" drill="0.8128" shape="long" rot="R90"/>
<pad name="10" x="6.35" y="-3.81" drill="0.8128" shape="long" rot="R90"/>
<pad name="11" x="8.89" y="-3.81" drill="0.8128" shape="long" rot="R90"/>
<pad name="12" x="11.43" y="-3.81" drill="0.8128" shape="long" rot="R90"/>
<pad name="13" x="13.97" y="-3.81" drill="0.8128" shape="long" rot="R90"/>
<pad name="14" x="16.51" y="-3.81" drill="0.8128" shape="long" rot="R90"/>
<pad name="15" x="16.51" y="3.81" drill="0.8128" shape="long" rot="R90"/>
<pad name="16" x="13.97" y="3.81" drill="0.8128" shape="long" rot="R90"/>
<pad name="17" x="11.43" y="3.81" drill="0.8128" shape="long" rot="R90"/>
<pad name="18" x="8.89" y="3.81" drill="0.8128" shape="long" rot="R90"/>
<pad name="19" x="6.35" y="3.81" drill="0.8128" shape="long" rot="R90"/>
<pad name="20" x="3.81" y="3.81" drill="0.8128" shape="long" rot="R90"/>
<pad name="21" x="1.27" y="3.81" drill="0.8128" shape="long" rot="R90"/>
<pad name="22" x="-1.27" y="3.81" drill="0.8128" shape="long" rot="R90"/>
<pad name="23" x="-3.81" y="3.81" drill="0.8128" shape="long" rot="R90"/>
<pad name="24" x="-6.35" y="3.81" drill="0.8128" shape="long" rot="R90"/>
<pad name="25" x="-8.89" y="3.81" drill="0.8128" shape="long" rot="R90"/>
<pad name="26" x="-11.43" y="3.81" drill="0.8128" shape="long" rot="R90"/>
<pad name="27" x="-13.97" y="3.81" drill="0.8128" shape="long" rot="R90"/>
<pad name="28" x="-16.51" y="3.81" drill="0.8128" shape="long" rot="R90"/>
<text x="-15.24" y="0" size="0.6096" layer="25" ratio="10">&gt;NAME</text>
<text x="-15.24" y="-1.27" size="0.6096" layer="27" ratio="10">&gt;VALUE</text>
</package>
</packages>
</library>
<library name="SparkFun-Connectors">
<description>&lt;h3&gt;SparkFun Electronics' preferred foot prints&lt;/h3&gt;
In this library you'll find connectors and sockets- basically anything that can be plugged into or onto.&lt;br&gt;&lt;br&gt;
We've spent an enormous amount of time creating and checking these footprints and parts, but it is the end user's responsibility to ensure correctness and suitablity for a given componet or application. If you enjoy using this library, please buy one of our products at www.sparkfun.com.
&lt;br&gt;&lt;br&gt;
&lt;b&gt;Licensing:&lt;/b&gt; Creative Commons ShareAlike 4.0 International - https://creativecommons.org/licenses/by-sa/4.0/ 
&lt;br&gt;&lt;br&gt;
You are welcome to use this library for commercial purposes. For attribution, we ask that when you begin to sell your device using our footprint, you email us with a link to the product being sold. We want bragging rights that we helped (in a very small part) to create your 8th world wonder. We would like the opportunity to feature your device on our homepage.</description>
<packages>
<package name="1X04_LOCK">
<wire x1="6.985" y1="1.27" x2="8.255" y2="1.27" width="0.2032" layer="21"/>
<wire x1="8.255" y1="1.27" x2="8.89" y2="0.635" width="0.2032" layer="21"/>
<wire x1="8.89" y1="-0.635" x2="8.255" y2="-1.27" width="0.2032" layer="21"/>
<wire x1="3.81" y1="0.635" x2="4.445" y2="1.27" width="0.2032" layer="21"/>
<wire x1="4.445" y1="1.27" x2="5.715" y2="1.27" width="0.2032" layer="21"/>
<wire x1="5.715" y1="1.27" x2="6.35" y2="0.635" width="0.2032" layer="21"/>
<wire x1="6.35" y1="-0.635" x2="5.715" y2="-1.27" width="0.2032" layer="21"/>
<wire x1="5.715" y1="-1.27" x2="4.445" y2="-1.27" width="0.2032" layer="21"/>
<wire x1="4.445" y1="-1.27" x2="3.81" y2="-0.635" width="0.2032" layer="21"/>
<wire x1="6.985" y1="1.27" x2="6.35" y2="0.635" width="0.2032" layer="21"/>
<wire x1="6.35" y1="-0.635" x2="6.985" y2="-1.27" width="0.2032" layer="21"/>
<wire x1="8.255" y1="-1.27" x2="6.985" y2="-1.27" width="0.2032" layer="21"/>
<wire x1="-0.635" y1="1.27" x2="0.635" y2="1.27" width="0.2032" layer="21"/>
<wire x1="0.635" y1="1.27" x2="1.27" y2="0.635" width="0.2032" layer="21"/>
<wire x1="1.27" y1="-0.635" x2="0.635" y2="-1.27" width="0.2032" layer="21"/>
<wire x1="1.27" y1="0.635" x2="1.905" y2="1.27" width="0.2032" layer="21"/>
<wire x1="1.905" y1="1.27" x2="3.175" y2="1.27" width="0.2032" layer="21"/>
<wire x1="3.175" y1="1.27" x2="3.81" y2="0.635" width="0.2032" layer="21"/>
<wire x1="3.81" y1="-0.635" x2="3.175" y2="-1.27" width="0.2032" layer="21"/>
<wire x1="3.175" y1="-1.27" x2="1.905" y2="-1.27" width="0.2032" layer="21"/>
<wire x1="1.905" y1="-1.27" x2="1.27" y2="-0.635" width="0.2032" layer="21"/>
<wire x1="-1.27" y1="0.635" x2="-1.27" y2="-0.635" width="0.2032" layer="21"/>
<wire x1="-0.635" y1="1.27" x2="-1.27" y2="0.635" width="0.2032" layer="21"/>
<wire x1="-1.27" y1="-0.635" x2="-0.635" y2="-1.27" width="0.2032" layer="21"/>
<wire x1="0.635" y1="-1.27" x2="-0.635" y2="-1.27" width="0.2032" layer="21"/>
<wire x1="8.89" y1="0.635" x2="8.89" y2="-0.635" width="0.2032" layer="21"/>
<pad name="1" x="0" y="0.127" drill="1.016" diameter="1.8796" shape="square" rot="R90"/>
<pad name="2" x="2.54" y="-0.127" drill="1.016" diameter="1.8796" rot="R90"/>
<pad name="3" x="5.08" y="0.127" drill="1.016" diameter="1.8796" rot="R90"/>
<pad name="4" x="7.62" y="-0.127" drill="1.016" diameter="1.8796" rot="R90"/>
<text x="-1.3462" y="1.8288" size="1.27" layer="25" ratio="10">&gt;NAME</text>
<text x="-1.27" y="-3.175" size="1.27" layer="27">&gt;VALUE</text>
<rectangle x1="7.366" y1="-0.254" x2="7.874" y2="0.254" layer="51"/>
<rectangle x1="4.826" y1="-0.254" x2="5.334" y2="0.254" layer="51"/>
<rectangle x1="2.286" y1="-0.254" x2="2.794" y2="0.254" layer="51"/>
<rectangle x1="-0.254" y1="-0.254" x2="0.254" y2="0.254" layer="51"/>
</package>
</packages>
</library>
<library name="SparkFun-Displays">
<description>&lt;h3&gt;SparkFun Electronics' preferred foot prints&lt;/h3&gt;
In this library you'll find all manner of display devices- LED displays, LCD displays, etc.&lt;br&gt;&lt;br&gt;
We've spent an enormous amount of time creating and checking these footprints and parts, but it is the end user's responsibility to ensure correctness and suitablity for a given componet or application. If you enjoy using this library, please buy one of our products at www.sparkfun.com.
&lt;br&gt;&lt;br&gt;
&lt;b&gt;Licensing:&lt;/b&gt; Creative Commons ShareAlike 4.0 International - https://creativecommons.org/licenses/by-sa/4.0/ 
&lt;br&gt;&lt;br&gt;
You are welcome to use this library for commercial purposes. For attribution, we ask that when you begin to sell your device using our footprint, you email us with a link to the product being sold. We want bragging rights that we helped (in a very small part) to create your 8th world wonder. We would like the opportunity to feature your device on our homepage.</description>
<packages>
<package name="LCD-16X2">
<wire x1="-40" y1="18" x2="40" y2="18" width="0.2032" layer="21"/>
<wire x1="40" y1="18" x2="40" y2="-18" width="0.2032" layer="21"/>
<wire x1="40" y1="-18" x2="-40" y2="-18" width="0.2032" layer="21"/>
<wire x1="-40" y1="-18" x2="-40" y2="18" width="0.2032" layer="21"/>
<wire x1="-35.65" y1="13.15" x2="35.65" y2="13.15" width="0.2032" layer="21"/>
<wire x1="35.65" y1="13.15" x2="35.65" y2="-13.15" width="0.2032" layer="21"/>
<wire x1="35.65" y1="-13.15" x2="-35.65" y2="-13.15" width="0.2032" layer="21"/>
<wire x1="-35.65" y1="-13.15" x2="-35.65" y2="13.15" width="0.2032" layer="21"/>
<wire x1="-32.25" y1="8.2" x2="32.25" y2="8.2" width="0.2032" layer="47"/>
<wire x1="32.25" y1="8.2" x2="32.25" y2="-8.2" width="0.2032" layer="47"/>
<wire x1="32.25" y1="-8.2" x2="-32.25" y2="-8.2" width="0.2032" layer="47"/>
<wire x1="-32.25" y1="-8.2" x2="-32.25" y2="8.2" width="0.2032" layer="47"/>
<pad name="1" x="-32" y="15.5" drill="1.016" diameter="1.8796" shape="square"/>
<pad name="2" x="-29.46" y="15.5" drill="1.016" diameter="1.8796"/>
<pad name="3" x="-26.92" y="15.5" drill="1.016" diameter="1.8796"/>
<pad name="4" x="-24.38" y="15.5" drill="1.016" diameter="1.8796"/>
<pad name="5" x="-21.84" y="15.5" drill="1.016" diameter="1.8796"/>
<pad name="6" x="-19.3" y="15.5" drill="1.016" diameter="1.8796"/>
<pad name="7" x="-16.76" y="15.5" drill="1.016" diameter="1.8796"/>
<pad name="8" x="-14.22" y="15.5" drill="1.016" diameter="1.8796"/>
<pad name="9" x="-11.68" y="15.5" drill="1.016" diameter="1.8796"/>
<pad name="10" x="-9.14" y="15.5" drill="1.016" diameter="1.8796"/>
<pad name="11" x="-6.6" y="15.5" drill="1.016" diameter="1.8796"/>
<pad name="12" x="-4.06" y="15.5" drill="1.016" diameter="1.8796"/>
<pad name="13" x="-1.52" y="15.5" drill="1.016" diameter="1.8796"/>
<pad name="14" x="1.02" y="15.5" drill="1.016" diameter="1.8796"/>
<pad name="15" x="3.56" y="15.5" drill="1.016" diameter="1.8796"/>
<pad name="16" x="6.1" y="15.5" drill="1.016" diameter="1.8796"/>
<text x="-34.29" y="15.24" size="1.016" layer="51" ratio="15">1</text>
<hole x="-37.5" y="15.5" drill="2.8"/>
<hole x="-37.5" y="-15.5" drill="2.8"/>
<hole x="37.5" y="15.5" drill="2.8"/>
<hole x="37.5" y="-15.5" drill="2.8"/>
</package>
</packages>
</library>
<library name="SparkFun-Electromechanical">
<description>&lt;h3&gt;SparkFun Electronics' preferred foot prints&lt;/h3&gt;
In this library you'll find anything that moves- switches, relays, buttons, potentiometers. Also, anything that goes on a board but isn't electrical in nature- screws, standoffs, etc.&lt;br&gt;&lt;br&gt;
We've spent an enormous amount of time creating and checking these footprints and parts, but it is the end user's responsibility to ensure correctness and suitablity for a given componet or application. If you enjoy using this library, please buy one of our products at www.sparkfun.com.
&lt;br&gt;&lt;br&gt;
&lt;b&gt;Licensing:&lt;/b&gt; Creative Commons ShareAlike 4.0 International - https://creativecommons.org/licenses/by-sa/4.0/ 
&lt;br&gt;&lt;br&gt;
You are welcome to use this library for commercial purposes. For attribution, we ask that when you begin to sell your device using our footprint, you email us with a link to the product being sold. We want bragging rights that we helped (in a very small part) to create your 8th world wonder. We would like the opportunity to feature your device on our homepage.</description>
<packages>
<package name="TRIM_POT">
<pad name="2" x="0" y="2.54" drill="1" diameter="1.8796"/>
<pad name="3" x="0" y="-2.54" drill="1" diameter="1.8796"/>
<pad name="1" x="5.08" y="0" drill="1" diameter="1.8796"/>
</package>
<package name="STAND-OFF">
<description>&lt;b&gt;Stand Off&lt;/b&gt;&lt;p&gt;
This is the mechanical footprint for a #4 phillips button head screw. Use the keepout ring to avoid running the screw head into surrounding components. SKU : PRT-00447</description>
<wire x1="0" y1="1.8542" x2="0" y2="-1.8542" width="0.2032" layer="41" curve="-180"/>
<wire x1="0" y1="-1.8542" x2="0" y2="1.8542" width="0.2032" layer="41" curve="-180"/>
<wire x1="0" y1="-1.8542" x2="0" y2="1.8542" width="0.2032" layer="42" curve="180"/>
<wire x1="0" y1="-1.8542" x2="0" y2="1.8542" width="0.2032" layer="42" curve="-180"/>
<circle x="0" y="0" radius="2.794" width="0.127" layer="39"/>
<hole x="0" y="0" drill="3.302"/>
</package>
</packages>
</library>
</libraries>
<attributes>
</attributes>
<variantdefs>
</variantdefs>
<classes>
<class number="0" name="default" width="0" drill="0">
</class>
<class number="1" name="power" width="0.762" drill="0">
<clearance class="1" value="0.508"/>
</class>
</classes>
<designrules name="default">
<description language="de">&lt;b&gt;EAGLE Design Rules&lt;/b&gt;
&lt;p&gt;
Die Standard-Design-Rules sind so gewählt, dass sie für 
die meisten Anwendungen passen. Sollte ihre Platine 
besondere Anforderungen haben, treffen Sie die erforderlichen
Einstellungen hier und speichern die Design Rules unter 
einem neuen Namen ab.</description>
<description language="en">&lt;b&gt;Laen's PCB Order Design Rules&lt;/b&gt;
&lt;p&gt;
Please make sure your boards conform to these design rules.</description>
<param name="layerSetup" value="(1*16)"/>
<param name="mtCopper" value="0.0356mm 0.0356mm 0.0356mm 0.0356mm 0.0356mm 0.0356mm 0.0356mm 0.0356mm 0.0356mm 0.0356mm 0.0356mm 0.0356mm 0.0356mm 0.0356mm 0.0356mm 0.0356mm"/>
<param name="mtIsolate" value="1.5011mm 0.1499mm 0.2007mm 0.1499mm 0.2007mm 0.1499mm 0.2007mm 0.1499mm 0.2007mm 0.1499mm 0.2007mm 0.1499mm 0.2007mm 0.1499mm 0.2007mm"/>
<param name="mdWireWire" value="6mil"/>
<param name="mdWirePad" value="6mil"/>
<param name="mdWireVia" value="6mil"/>
<param name="mdPadPad" value="6mil"/>
<param name="mdPadVia" value="6mil"/>
<param name="mdViaVia" value="6mil"/>
<param name="mdSmdPad" value="6mil"/>
<param name="mdSmdVia" value="6mil"/>
<param name="mdSmdSmd" value="6mil"/>
<param name="mdViaViaSameLayer" value="8mil"/>
<param name="mnLayersViaInSmd" value="2"/>
<param name="mdCopperDimension" value="15mil"/>
<param name="mdDrill" value="6mil"/>
<param name="mdSmdStop" value="0mil"/>
<param name="msWidth" value="6mil"/>
<param name="msDrill" value="13mil"/>
<param name="msMicroVia" value="13mil"/>
<param name="msBlindViaRatio" value="0.5"/>
<param name="rvPadTop" value="0.25"/>
<param name="rvPadInner" value="0.25"/>
<param name="rvPadBottom" value="0.25"/>
<param name="rvViaOuter" value="0.25"/>
<param name="rvViaInner" value="0.25"/>
<param name="rvMicroViaOuter" value="0.25"/>
<param name="rvMicroViaInner" value="0.25"/>
<param name="rlMinPadTop" value="7mil"/>
<param name="rlMaxPadTop" value="20mil"/>
<param name="rlMinPadInner" value="7mil"/>
<param name="rlMaxPadInner" value="20mil"/>
<param name="rlMinPadBottom" value="7mil"/>
<param name="rlMaxPadBottom" value="20mil"/>
<param name="rlMinViaOuter" value="7mil"/>
<param name="rlMaxViaOuter" value="20mil"/>
<param name="rlMinViaInner" value="7mil"/>
<param name="rlMaxViaInner" value="20mil"/>
<param name="rlMinMicroViaOuter" value="4mil"/>
<param name="rlMaxMicroViaOuter" value="20mil"/>
<param name="rlMinMicroViaInner" value="4mil"/>
<param name="rlMaxMicroViaInner" value="20mil"/>
<param name="psTop" value="-1"/>
<param name="psBottom" value="-1"/>
<param name="psFirst" value="-1"/>
<param name="psElongationLong" value="100"/>
<param name="psElongationOffset" value="100"/>
<param name="mvStopFrame" value="1"/>
<param name="mvCreamFrame" value="0"/>
<param name="mlMinStopFrame" value="4mil"/>
<param name="mlMaxStopFrame" value="4mil"/>
<param name="mlMinCreamFrame" value="0mil"/>
<param name="mlMaxCreamFrame" value="0mil"/>
<param name="mlViaStopLimit" value="0mil"/>
<param name="srRoundness" value="0"/>
<param name="srMinRoundness" value="0mil"/>
<param name="srMaxRoundness" value="0mil"/>
<param name="slThermalIsolate" value="10mil"/>
<param name="slThermalsForVias" value="0"/>
<param name="dpMaxLengthDifference" value="10mm"/>
<param name="dpGapFactor" value="2.5"/>
<param name="checkGrid" value="0"/>
<param name="checkAngle" value="0"/>
<param name="checkFont" value="1"/>
<param name="checkRestrict" value="1"/>
<param name="useDiameter" value="13"/>
<param name="maxErrors" value="50"/>
</designrules>
<autorouter>
<pass name="Default">
<param name="RoutingGrid" value="50mil"/>
<param name="AutoGrid" value="1"/>
<param name="Efforts" value="0"/>
<param name="TopRouterVariant" value="1"/>
<param name="tpViaShape" value="round"/>
<param name="PrefDir.1" value="|"/>
<param name="PrefDir.2" value="0"/>
<param name="PrefDir.3" value="0"/>
<param name="PrefDir.4" value="0"/>
<param name="PrefDir.5" value="0"/>
<param name="PrefDir.6" value="0"/>
<param name="PrefDir.7" value="0"/>
<param name="PrefDir.8" value="0"/>
<param name="PrefDir.9" value="0"/>
<param name="PrefDir.10" value="0"/>
<param name="PrefDir.11" value="0"/>
<param name="PrefDir.12" value="0"/>
<param name="PrefDir.13" value="0"/>
<param name="PrefDir.14" value="0"/>
<param name="PrefDir.15" value="0"/>
<param name="PrefDir.16" value="-"/>
<param name="cfVia" value="8"/>
<param name="cfNonPref" value="5"/>
<param name="cfChangeDir" value="2"/>
<param name="cfOrthStep" value="2"/>
<param name="cfDiagStep" value="3"/>
<param name="cfExtdStep" value="0"/>
<param name="cfBonusStep" value="1"/>
<param name="cfMalusStep" value="1"/>
<param name="cfPadImpact" value="4"/>
<param name="cfSmdImpact" value="4"/>
<param name="cfBusImpact" value="0"/>
<param name="cfHugging" value="3"/>
<param name="cfAvoid" value="4"/>
<param name="cfPolygon" value="10"/>
<param name="cfBase.1" value="0"/>
<param name="cfBase.2" value="1"/>
<param name="cfBase.3" value="1"/>
<param name="cfBase.4" value="1"/>
<param name="cfBase.5" value="1"/>
<param name="cfBase.6" value="1"/>
<param name="cfBase.7" value="1"/>
<param name="cfBase.8" value="1"/>
<param name="cfBase.9" value="1"/>
<param name="cfBase.10" value="1"/>
<param name="cfBase.11" value="1"/>
<param name="cfBase.12" value="1"/>
<param name="cfBase.13" value="1"/>
<param name="cfBase.14" value="1"/>
<param name="cfBase.15" value="1"/>
<param name="cfBase.16" value="0"/>
<param name="mnVias" value="20"/>
<param name="mnSegments" value="9999"/>
<param name="mnExtdSteps" value="9999"/>
<param name="mnRipupLevel" value="10"/>
<param name="mnRipupSteps" value="100"/>
<param name="mnRipupTotal" value="100"/>
</pass>
<pass name="Follow-me" refer="Default" active="yes">
</pass>
<pass name="Busses" refer="Default" active="yes">
<param name="cfNonPref" value="4"/>
<param name="cfBusImpact" value="4"/>
<param name="cfHugging" value="0"/>
<param name="mnVias" value="0"/>
</pass>
<pass name="Route" refer="Default" active="yes">
</pass>
</autorouter>
<elements>
<element name="ISP1" library="adafruit" package="AVRISP" value="AVRISP-6" x="38.608" y="39.116"/>
<element name="C2" library="rcl" package="C1206" value="0.22uF" x="58.674" y="12.065"/>
<element name="LED1" library="adafruit" package="CHIPLED_1206" value="SIGNAL" x="3.683" y="20.574" rot="R180"/>
<element name="R22" library="adafruit" package="R1206" value="100" x="3.683" y="27.178" rot="R90"/>
<element name="RTC" library="pinhead" package="1X08" value="" x="45.72" y="76.454"/>
<element name="XTAL" library="adafruit" package="CERM_OSC" value="osc" x="14.986" y="41.656" rot="R270"/>
<element name="C1" library="rcl" package="C1206" value="0.22uF" x="58.674" y="17.653"/>
<element name="IC3" library="linear" package="TO220H" value="7805T" x="16.129" y="-2.286" rot="R180"/>
<element name="PWRIN" library="adafruit" package="PJ-102A" value="2.1MMJACKTHM" x="31.115" y="4.445" rot="MR180"/>
<element name="SP1" library="adafruit" package="PS12" value="SPEAKER/PS12" x="18.034" y="20.701"/>
<element name="SERIAL" library="con-lstb" package="MA04-1" value="" x="24.511" y="76.708">
<attribute name="MF" value="" x="24.511" y="76.708" size="1.778" layer="27" display="off"/>
<attribute name="MPN" value="" x="24.511" y="76.708" size="1.778" layer="27" display="off"/>
<attribute name="OC_FARNELL" value="unknown" x="24.511" y="76.708" size="1.778" layer="27" display="off"/>
<attribute name="OC_NEWARK" value="unknown" x="24.511" y="76.708" size="1.778" layer="27" display="off"/>
</element>
<element name="RST" library="switch-omron" package="B3F-10XX" value="" x="11.176" y="74.422" rot="R180">
<attribute name="OC_NEWARK" value="36M3542" x="11.176" y="74.422" size="1.778" layer="27" rot="R180" display="off"/>
<attribute name="MPN" value="B3F-1000" x="11.176" y="74.422" size="1.778" layer="27" rot="R180" display="off"/>
<attribute name="MF" value="" x="11.176" y="74.422" size="1.778" layer="27" rot="R180" display="off"/>
<attribute name="OC_FARNELL" value="176432" x="11.176" y="74.422" size="1.778" layer="27" rot="R180" display="off"/>
</element>
<element name="T1" library="transistor" package="TO92-CBE" value="" x="6.223" y="12.827" rot="R180"/>
<element name="R4" library="adafruit" package="M1206" value="" x="9.779" y="27.178" rot="R270"/>
<element name="R6" library="adafruit" package="M1206" value="" x="9.652" y="20.066" rot="R90"/>
<element name="S5" library="adafruit" package="EG1218" value="" x="32.512" y="22.352" rot="R180"/>
<element name="U1" library="SparkFun-DigitalIC" package="DIL28-3" value="ATMEGA328P_PDIP" x="25.146" y="46.99" rot="R270"/>
<element name="J1" library="nick" package="SCREW-2-02" value="OUTPUTS" x="11.176" y="60.706"/>
<element name="R1" library="adafruit" package="R1206" value="10k" x="3.302" y="68.707" rot="R90"/>
<element name="+5" library="adafruit" package="1X08-LOCK" value="" x="1.397" y="43.053" rot="R270"/>
<element name="JP9" library="SparkFun-Connectors" package="1X04_LOCK" value="" x="48.895" y="41.402" rot="R270"/>
<element name="RV1" library="SparkFun-Electromechanical" package="TRIM_POT" value="" x="43.688" y="14.986"/>
<element name="U3" library="SparkFun-Displays" package="LCD-16X2" value="LCD-16X2SILK" x="82.042" y="39.878" rot="R90"/>
<element name="R2" library="adafruit" package="R1206" value="0" x="59.69" y="58.928"/>
<element name="R3" library="adafruit" package="R1206" value="0" x="59.69" y="64.643"/>
<element name="STANDOFF1" library="SparkFun-Electromechanical" package="STAND-OFF" value="STAND-OFF" x="59.563" y="76.327"/>
<element name="STANDOFF2" library="SparkFun-Electromechanical" package="STAND-OFF" value="STAND-OFF" x="3.683" y="3.81"/>
<element name="STANDOFF3" library="SparkFun-Electromechanical" package="STAND-OFF" value="STAND-OFF" x="59.944" y="3.556"/>
<element name="STANDOFF4" library="SparkFun-Electromechanical" package="STAND-OFF" value="STAND-OFF" x="3.175" y="76.454"/>
</elements>
<signals>
<signal name="GND">
<contactref element="ISP1" pad="6"/>
<contactref element="LED1" pad="C"/>
<contactref element="RTC" pad="3"/>
<contactref element="C1" pad="2"/>
<contactref element="C2" pad="2"/>
<contactref element="IC3" pad="2"/>
<contactref element="XTAL" pad="P$2"/>
<contactref element="SERIAL" pad="1"/>
<contactref element="RST" pad="3"/>
<contactref element="RST" pad="4"/>
<contactref element="T1" pad="E"/>
<contactref element="J1" pad="2"/>
<contactref element="PWRIN" pad="RING"/>
<contactref element="PWRIN" pad="RING_SW"/>
<contactref element="U1" pad="8"/>
<contactref element="U1" pad="22"/>
<contactref element="+5" pad="2"/>
<contactref element="JP9" pad="3"/>
<contactref element="JP9" pad="2"/>
<contactref element="RV1" pad="3"/>
<contactref element="U3" pad="1"/>
<contactref element="R3" pad="1"/>
<wire x1="41.91" y1="76.454" x2="58.268" y2="64.643" width="0" layer="19" extent="1-1"/>
<wire x1="20.701" y1="76.708" x2="41.91" y2="76.454" width="0" layer="19" extent="1-1"/>
<wire x1="14.4272" y1="76.6826" x2="20.701" y2="76.708" width="0" layer="19" extent="1-1"/>
<wire x1="7.9248" y1="76.6826" x2="14.4272" y2="76.6826" width="0" layer="19" extent="1-1"/>
<wire x1="13.676" y1="60.706" x2="14.4272" y2="76.6826" width="0" layer="19" extent="1-1"/>
<wire x1="1.27" y1="49.403" x2="13.676" y2="60.706" width="0" layer="19" extent="1-1"/>
<wire x1="14.986" y1="41.656" x2="1.27" y2="49.403" width="0" layer="19" extent="1-1"/>
<wire x1="21.336" y1="45.72" x2="14.986" y2="41.656" width="0" layer="19" extent="1-1"/>
<wire x1="28.956" y1="48.26" x2="21.336" y2="45.72" width="0" layer="19" extent="1-1"/>
<wire x1="39.878" y1="36.576" x2="28.956" y2="48.26" width="0" layer="19" extent="1-1"/>
<wire x1="49.022" y1="36.322" x2="39.878" y2="36.576" width="0" layer="19" extent="1-1"/>
<wire x1="48.768" y1="38.862" x2="49.022" y2="36.322" width="0" layer="19" extent="1-1"/>
<wire x1="60.074" y1="17.653" x2="49.022" y2="36.322" width="0" layer="19" extent="1-1"/>
<wire x1="60.074" y1="12.065" x2="60.074" y2="17.653" width="0" layer="19" extent="1-1"/>
<wire x1="66.542" y1="7.878" x2="60.074" y2="12.065" width="0" layer="19" extent="1-1"/>
<wire x1="43.688" y1="12.446" x2="60.074" y2="12.065" width="0" layer="19" extent="1-1"/>
<wire x1="31.215" y1="7.835" x2="43.688" y2="12.446" width="0" layer="19" extent="1-1"/>
<wire x1="26.515" y1="10.735" x2="31.215" y2="7.835" width="0" layer="19" extent="1-1"/>
<wire x1="16.129" y1="7.874" x2="26.515" y2="10.735" width="0" layer="19" extent="1-1"/>
<wire x1="3.683" y1="12.827" x2="16.129" y2="7.874" width="0" layer="19" extent="1-1"/>
<wire x1="3.683" y1="18.824" x2="3.683" y2="12.827" width="0" layer="19" extent="1-1"/>
</signal>
<signal name="VOUT">
<contactref element="J1" pad="1"/>
<contactref element="+5" pad="3"/>
<contactref element="JP9" pad="4"/>
<wire x1="8.676" y1="60.706" x2="48.768" y2="33.782" width="0" layer="19" extent="1-1"/>
<wire x1="1.524" y1="46.863" x2="8.676" y2="60.706" width="0" layer="19" extent="1-1"/>
</signal>
<signal name="MISO">
<contactref element="ISP1" pad="1"/>
<contactref element="U1" pad="18"/>
<wire x1="28.956" y1="38.1" x2="37.338" y2="41.656" width="0" layer="19" extent="1-1"/>
</signal>
<signal name="SCK">
<contactref element="ISP1" pad="3"/>
<contactref element="U1" pad="19"/>
<wire x1="28.956" y1="40.64" x2="37.338" y2="39.116" width="0" layer="19" extent="1-1"/>
</signal>
<signal name="RST">
<contactref element="ISP1" pad="5"/>
<contactref element="RTC" pad="4"/>
<contactref element="RST" pad="1"/>
<contactref element="RST" pad="2"/>
<contactref element="U1" pad="1"/>
<contactref element="R1" pad="1"/>
<wire x1="21.336" y1="63.5" x2="44.45" y2="76.454" width="0" layer="19" extent="1-1"/>
<wire x1="14.4272" y1="72.1614" x2="21.336" y2="63.5" width="0" layer="19" extent="1-1"/>
<wire x1="7.9248" y1="72.1614" x2="14.4272" y2="72.1614" width="0" layer="19" extent="1-1"/>
<wire x1="3.302" y1="67.285" x2="7.9248" y2="72.1614" width="0" layer="19" extent="1-1"/>
<wire x1="37.338" y1="36.576" x2="21.336" y2="63.5" width="0" layer="19" extent="1-1"/>
</signal>
<signal name="INT">
<contactref element="RTC" pad="5"/>
</signal>
<signal name="SCL">
<contactref element="RTC" pad="8"/>
<contactref element="U1" pad="28"/>
<wire x1="28.956" y1="63.5" x2="54.61" y2="76.454" width="0" layer="19" extent="1-1"/>
</signal>
<signal name="SDA">
<contactref element="RTC" pad="1"/>
<contactref element="U1" pad="27"/>
<wire x1="28.956" y1="60.96" x2="36.83" y2="76.454" width="0" layer="19" extent="1-1"/>
</signal>
<signal name="N$31">
<contactref element="LED1" pad="A"/>
<contactref element="R22" pad="1"/>
<wire x1="3.683" y1="22.324" x2="3.683" y2="25.756" width="0" layer="19" extent="1-1"/>
</signal>
<signal name="32KHZ">
<contactref element="RTC" pad="7"/>
</signal>
<signal name="VBAT">
<contactref element="RTC" pad="2"/>
</signal>
<signal name="MOSI">
<contactref element="ISP1" pad="4"/>
<contactref element="U1" pad="17"/>
<wire x1="28.956" y1="35.56" x2="39.878" y2="39.116" width="0" layer="19" extent="1-1"/>
</signal>
<signal name="TXD">
<contactref element="SERIAL" pad="3"/>
<contactref element="U1" pad="3"/>
<wire x1="21.336" y1="58.42" x2="25.781" y2="76.708" width="0" layer="19" extent="1-1"/>
</signal>
<signal name="RXD">
<contactref element="SERIAL" pad="4"/>
<contactref element="U1" pad="2"/>
<wire x1="21.336" y1="60.96" x2="28.321" y2="76.708" width="0" layer="19" extent="1-1"/>
</signal>
<signal name="D6">
<contactref element="U3" pad="13"/>
<contactref element="U1" pad="25"/>
<wire x1="28.956" y1="55.88" x2="66.542" y2="38.358" width="0" layer="19" extent="1-1"/>
</signal>
<signal name="VIN">
<contactref element="IC3" pad="1"/>
<contactref element="C2" pad="1"/>
<contactref element="S5" pad="S"/>
<wire x1="29.972" y1="22.352" x2="57.274" y2="12.065" width="0" layer="19" extent="1-1"/>
<wire x1="18.669" y1="7.874" x2="29.972" y2="22.352" width="0" layer="19" extent="1-1"/>
</signal>
<signal name="+5V">
<contactref element="ISP1" pad="2"/>
<contactref element="RTC" pad="6"/>
<contactref element="C1" pad="1"/>
<contactref element="IC3" pad="3"/>
<contactref element="SERIAL" pad="2"/>
<contactref element="R6" pad="2"/>
<contactref element="SP1" pad="P$1"/>
<contactref element="U1" pad="7"/>
<contactref element="U1" pad="20"/>
<contactref element="R1" pad="2"/>
<contactref element="+5" pad="1"/>
<contactref element="JP9" pad="1"/>
<contactref element="RV1" pad="2"/>
<contactref element="U3" pad="2"/>
<contactref element="R2" pad="1"/>
<wire x1="58.268" y1="58.928" x2="49.53" y2="76.454" width="0" layer="19" extent="1-1"/>
<wire x1="49.022" y1="41.402" x2="58.268" y2="58.928" width="0" layer="19" extent="1-1"/>
<wire x1="39.878" y1="41.656" x2="49.022" y2="41.402" width="0" layer="19" extent="1-1"/>
<wire x1="28.956" y1="43.18" x2="39.878" y2="41.656" width="0" layer="19" extent="1-1"/>
<wire x1="21.336" y1="48.26" x2="28.956" y2="43.18" width="0" layer="19" extent="1-1"/>
<wire x1="1.524" y1="51.943" x2="21.336" y2="48.26" width="0" layer="19" extent="1-1"/>
<wire x1="3.302" y1="70.129" x2="1.524" y2="51.943" width="0" layer="19" extent="1-1"/>
<wire x1="23.241" y1="76.708" x2="3.302" y2="70.129" width="0" layer="19" extent="1-1"/>
<wire x1="43.688" y1="17.526" x2="39.878" y2="41.656" width="0" layer="19" extent="1-1"/>
<wire x1="57.274" y1="17.653" x2="43.688" y2="17.526" width="0" layer="19" extent="1-1"/>
<wire x1="66.542" y1="10.418" x2="57.274" y2="17.653" width="0" layer="19" extent="1-1"/>
<wire x1="15.534" y1="20.701" x2="28.956" y2="43.18" width="0" layer="19" extent="1-1"/>
<wire x1="9.652" y1="21.466" x2="15.534" y2="20.701" width="0" layer="19" extent="1-1"/>
<wire x1="13.589" y1="7.874" x2="15.534" y2="20.701" width="0" layer="19" extent="1-1"/>
</signal>
<signal name="XTAL2">
<contactref element="XTAL" pad="P$3"/>
<contactref element="U1" pad="10"/>
<wire x1="14.986" y1="39.116" x2="21.336" y2="40.64" width="0" layer="19" extent="1-1"/>
</signal>
<signal name="XTAL1">
<contactref element="XTAL" pad="P$1"/>
<contactref element="U1" pad="9"/>
<wire x1="14.986" y1="44.196" x2="21.336" y2="43.18" width="0" layer="19" extent="1-1"/>
</signal>
<signal name="N$2">
<contactref element="R4" pad="2"/>
<contactref element="T1" pad="B"/>
<wire x1="6.223" y1="12.827" x2="9.779" y2="25.778" width="0" layer="19" extent="1-1"/>
</signal>
<signal name="N$3">
<contactref element="R6" pad="1"/>
<contactref element="T1" pad="C"/>
<contactref element="SP1" pad="P$2"/>
<wire x1="9.652" y1="18.666" x2="20.534" y2="20.701" width="0" layer="19" extent="1-1"/>
<wire x1="8.763" y1="12.827" x2="9.652" y2="18.666" width="0" layer="19" extent="1-1"/>
</signal>
<signal name="VINP">
<contactref element="S5" pad="P"/>
<contactref element="PWRIN" pad="TIP"/>
<wire x1="31.215" y1="13.735" x2="32.512" y2="22.352" width="0" layer="19" extent="1-1"/>
</signal>
<signal name="SR_DATA">
<contactref element="+5" pad="4"/>
<contactref element="U1" pad="4"/>
<wire x1="1.27" y1="44.323" x2="21.336" y2="55.88" width="0" layer="19" extent="1-1"/>
</signal>
<signal name="SR_SCK">
<contactref element="+5" pad="5"/>
<contactref element="U1" pad="5"/>
<wire x1="1.524" y1="41.783" x2="21.336" y2="53.34" width="0" layer="19" extent="1-1"/>
</signal>
<signal name="SR_SCL">
<contactref element="+5" pad="6"/>
<contactref element="U1" pad="6"/>
<wire x1="1.27" y1="39.243" x2="21.336" y2="50.8" width="0" layer="19" extent="1-1"/>
</signal>
<signal name="SR_RCK">
<contactref element="+5" pad="7"/>
<contactref element="U1" pad="11"/>
<wire x1="1.524" y1="36.703" x2="21.336" y2="38.1" width="0" layer="19" extent="1-1"/>
</signal>
<signal name="SR_G">
<contactref element="+5" pad="8"/>
<contactref element="U1" pad="12"/>
<wire x1="1.27" y1="34.163" x2="21.336" y2="35.56" width="0" layer="19" extent="1-1"/>
</signal>
<signal name="V0">
<contactref element="U3" pad="3"/>
<contactref element="RV1" pad="1"/>
<wire x1="48.768" y1="14.986" x2="66.542" y2="12.958" width="0" layer="19" extent="1-1"/>
</signal>
<signal name="RS">
<contactref element="U3" pad="4"/>
<contactref element="U1" pad="14"/>
<wire x1="21.336" y1="30.48" x2="66.542" y2="15.498" width="0" layer="19" extent="1-1"/>
</signal>
<signal name="EN">
<contactref element="U3" pad="6"/>
<contactref element="U1" pad="16"/>
<wire x1="28.956" y1="33.02" x2="66.542" y2="20.578" width="0" layer="19" extent="1-1"/>
</signal>
<signal name="RW">
<contactref element="U3" pad="5"/>
<contactref element="U1" pad="15"/>
<wire x1="28.956" y1="30.48" x2="66.542" y2="18.038" width="0" layer="19" extent="1-1"/>
</signal>
<signal name="D4">
<contactref element="U3" pad="11"/>
<contactref element="U1" pad="23"/>
<wire x1="28.956" y1="50.8" x2="66.542" y2="33.278" width="0" layer="19" extent="1-1"/>
</signal>
<signal name="D5">
<contactref element="U3" pad="12"/>
<contactref element="U1" pad="24"/>
<wire x1="28.956" y1="53.34" x2="66.542" y2="35.818" width="0" layer="19" extent="1-1"/>
</signal>
<signal name="D7">
<contactref element="U3" pad="14"/>
<contactref element="U1" pad="26"/>
<wire x1="28.956" y1="58.42" x2="66.542" y2="40.898" width="0" layer="19" extent="1-1"/>
</signal>
<signal name="N$7">
<contactref element="U3" pad="15"/>
<contactref element="R2" pad="2"/>
<wire x1="66.542" y1="43.438" x2="61.112" y2="58.928" width="0" layer="19" extent="1-1"/>
</signal>
<signal name="N$8">
<contactref element="U3" pad="16"/>
<contactref element="R3" pad="2"/>
<wire x1="66.542" y1="45.978" x2="61.112" y2="64.643" width="0" layer="19" extent="1-1"/>
</signal>
<signal name="BUZZ">
<contactref element="R4" pad="1"/>
<contactref element="R22" pad="2"/>
<contactref element="U1" pad="13"/>
<wire x1="9.779" y1="28.578" x2="21.336" y2="33.02" width="0" layer="19" extent="1-1"/>
<wire x1="3.683" y1="28.6" x2="9.779" y2="28.578" width="0" layer="19" extent="1-1"/>
</signal>
</signals>
</board>
</drawing>
</eagle>
