<?xml version="1.0" encoding="utf-8"?>
<!DOCTYPE eagle SYSTEM "eagle.dtd">
<eagle version="6.4">
<drawing>
<settings>
<setting alwaysvectorfont="no"/>
<setting verticaltext="up"/>
</settings>
<grid distance="0.1" unitdist="inch" unit="inch" style="lines" multiple="1" display="no" altdistance="0.01" altunitdist="inch" altunit="inch"/>
<layers>
<layer number="1" name="Top" color="4" fill="1" visible="no" active="no"/>
<layer number="16" name="Bottom" color="1" fill="1" visible="no" active="no"/>
<layer number="17" name="Pads" color="2" fill="1" visible="no" active="no"/>
<layer number="18" name="Vias" color="2" fill="1" visible="no" active="no"/>
<layer number="19" name="Unrouted" color="6" fill="1" visible="no" active="no"/>
<layer number="20" name="Dimension" color="15" fill="1" visible="no" active="no"/>
<layer number="21" name="tPlace" color="7" fill="1" visible="no" active="no"/>
<layer number="22" name="bPlace" color="7" fill="1" visible="no" active="no"/>
<layer number="23" name="tOrigins" color="15" fill="1" visible="no" active="no"/>
<layer number="24" name="bOrigins" color="15" fill="1" visible="no" active="no"/>
<layer number="25" name="tNames" color="7" fill="1" visible="no" active="no"/>
<layer number="26" name="bNames" color="7" fill="1" visible="no" active="no"/>
<layer number="27" name="tValues" color="7" fill="1" visible="no" active="no"/>
<layer number="28" name="bValues" color="7" fill="1" visible="no" active="no"/>
<layer number="29" name="tStop" color="7" fill="3" visible="no" active="no"/>
<layer number="30" name="bStop" color="7" fill="6" visible="no" active="no"/>
<layer number="31" name="tCream" color="7" fill="4" visible="no" active="no"/>
<layer number="32" name="bCream" color="7" fill="5" visible="no" active="no"/>
<layer number="33" name="tFinish" color="6" fill="3" visible="no" active="no"/>
<layer number="34" name="bFinish" color="6" fill="6" visible="no" active="no"/>
<layer number="35" name="tGlue" color="7" fill="4" visible="no" active="no"/>
<layer number="36" name="bGlue" color="7" fill="5" visible="no" active="no"/>
<layer number="37" name="tTest" color="7" fill="1" visible="no" active="no"/>
<layer number="38" name="bTest" color="7" fill="1" visible="no" active="no"/>
<layer number="39" name="tKeepout" color="4" fill="11" visible="no" active="no"/>
<layer number="40" name="bKeepout" color="1" fill="11" visible="no" active="no"/>
<layer number="41" name="tRestrict" color="4" fill="10" visible="no" active="no"/>
<layer number="42" name="bRestrict" color="1" fill="10" visible="no" active="no"/>
<layer number="43" name="vRestrict" color="2" fill="10" visible="no" active="no"/>
<layer number="44" name="Drills" color="7" fill="1" visible="no" active="no"/>
<layer number="45" name="Holes" color="7" fill="1" visible="no" active="no"/>
<layer number="46" name="Milling" color="3" fill="1" visible="no" active="no"/>
<layer number="47" name="Measures" color="7" fill="1" visible="no" active="no"/>
<layer number="48" name="Document" color="7" fill="1" visible="no" active="no"/>
<layer number="49" name="Reference" color="7" fill="1" visible="no" active="no"/>
<layer number="50" name="dxf" color="7" fill="1" visible="no" active="no"/>
<layer number="51" name="tDocu" color="7" fill="1" visible="no" active="no"/>
<layer number="52" name="bDocu" color="7" fill="1" visible="no" active="no"/>
<layer number="53" name="tGND_GNDA" color="7" fill="9" visible="no" active="no"/>
<layer number="54" name="bGND_GNDA" color="1" fill="9" visible="no" active="no"/>
<layer number="56" name="wert" color="7" fill="1" visible="no" active="no"/>
<layer number="91" name="Nets" color="2" fill="1" visible="yes" active="yes"/>
<layer number="92" name="Busses" color="1" fill="1" visible="yes" active="yes"/>
<layer number="93" name="Pins" color="2" fill="1" visible="no" active="yes"/>
<layer number="94" name="Symbols" color="4" fill="1" visible="yes" active="yes"/>
<layer number="95" name="Names" color="7" fill="1" visible="yes" active="yes"/>
<layer number="96" name="Values" color="7" fill="1" visible="yes" active="yes"/>
<layer number="97" name="Info" color="7" fill="1" visible="yes" active="yes"/>
<layer number="98" name="Guide" color="6" fill="1" visible="yes" active="yes"/>
<layer number="100" name="Muster" color="7" fill="1" visible="no" active="no"/>
<layer number="101" name="Patch_Top" color="12" fill="4" visible="yes" active="yes"/>
<layer number="102" name="Vscore" color="7" fill="1" visible="yes" active="yes"/>
<layer number="103" name="fp3" color="7" fill="1" visible="no" active="yes"/>
<layer number="104" name="Name" color="7" fill="1" visible="yes" active="yes"/>
<layer number="105" name="Beschreib" color="9" fill="1" visible="yes" active="yes"/>
<layer number="106" name="BGA-Top" color="4" fill="1" visible="yes" active="yes"/>
<layer number="107" name="BD-Top" color="5" fill="1" visible="yes" active="yes"/>
<layer number="108" name="fp8" color="7" fill="1" visible="no" active="yes"/>
<layer number="109" name="fp9" color="7" fill="1" visible="no" active="yes"/>
<layer number="110" name="fp0" color="7" fill="1" visible="no" active="yes"/>
<layer number="116" name="Patch_BOT" color="9" fill="4" visible="yes" active="yes"/>
<layer number="121" name="_tsilk" color="7" fill="1" visible="yes" active="yes"/>
<layer number="122" name="_bsilk" color="7" fill="1" visible="yes" active="yes"/>
<layer number="123" name="tTestmark" color="7" fill="1" visible="no" active="yes"/>
<layer number="124" name="bTestmark" color="7" fill="1" visible="no" active="yes"/>
<layer number="131" name="tAdjust" color="7" fill="1" visible="no" active="yes"/>
<layer number="132" name="bAdjust" color="7" fill="1" visible="no" active="yes"/>
<layer number="144" name="Drill_legend" color="7" fill="1" visible="yes" active="yes"/>
<layer number="151" name="HeatSink" color="7" fill="1" visible="yes" active="yes"/>
<layer number="199" name="Contour" color="7" fill="1" visible="yes" active="yes"/>
<layer number="200" name="200bmp" color="1" fill="10" visible="no" active="no"/>
<layer number="201" name="201bmp" color="2" fill="1" visible="no" active="no"/>
<layer number="202" name="202bmp" color="3" fill="1" visible="no" active="no"/>
<layer number="203" name="203bmp" color="4" fill="10" visible="yes" active="yes"/>
<layer number="204" name="204bmp" color="5" fill="10" visible="yes" active="yes"/>
<layer number="205" name="205bmp" color="6" fill="10" visible="yes" active="yes"/>
<layer number="206" name="206bmp" color="7" fill="10" visible="yes" active="yes"/>
<layer number="207" name="207bmp" color="8" fill="10" visible="yes" active="yes"/>
<layer number="208" name="208bmp" color="9" fill="10" visible="yes" active="yes"/>
<layer number="209" name="209bmp" color="7" fill="1" visible="no" active="yes"/>
<layer number="210" name="210bmp" color="7" fill="1" visible="no" active="yes"/>
<layer number="250" name="Descript" color="7" fill="1" visible="no" active="no"/>
<layer number="251" name="SMDround" color="7" fill="1" visible="no" active="no"/>
<layer number="254" name="cooling" color="7" fill="1" visible="yes" active="yes"/>
</layers>
<schematic xreflabel="%F%N/%S.%C%R" xrefpart="/%S.%C%R">
<libraries>
<library name="adafruit">
<packages>
<package name="1206">
<description>&lt;b&gt;CHICAGO MINIATURE LAMP, INC.&lt;/b&gt;&lt;p&gt;
7022X Series SMT LEDs 1206 Package Size</description>
<wire x1="1.55" y1="-0.75" x2="-1.55" y2="-0.75" width="0.1016" layer="51"/>
<wire x1="-1.55" y1="-0.75" x2="-1.55" y2="0.75" width="0.1016" layer="51"/>
<wire x1="-1.55" y1="0.75" x2="1.55" y2="0.75" width="0.1016" layer="51"/>
<wire x1="1.55" y1="0.75" x2="1.55" y2="-0.75" width="0.1016" layer="51"/>
<wire x1="-0.55" y1="-0.5" x2="0.55" y2="-0.5" width="0.1016" layer="21" curve="95.452622" cap="flat"/>
<wire x1="-0.55" y1="-0.5" x2="-0.55" y2="0.5" width="0.1016" layer="51" curve="-84.547378" cap="flat"/>
<wire x1="-0.55" y1="0.5" x2="0.55" y2="0.5" width="0.1016" layer="21" curve="-95.452622" cap="flat"/>
<wire x1="0.55" y1="0.5" x2="0.55" y2="-0.5" width="0.1016" layer="51" curve="-84.547378" cap="flat"/>
<smd name="A" x="-1.422" y="0" dx="1.6" dy="1.803" layer="1"/>
<smd name="C" x="1.422" y="0" dx="1.6" dy="1.803" layer="1"/>
<text x="-1.27" y="1.27" size="1.27" layer="25">&gt;NAME</text>
<text x="-1.27" y="-2.54" size="1.27" layer="27">&gt;VALUE</text>
<rectangle x1="-0.1" y1="-0.1" x2="0.1" y2="0.1" layer="21"/>
<rectangle x1="0.45" y1="-0.7" x2="0.8" y2="-0.45" layer="51"/>
<rectangle x1="0.8" y1="-0.7" x2="0.9" y2="0.5" layer="51"/>
<rectangle x1="0.8" y1="0.55" x2="0.9" y2="0.7" layer="51"/>
<rectangle x1="-0.9" y1="-0.7" x2="-0.8" y2="0.5" layer="51"/>
<rectangle x1="-0.9" y1="0.55" x2="-0.8" y2="0.7" layer="51"/>
<rectangle x1="0.45" y1="-0.7" x2="0.6" y2="-0.45" layer="21"/>
</package>
<package name="LD260">
<description>&lt;B&gt;LED&lt;/B&gt;&lt;p&gt;
5 mm, square, Siemens</description>
<wire x1="-1.27" y1="-1.27" x2="1.27" y2="-1.27" width="0.1524" layer="21"/>
<wire x1="1.27" y1="1.27" x2="-1.27" y2="1.27" width="0.1524" layer="21"/>
<wire x1="1.27" y1="-1.27" x2="1.27" y2="-0.889" width="0.1524" layer="21"/>
<wire x1="1.27" y1="1.27" x2="1.27" y2="0.889" width="0.1524" layer="21"/>
<wire x1="1.27" y1="0.889" x2="1.27" y2="-0.889" width="0.1524" layer="51"/>
<wire x1="-1.27" y1="1.27" x2="-1.27" y2="0.889" width="0.1524" layer="21"/>
<wire x1="-1.27" y1="-1.27" x2="-1.27" y2="-0.889" width="0.1524" layer="21"/>
<wire x1="-1.27" y1="-0.889" x2="-1.27" y2="0.889" width="0.1524" layer="51"/>
<wire x1="0" y1="1.27" x2="0.9917" y2="0.7934" width="0.1524" layer="21" curve="-51.33923" cap="flat"/>
<wire x1="-0.9917" y1="0.7934" x2="0" y2="1.27" width="0.1524" layer="21" curve="-51.33923" cap="flat"/>
<wire x1="0" y1="-1.27" x2="0.9917" y2="-0.7934" width="0.1524" layer="21" curve="51.33923" cap="flat"/>
<wire x1="-0.9917" y1="-0.7934" x2="0" y2="-1.27" width="0.1524" layer="21" curve="51.33923" cap="flat"/>
<wire x1="0.9558" y1="-0.8363" x2="1.27" y2="0" width="0.1524" layer="51" curve="41.185419" cap="flat"/>
<wire x1="0.9756" y1="0.813" x2="1.2699" y2="0" width="0.1524" layer="51" curve="-39.806332" cap="flat"/>
<wire x1="-1.27" y1="0" x2="-0.9643" y2="-0.8265" width="0.1524" layer="51" curve="40.600331" cap="flat"/>
<wire x1="-1.27" y1="0" x2="-0.9643" y2="0.8265" width="0.1524" layer="51" curve="-40.600331" cap="flat"/>
<wire x1="-0.889" y1="0" x2="0" y2="0.889" width="0.1524" layer="51" curve="-90" cap="flat"/>
<wire x1="-0.508" y1="0" x2="0" y2="0.508" width="0.1524" layer="51" curve="-90" cap="flat"/>
<wire x1="0" y1="-0.508" x2="0.508" y2="0" width="0.1524" layer="21" curve="90" cap="flat"/>
<wire x1="0" y1="-0.889" x2="0.889" y2="0" width="0.1524" layer="51" curve="90" cap="flat"/>
<pad name="A" x="-1.27" y="0" drill="0.8128" shape="octagon"/>
<pad name="K" x="1.27" y="0" drill="0.8128" shape="octagon"/>
<text x="-1.2954" y="1.4732" size="1.016" layer="25" ratio="14">&gt;NAME</text>
<text x="-1.27" y="-2.4892" size="1.016" layer="27" ratio="14">&gt;VALUE</text>
<rectangle x1="1.27" y1="-0.635" x2="2.032" y2="0.635" layer="51"/>
<rectangle x1="1.905" y1="-0.635" x2="2.032" y2="0.635" layer="21"/>
</package>
<package name="LED2X5">
<description>&lt;B&gt;LED&lt;/B&gt;&lt;p&gt;
2 x 5 mm, rectangle</description>
<wire x1="-2.54" y1="-1.27" x2="2.54" y2="-1.27" width="0.1524" layer="21"/>
<wire x1="2.54" y1="1.27" x2="2.54" y2="-1.27" width="0.1524" layer="21"/>
<wire x1="2.54" y1="1.27" x2="-2.54" y2="1.27" width="0.1524" layer="21"/>
<wire x1="-2.54" y1="-1.27" x2="-2.54" y2="1.27" width="0.1524" layer="21"/>
<wire x1="-1.905" y1="0" x2="0.508" y2="0" width="0.1524" layer="51"/>
<wire x1="-0.508" y1="0.381" x2="-0.508" y2="-0.381" width="0.1524" layer="51"/>
<wire x1="-0.508" y1="0.381" x2="0.508" y2="0" width="0.1524" layer="51"/>
<wire x1="0.508" y1="0" x2="1.778" y2="0" width="0.1524" layer="51"/>
<wire x1="0.508" y1="0" x2="-0.508" y2="-0.381" width="0.1524" layer="51"/>
<wire x1="0.508" y1="0.381" x2="0.508" y2="0" width="0.1524" layer="51"/>
<wire x1="0.508" y1="0" x2="0.508" y2="-0.381" width="0.1524" layer="51"/>
<wire x1="0.889" y1="-0.254" x2="1.143" y2="-0.762" width="0.1524" layer="51"/>
<wire x1="1.143" y1="-0.762" x2="1.143" y2="-0.508" width="0.1524" layer="51"/>
<wire x1="1.143" y1="-0.762" x2="0.9398" y2="-0.6096" width="0.1524" layer="51"/>
<wire x1="0.9398" y1="-0.6096" x2="1.143" y2="-0.508" width="0.1524" layer="51"/>
<wire x1="1.397" y1="-0.254" x2="1.651" y2="-0.762" width="0.1524" layer="51"/>
<wire x1="1.651" y1="-0.762" x2="1.651" y2="-0.508" width="0.1524" layer="51"/>
<wire x1="1.651" y1="-0.762" x2="1.4478" y2="-0.6096" width="0.1524" layer="51"/>
<wire x1="1.4478" y1="-0.6096" x2="1.651" y2="-0.508" width="0.1524" layer="51"/>
<pad name="A" x="-1.27" y="0" drill="0.8128" shape="octagon"/>
<pad name="K" x="1.27" y="0" drill="0.8128" shape="octagon"/>
<text x="-2.54" y="1.397" size="1.016" layer="25" ratio="14">&gt;NAME</text>
<text x="-2.54" y="-2.413" size="1.016" layer="27" ratio="14">&gt;VALUE</text>
<rectangle x1="2.159" y1="-1.27" x2="2.413" y2="1.27" layer="21"/>
</package>
<package name="LED3MM">
<description>&lt;B&gt;LED&lt;/B&gt;&lt;p&gt;
3 mm, round</description>
<wire x1="1.5748" y1="-1.27" x2="1.5748" y2="1.27" width="0.254" layer="51"/>
<wire x1="-1.524" y1="0" x2="-1.1708" y2="0.9756" width="0.1524" layer="51" curve="-39.80361" cap="flat"/>
<wire x1="-1.524" y1="0" x2="-1.1391" y2="-1.0125" width="0.1524" layer="51" curve="41.633208" cap="flat"/>
<wire x1="1.1571" y1="0.9918" x2="1.524" y2="0" width="0.1524" layer="51" curve="-40.601165" cap="flat"/>
<wire x1="1.1708" y1="-0.9756" x2="1.524" y2="0" width="0.1524" layer="51" curve="39.80361" cap="flat"/>
<wire x1="0" y1="1.524" x2="1.2401" y2="0.8858" width="0.1524" layer="21" curve="-54.461337" cap="flat"/>
<wire x1="-1.2192" y1="0.9144" x2="0" y2="1.524" width="0.1524" layer="21" curve="-53.130102" cap="flat"/>
<wire x1="0" y1="-1.524" x2="1.203" y2="-0.9356" width="0.1524" layer="21" curve="52.126876" cap="flat"/>
<wire x1="-1.203" y1="-0.9356" x2="0" y2="-1.524" width="0.1524" layer="21" curve="52.126876" cap="flat"/>
<wire x1="-0.635" y1="0" x2="0" y2="0.635" width="0.1524" layer="51" curve="-90" cap="flat"/>
<wire x1="-1.016" y1="0" x2="0" y2="1.016" width="0.1524" layer="51" curve="-90" cap="flat"/>
<wire x1="0" y1="-0.635" x2="0.635" y2="0" width="0.1524" layer="51" curve="90" cap="flat"/>
<wire x1="0" y1="-1.016" x2="1.016" y2="0" width="0.1524" layer="51" curve="90" cap="flat"/>
<wire x1="0" y1="2.032" x2="1.561" y2="1.3009" width="0.254" layer="21" curve="-50.193108" cap="flat"/>
<wire x1="-1.7929" y1="0.9562" x2="0" y2="2.032" width="0.254" layer="21" curve="-61.926949" cap="flat"/>
<wire x1="0" y1="-2.032" x2="1.5512" y2="-1.3126" width="0.254" layer="21" curve="49.763022" cap="flat"/>
<wire x1="-1.7643" y1="-1.0082" x2="0" y2="-2.032" width="0.254" layer="21" curve="60.255215" cap="flat"/>
<wire x1="-2.032" y1="0" x2="-1.7891" y2="0.9634" width="0.254" layer="51" curve="-28.301701" cap="flat"/>
<wire x1="-2.032" y1="0" x2="-1.7306" y2="-1.065" width="0.254" layer="51" curve="31.60822" cap="flat"/>
<wire x1="-2.5908" y1="1.7272" x2="-1.8542" y2="1.7272" width="0.127" layer="21"/>
<wire x1="-2.2352" y1="1.3208" x2="-2.2352" y2="2.1082" width="0.127" layer="21"/>
<pad name="A" x="-1.27" y="0" drill="0.8128" diameter="1.6764" shape="octagon"/>
<pad name="K" x="1.27" y="0" drill="0.8128" diameter="1.6764" shape="octagon"/>
<text x="1.905" y="0.381" size="1.27" layer="25" ratio="10">&gt;NAME</text>
<text x="1.905" y="-1.651" size="1.27" layer="27" ratio="10">&gt;VALUE</text>
</package>
<package name="LED5MM">
<description>&lt;B&gt;LED&lt;/B&gt;&lt;p&gt;
5 mm, round</description>
<wire x1="2.54" y1="-1.905" x2="2.54" y2="1.905" width="0.2032" layer="21"/>
<wire x1="2.54" y1="-1.905" x2="2.54" y2="1.905" width="0.254" layer="21" curve="-286.260205" cap="flat"/>
<wire x1="-1.143" y1="0" x2="0" y2="1.143" width="0.1524" layer="51" curve="-90" cap="flat"/>
<wire x1="0" y1="-1.143" x2="1.143" y2="0" width="0.1524" layer="51" curve="90" cap="flat"/>
<wire x1="-1.651" y1="0" x2="0" y2="1.651" width="0.1524" layer="51" curve="-90" cap="flat"/>
<wire x1="0" y1="-1.651" x2="1.651" y2="0" width="0.1524" layer="51" curve="90" cap="flat"/>
<wire x1="-2.159" y1="0" x2="0" y2="2.159" width="0.1524" layer="51" curve="-90" cap="flat"/>
<wire x1="0" y1="-2.159" x2="2.159" y2="0" width="0.1524" layer="51" curve="90" cap="flat"/>
<circle x="0" y="0" radius="2.54" width="0.1524" layer="21"/>
<pad name="A" x="-1.27" y="0" drill="0.8128" diameter="1.6764" shape="octagon"/>
<pad name="K" x="1.27" y="0" drill="0.8128" diameter="1.6764" shape="octagon"/>
<text x="3.175" y="0.5334" size="1.27" layer="25" ratio="10">&gt;NAME</text>
<text x="3.2004" y="-1.8034" size="1.27" layer="27" ratio="10">&gt;VALUE</text>
</package>
<package name="LSU260">
<description>&lt;B&gt;LED&lt;/B&gt;&lt;p&gt;
1 mm, round, Siemens</description>
<wire x1="0" y1="-0.508" x2="-1.143" y2="-0.508" width="0.1524" layer="51"/>
<wire x1="-1.143" y1="-0.508" x2="-1.143" y2="-0.254" width="0.1524" layer="51"/>
<wire x1="-1.143" y1="0.508" x2="0" y2="0.508" width="0.1524" layer="51"/>
<wire x1="-1.143" y1="-0.254" x2="-1.397" y2="-0.254" width="0.1524" layer="51"/>
<wire x1="-1.143" y1="-0.254" x2="-1.143" y2="0.254" width="0.1524" layer="51"/>
<wire x1="-1.397" y1="-0.254" x2="-1.397" y2="0.254" width="0.1524" layer="51"/>
<wire x1="-1.397" y1="0.254" x2="-1.143" y2="0.254" width="0.1524" layer="51"/>
<wire x1="-1.143" y1="0.254" x2="-1.143" y2="0.508" width="0.1524" layer="51"/>
<wire x1="0.508" y1="-0.254" x2="1.397" y2="-0.254" width="0.1524" layer="51"/>
<wire x1="1.397" y1="-0.254" x2="1.397" y2="0.254" width="0.1524" layer="51"/>
<wire x1="1.397" y1="0.254" x2="0.508" y2="0.254" width="0.1524" layer="51"/>
<wire x1="0.381" y1="-0.381" x2="0.254" y2="-0.508" width="0.1524" layer="21"/>
<wire x1="0.254" y1="-0.508" x2="-0.254" y2="-0.508" width="0.1524" layer="21"/>
<wire x1="-0.381" y1="-0.381" x2="-0.254" y2="-0.508" width="0.1524" layer="21"/>
<wire x1="0.381" y1="0.381" x2="0.254" y2="0.508" width="0.1524" layer="21"/>
<wire x1="0.254" y1="0.508" x2="-0.254" y2="0.508" width="0.1524" layer="21"/>
<wire x1="-0.381" y1="0.381" x2="-0.254" y2="0.508" width="0.1524" layer="21"/>
<wire x1="0" y1="-0.254" x2="0.254" y2="0" width="0.1524" layer="21" curve="90" cap="flat"/>
<wire x1="-0.254" y1="0" x2="0" y2="0.254" width="0.1524" layer="21" curve="-90" cap="flat"/>
<wire x1="0.381" y1="-0.381" x2="0.381" y2="0.381" width="0.1524" layer="21" curve="90"/>
<circle x="0" y="0" radius="0.508" width="0.1524" layer="51"/>
<pad name="A" x="-1.27" y="0" drill="0.8128" shape="octagon"/>
<pad name="K" x="1.27" y="0" drill="0.8128" shape="octagon"/>
<text x="-1.2954" y="0.8382" size="1.016" layer="25" ratio="14">&gt;NAME</text>
<text x="-1.27" y="-1.8542" size="1.016" layer="27" ratio="14">&gt;VALUE</text>
<rectangle x1="-1.397" y1="-0.254" x2="-1.143" y2="0.254" layer="51"/>
<rectangle x1="0.508" y1="-0.254" x2="1.397" y2="0.254" layer="51"/>
</package>
<package name="LZR181">
<description>&lt;B&gt;LED BLOCK&lt;/B&gt;&lt;p&gt;
1 LED, Siemens</description>
<wire x1="-1.27" y1="-1.27" x2="1.27" y2="-1.27" width="0.1524" layer="21"/>
<wire x1="1.27" y1="-1.27" x2="1.27" y2="-0.889" width="0.1524" layer="21"/>
<wire x1="1.27" y1="1.27" x2="1.27" y2="0.889" width="0.1524" layer="21"/>
<wire x1="1.27" y1="0.889" x2="1.27" y2="-0.889" width="0.1524" layer="51"/>
<wire x1="-1.27" y1="1.27" x2="-1.27" y2="0.889" width="0.1524" layer="21"/>
<wire x1="-1.27" y1="-1.27" x2="-1.27" y2="-0.889" width="0.1524" layer="21"/>
<wire x1="-1.27" y1="-0.889" x2="-1.27" y2="0.889" width="0.1524" layer="51"/>
<wire x1="-0.889" y1="0" x2="0" y2="0.889" width="0.1524" layer="51" curve="-90" cap="flat"/>
<wire x1="-0.508" y1="0" x2="0" y2="0.508" width="0.1524" layer="51" curve="-90" cap="flat"/>
<wire x1="0" y1="-0.508" x2="0.508" y2="0" width="0.1524" layer="21" curve="90" cap="flat"/>
<wire x1="0" y1="-0.889" x2="0.889" y2="0" width="0.1524" layer="51" curve="90" cap="flat"/>
<wire x1="-0.8678" y1="0.7439" x2="0" y2="1.143" width="0.1524" layer="21" curve="-49.396139" cap="flat"/>
<wire x1="0" y1="1.143" x2="0.8678" y2="0.7439" width="0.1524" layer="21" curve="-49.396139" cap="flat"/>
<wire x1="-0.8678" y1="-0.7439" x2="0" y2="-1.143" width="0.1524" layer="21" curve="49.396139" cap="flat"/>
<wire x1="0" y1="-1.143" x2="0.8678" y2="-0.7439" width="0.1524" layer="21" curve="49.396139" cap="flat"/>
<wire x1="0.8678" y1="0.7439" x2="1.143" y2="0" width="0.1524" layer="51" curve="-40.604135" cap="flat"/>
<wire x1="0.8678" y1="-0.7439" x2="1.143" y2="0" width="0.1524" layer="51" curve="40.604135" cap="flat"/>
<wire x1="-1.143" y1="0" x2="-0.8678" y2="0.7439" width="0.1524" layer="51" curve="-40.604135" cap="flat"/>
<wire x1="-1.143" y1="0" x2="-0.8678" y2="-0.7439" width="0.1524" layer="51" curve="40.604135" cap="flat"/>
<wire x1="-1.27" y1="1.27" x2="1.27" y2="1.27" width="0.1524" layer="21"/>
<pad name="A" x="-1.27" y="0" drill="0.8128" shape="octagon"/>
<pad name="K" x="1.27" y="0" drill="0.8128" shape="octagon"/>
<text x="-1.2954" y="1.4732" size="1.016" layer="25" ratio="14">&gt;NAME</text>
<text x="-1.27" y="-2.4892" size="1.016" layer="27" ratio="14">&gt;VALUE</text>
<rectangle x1="1.27" y1="-0.889" x2="1.524" y2="0.254" layer="51"/>
<rectangle x1="-1.524" y1="-0.254" x2="-1.27" y2="0.254" layer="51"/>
</package>
<package name="Q62902-B152">
<description>&lt;b&gt;LED HOLDER&lt;/b&gt;&lt;p&gt;
Siemens</description>
<wire x1="2.9718" y1="-1.8542" x2="-2.1082" y2="-1.8542" width="0.1524" layer="21"/>
<wire x1="-2.1082" y1="1.8542" x2="2.9718" y2="1.8542" width="0.1524" layer="21"/>
<wire x1="-2.9718" y1="-1.8542" x2="-2.9718" y2="1.8542" width="0.1524" layer="21"/>
<wire x1="-2.1082" y1="-1.8542" x2="-2.54" y2="-1.8542" width="0.1524" layer="21"/>
<wire x1="-2.1082" y1="1.8542" x2="-2.54" y2="1.8542" width="0.1524" layer="21"/>
<wire x1="-2.54" y1="-1.8542" x2="-2.54" y2="1.8542" width="0.1524" layer="21"/>
<wire x1="-2.54" y1="-1.8542" x2="-2.9718" y2="-1.8542" width="0.1524" layer="21"/>
<wire x1="-2.54" y1="1.8542" x2="-2.9718" y2="1.8542" width="0.1524" layer="21"/>
<wire x1="-2.9718" y1="0.254" x2="-2.9718" y2="-0.254" width="0.1524" layer="21" curve="180"/>
<wire x1="-1.1486" y1="0.8814" x2="0" y2="1.4478" width="0.1524" layer="21" curve="-52.498642" cap="flat"/>
<wire x1="0" y1="1.4478" x2="1.1476" y2="0.8827" width="0.1524" layer="21" curve="-52.433716" cap="flat"/>
<wire x1="-1.1351" y1="-0.8987" x2="0" y2="-1.4478" width="0.1524" layer="21" curve="51.629985" cap="flat"/>
<wire x1="0" y1="-1.4478" x2="1.1305" y2="-0.9044" width="0.1524" layer="21" curve="51.339172" cap="flat"/>
<wire x1="1.1281" y1="-0.9074" x2="1.4478" y2="0" width="0.1524" layer="51" curve="38.811177" cap="flat"/>
<wire x1="1.1401" y1="0.8923" x2="1.4478" y2="0" width="0.1524" layer="51" curve="-38.048073" cap="flat"/>
<wire x1="-1.4478" y1="0" x2="-1.1305" y2="-0.9044" width="0.1524" layer="51" curve="38.659064" cap="flat"/>
<wire x1="-1.4478" y1="0" x2="-1.1456" y2="0.8853" width="0.1524" layer="51" curve="-37.696376" cap="flat"/>
<wire x1="0" y1="1.7018" x2="1.4674" y2="0.8618" width="0.1524" layer="21" curve="-59.573488" cap="flat"/>
<wire x1="-1.4618" y1="0.8714" x2="0" y2="1.7018" width="0.1524" layer="21" curve="-59.200638" cap="flat"/>
<wire x1="0" y1="-1.7018" x2="1.4571" y2="-0.8793" width="0.1524" layer="21" curve="58.891781" cap="flat"/>
<wire x1="-1.4571" y1="-0.8793" x2="0" y2="-1.7018" width="0.1524" layer="21" curve="58.891781" cap="flat"/>
<wire x1="-1.7018" y1="0" x2="-1.4447" y2="0.8995" width="0.1524" layer="51" curve="-31.907626" cap="flat"/>
<wire x1="-1.7018" y1="0" x2="-1.4502" y2="-0.8905" width="0.1524" layer="51" curve="31.551992" cap="flat"/>
<wire x1="1.4521" y1="0.8874" x2="1.7018" y2="0" width="0.1524" layer="51" curve="-31.429586" cap="flat"/>
<wire x1="1.4459" y1="-0.8975" x2="1.7018" y2="0" width="0.1524" layer="51" curve="31.828757" cap="flat"/>
<wire x1="-2.1082" y1="1.8542" x2="-2.1082" y2="0.4826" width="0.1524" layer="21"/>
<wire x1="-2.1082" y1="0.4826" x2="-2.1082" y2="-0.4826" width="0.1524" layer="21"/>
<wire x1="-2.1082" y1="-0.4826" x2="-2.1082" y2="-1.8542" width="0.1524" layer="21"/>
<wire x1="-0.635" y1="0" x2="0" y2="0.635" width="0.1524" layer="21" curve="-90" cap="flat"/>
<wire x1="-1.016" y1="0" x2="0" y2="1.016" width="0.1524" layer="51" curve="-90" cap="flat"/>
<wire x1="0" y1="-0.635" x2="0.635" y2="0" width="0.1524" layer="51" curve="90" cap="flat"/>
<wire x1="0" y1="-1.016" x2="1.016" y2="0" width="0.1524" layer="51" curve="90" cap="flat"/>
<wire x1="2.9718" y1="1.8542" x2="2.9718" y2="0.4826" width="0.1524" layer="21"/>
<wire x1="2.9718" y1="0.4826" x2="2.9718" y2="-0.4826" width="0.1524" layer="21"/>
<wire x1="2.9718" y1="-0.4826" x2="2.9718" y2="-1.8542" width="0.1524" layer="21"/>
<pad name="K" x="-1.27" y="0" drill="0.8128" shape="long" rot="R90"/>
<pad name="A" x="1.27" y="0" drill="0.8128" shape="long" rot="R90"/>
<text x="-1.905" y="2.286" size="1.27" layer="25" ratio="10">&gt;NAME</text>
<text x="-1.905" y="-3.556" size="1.27" layer="27" ratio="10">&gt;VALUE</text>
</package>
<package name="Q62902-B153">
<description>&lt;b&gt;LED HOLDER&lt;/b&gt;&lt;p&gt;
Siemens</description>
<wire x1="5.5118" y1="-3.5052" x2="-4.6482" y2="-3.5052" width="0.1524" layer="21"/>
<wire x1="-4.6482" y1="3.5052" x2="5.5118" y2="3.5052" width="0.1524" layer="21"/>
<wire x1="-5.5118" y1="-3.5052" x2="-5.5118" y2="3.5052" width="0.1524" layer="21"/>
<wire x1="-4.6482" y1="-3.5052" x2="-5.08" y2="-3.5052" width="0.1524" layer="21"/>
<wire x1="-4.6482" y1="3.5052" x2="-5.08" y2="3.5052" width="0.1524" layer="21"/>
<wire x1="-5.08" y1="-3.5052" x2="-5.08" y2="3.5052" width="0.1524" layer="21"/>
<wire x1="-5.08" y1="-3.5052" x2="-5.5118" y2="-3.5052" width="0.1524" layer="21"/>
<wire x1="-5.08" y1="3.5052" x2="-5.5118" y2="3.5052" width="0.1524" layer="21"/>
<wire x1="-5.5118" y1="0.254" x2="-5.5118" y2="-0.254" width="0.1524" layer="21" curve="180"/>
<wire x1="-4.6482" y1="3.5052" x2="-4.6482" y2="-3.5052" width="0.1524" layer="21"/>
<wire x1="5.5118" y1="3.5052" x2="5.5118" y2="-3.5052" width="0.1524" layer="21"/>
<wire x1="-2.54" y1="1.905" x2="-2.54" y2="-1.905" width="0.254" layer="21"/>
<wire x1="0" y1="-1.143" x2="1.143" y2="0" width="0.1524" layer="51" curve="90" cap="flat"/>
<wire x1="-1.143" y1="0" x2="0" y2="1.143" width="0.1524" layer="51" curve="-90" cap="flat"/>
<wire x1="0" y1="-1.651" x2="1.651" y2="0" width="0.1524" layer="51" curve="90" cap="flat"/>
<wire x1="-1.651" y1="0" x2="0" y2="1.651" width="0.1524" layer="51" curve="-90" cap="flat"/>
<wire x1="0" y1="-2.159" x2="2.159" y2="0" width="0.1524" layer="51" curve="90" cap="flat"/>
<wire x1="-2.159" y1="0" x2="0" y2="2.159" width="0.1524" layer="51" curve="-90" cap="flat"/>
<circle x="0" y="0" radius="2.54" width="0.1524" layer="21"/>
<circle x="0" y="0" radius="3.175" width="0.254" layer="21"/>
<pad name="A" x="1.27" y="0" drill="0.8128" shape="long" rot="R90"/>
<pad name="K" x="-1.27" y="0" drill="0.8128" shape="long" rot="R90"/>
<text x="-4.191" y="3.937" size="1.27" layer="25" ratio="10">&gt;NAME</text>
<text x="-4.318" y="-5.08" size="1.27" layer="27" ratio="10">&gt;VALUE</text>
</package>
<package name="Q62902-B155">
<description>&lt;b&gt;LED HOLDER&lt;/b&gt;&lt;p&gt;
Siemens</description>
<wire x1="-1.27" y1="-3.048" x2="-1.27" y2="-2.54" width="0.1524" layer="21"/>
<wire x1="10.033" y1="3.048" x2="2.921" y2="3.048" width="0.1524" layer="21"/>
<wire x1="10.033" y1="3.048" x2="10.033" y2="-3.048" width="0.1524" layer="21"/>
<wire x1="-1.27" y1="-3.048" x2="2.921" y2="-3.048" width="0.1524" layer="21"/>
<wire x1="2.921" y1="-3.048" x2="2.921" y2="3.048" width="0.1524" layer="21"/>
<wire x1="2.921" y1="-3.048" x2="10.033" y2="-3.048" width="0.1524" layer="21"/>
<wire x1="2.921" y1="3.048" x2="-1.27" y2="3.048" width="0.1524" layer="21"/>
<wire x1="-1.27" y1="2.54" x2="-5.207" y2="2.54" width="0.1524" layer="21"/>
<wire x1="-1.27" y1="2.54" x2="-1.27" y2="3.048" width="0.1524" layer="21"/>
<wire x1="-5.207" y1="-2.54" x2="-1.27" y2="-2.54" width="0.1524" layer="21"/>
<wire x1="-1.27" y1="-2.54" x2="-1.27" y2="2.54" width="0.1524" layer="21"/>
<wire x1="-5.207" y1="2.54" x2="-5.207" y2="-2.54" width="0.1524" layer="21" curve="180"/>
<wire x1="-6.985" y1="0.635" x2="-6.985" y2="-0.635" width="0.1524" layer="21"/>
<wire x1="-6.096" y1="1.397" x2="-6.096" y2="-1.397" width="0.1524" layer="21"/>
<wire x1="-5.207" y1="1.905" x2="-5.207" y2="-1.905" width="0.1524" layer="21"/>
<pad name="K" x="7.62" y="1.27" drill="0.8128" shape="long"/>
<pad name="A" x="7.62" y="-1.27" drill="0.8128" shape="long"/>
<text x="3.302" y="-2.794" size="1.016" layer="21" ratio="14">A+</text>
<text x="3.302" y="1.778" size="1.016" layer="21" ratio="14">K-</text>
<text x="11.684" y="-2.794" size="1.27" layer="25" ratio="10" rot="R90">&gt;NAME</text>
<text x="0.635" y="-4.445" size="1.27" layer="27" ratio="10">&gt;VALUE</text>
<rectangle x1="2.921" y1="1.016" x2="6.731" y2="1.524" layer="21"/>
<rectangle x1="2.921" y1="-1.524" x2="6.731" y2="-1.016" layer="21"/>
<hole x="0" y="0" drill="0.8128"/>
</package>
<package name="Q62902-B156">
<description>&lt;b&gt;LED HOLDER&lt;/b&gt;&lt;p&gt;
Siemens</description>
<wire x1="2.54" y1="-1.905" x2="2.54" y2="1.905" width="0.1524" layer="21"/>
<wire x1="-1.143" y1="0" x2="0" y2="1.143" width="0.1524" layer="51" curve="-90" cap="flat"/>
<wire x1="0" y1="-1.143" x2="1.143" y2="0" width="0.1524" layer="51" curve="90" cap="flat"/>
<wire x1="-1.651" y1="0" x2="0" y2="1.651" width="0.1524" layer="51" curve="-90" cap="flat"/>
<wire x1="0" y1="-1.651" x2="1.651" y2="0" width="0.1524" layer="51" curve="90" cap="flat"/>
<wire x1="-2.159" y1="0" x2="0" y2="2.159" width="0.1524" layer="51" curve="-90" cap="flat"/>
<wire x1="0" y1="-2.159" x2="2.159" y2="0" width="0.1524" layer="51" curve="90" cap="flat"/>
<wire x1="2.54" y1="3.81" x2="3.81" y2="2.54" width="0.1524" layer="21"/>
<wire x1="2.54" y1="3.81" x2="-3.81" y2="3.81" width="0.1524" layer="21"/>
<wire x1="-3.81" y1="-3.81" x2="-3.81" y2="3.81" width="0.1524" layer="21"/>
<wire x1="3.81" y1="2.54" x2="3.81" y2="-3.81" width="0.1524" layer="21"/>
<wire x1="-3.81" y1="-3.81" x2="-2.54" y2="-3.81" width="0.1524" layer="21"/>
<wire x1="-2.54" y1="-3.302" x2="-2.54" y2="-3.81" width="0.1524" layer="21"/>
<wire x1="3.81" y1="-3.81" x2="2.54" y2="-3.81" width="0.1524" layer="21"/>
<wire x1="2.54" y1="-3.302" x2="2.54" y2="-3.81" width="0.1524" layer="21"/>
<wire x1="2.54" y1="-3.302" x2="-2.54" y2="-3.302" width="0.1524" layer="21"/>
<circle x="0" y="0" radius="2.54" width="0.1524" layer="21"/>
<circle x="0" y="0" radius="3.175" width="0.254" layer="21"/>
<pad name="A" x="-1.27" y="0" drill="1.016" shape="long" rot="R90"/>
<pad name="K" x="1.27" y="0" drill="1.016" shape="long" rot="R90"/>
<text x="-3.81" y="4.0894" size="1.27" layer="25" ratio="10">&gt;NAME</text>
<text x="-3.7846" y="-5.3594" size="1.27" layer="27" ratio="10">&gt;VALUE</text>
<text x="-3.556" y="-3.302" size="1.016" layer="21" ratio="14">+</text>
<text x="2.794" y="-3.302" size="1.016" layer="21" ratio="14">-</text>
</package>
<package name="SFH480">
<description>&lt;B&gt;IR LED&lt;/B&gt;&lt;p&gt;
infrared emitting diode, Infineon
TO-18, lead spacing 2.54 mm, cathode marking&lt;p&gt;
Inifineon</description>
<wire x1="-2.159" y1="1.524" x2="-2.794" y2="2.159" width="0.1524" layer="21"/>
<wire x1="-2.794" y1="2.159" x2="-2.159" y2="2.794" width="0.1524" layer="21"/>
<wire x1="-1.524" y1="2.159" x2="-2.159" y2="2.794" width="0.1524" layer="21"/>
<wire x1="0" y1="1.778" x2="1.5358" y2="0.8959" width="0.1524" layer="21" curve="-59.743278" cap="flat"/>
<wire x1="-1.5358" y1="0.8959" x2="0" y2="1.778" width="0.1524" layer="21" curve="-59.743278" cap="flat"/>
<wire x1="-1.5358" y1="-0.8959" x2="0" y2="-1.778" width="0.1524" layer="21" curve="59.743278" cap="flat"/>
<wire x1="0" y1="-1.778" x2="1.5358" y2="-0.8959" width="0.1524" layer="21" curve="59.743278" cap="flat"/>
<wire x1="1.5142" y1="0.9318" x2="1.778" y2="0" width="0.1524" layer="51" curve="-31.606487" cap="flat"/>
<wire x1="1.5" y1="-0.9546" x2="1.778" y2="0" width="0.1524" layer="51" curve="32.472615" cap="flat"/>
<wire x1="-1.778" y1="0" x2="-1.5142" y2="-0.9318" width="0.1524" layer="51" curve="31.606487" cap="flat"/>
<wire x1="-1.778" y1="0" x2="-1.5" y2="0.9546" width="0.1524" layer="51" curve="-32.472615" cap="flat"/>
<wire x1="-0.635" y1="0" x2="0" y2="0.635" width="0.1524" layer="51" curve="-90" cap="flat"/>
<wire x1="-1.016" y1="0" x2="0" y2="1.016" width="0.1524" layer="51" curve="-90" cap="flat"/>
<wire x1="0" y1="-0.635" x2="0.635" y2="0" width="0.1524" layer="51" curve="90" cap="flat"/>
<wire x1="0" y1="-1.016" x2="1.016" y2="0" width="0.1524" layer="51" curve="90" cap="flat"/>
<circle x="0" y="0" radius="2.667" width="0.1524" layer="21"/>
<circle x="0" y="0" radius="2.413" width="0.254" layer="21"/>
<pad name="K" x="-1.27" y="0" drill="0.8128" shape="long" rot="R90"/>
<pad name="A" x="1.27" y="0" drill="0.8128" shape="long" rot="R90"/>
<text x="-1.27" y="3.048" size="1.27" layer="25" ratio="10">&gt;NAME</text>
<text x="-1.27" y="-4.318" size="1.27" layer="27" ratio="10">&gt;VALUE</text>
</package>
<package name="SFH482">
<description>&lt;B&gt;IR LED&lt;/B&gt;&lt;p&gt;
infrared emitting diode, Infineon
TO-18, lead spacing 2.54 mm, cathode marking&lt;p&gt;
Inifineon</description>
<wire x1="-2.159" y1="1.524" x2="-2.794" y2="2.159" width="0.1524" layer="21"/>
<wire x1="-2.794" y1="2.159" x2="-2.159" y2="2.794" width="0.1524" layer="21"/>
<wire x1="-1.524" y1="2.159" x2="-2.159" y2="2.794" width="0.1524" layer="21"/>
<wire x1="0" y1="1.778" x2="1.5358" y2="0.8959" width="0.1524" layer="21" curve="-59.743278" cap="flat"/>
<wire x1="-1.5358" y1="0.8959" x2="0" y2="1.778" width="0.1524" layer="21" curve="-59.743278" cap="flat"/>
<wire x1="-1.5358" y1="-0.8959" x2="0" y2="-1.778" width="0.1524" layer="21" curve="59.743278" cap="flat"/>
<wire x1="0" y1="-1.778" x2="1.5358" y2="-0.8959" width="0.1524" layer="21" curve="59.743278" cap="flat"/>
<wire x1="1.5142" y1="0.9318" x2="1.778" y2="0" width="0.1524" layer="51" curve="-31.606487" cap="flat"/>
<wire x1="1.5" y1="-0.9546" x2="1.778" y2="0" width="0.1524" layer="51" curve="32.472615" cap="flat"/>
<wire x1="-1.778" y1="0" x2="-1.5142" y2="-0.9318" width="0.1524" layer="51" curve="31.606487" cap="flat"/>
<wire x1="-1.778" y1="0" x2="-1.5" y2="0.9546" width="0.1524" layer="51" curve="-32.472615" cap="flat"/>
<wire x1="-0.635" y1="0" x2="0" y2="0.635" width="0.1524" layer="51" curve="-90" cap="flat"/>
<wire x1="-1.016" y1="0" x2="0" y2="1.016" width="0.1524" layer="51" curve="-90" cap="flat"/>
<wire x1="0" y1="-0.635" x2="0.635" y2="0" width="0.1524" layer="51" curve="90" cap="flat"/>
<wire x1="0" y1="-1.016" x2="1.016" y2="0" width="0.1524" layer="51" curve="90" cap="flat"/>
<circle x="0" y="0" radius="2.667" width="0.1524" layer="21"/>
<circle x="0" y="0" radius="2.413" width="0.254" layer="21"/>
<pad name="K" x="1.27" y="0" drill="0.8128" shape="long" rot="R90"/>
<pad name="A" x="-1.27" y="0" drill="0.8128" shape="long" rot="R90"/>
<text x="-1.27" y="3.048" size="1.27" layer="25" ratio="10">&gt;NAME</text>
<text x="-1.27" y="-4.318" size="1.27" layer="27" ratio="10">&gt;VALUE</text>
</package>
<package name="U57X32">
<description>&lt;B&gt;LED&lt;/B&gt;&lt;p&gt;
rectangle, 5.7 x 3.2 mm</description>
<wire x1="-3.175" y1="1.905" x2="3.175" y2="1.905" width="0.1524" layer="21"/>
<wire x1="3.175" y1="-1.905" x2="3.175" y2="1.905" width="0.1524" layer="21"/>
<wire x1="3.175" y1="-1.905" x2="-3.175" y2="-1.905" width="0.1524" layer="21"/>
<wire x1="-3.175" y1="1.905" x2="-3.175" y2="-1.905" width="0.1524" layer="21"/>
<wire x1="-2.667" y1="1.397" x2="2.667" y2="1.397" width="0.1524" layer="21"/>
<wire x1="2.667" y1="-1.397" x2="2.667" y2="1.397" width="0.1524" layer="21"/>
<wire x1="2.667" y1="-1.397" x2="-2.667" y2="-1.397" width="0.1524" layer="21"/>
<wire x1="-2.667" y1="1.397" x2="-2.667" y2="-1.397" width="0.1524" layer="21"/>
<wire x1="-2.54" y1="1.016" x2="2.54" y2="1.016" width="0.1524" layer="51"/>
<wire x1="2.286" y1="1.27" x2="2.286" y2="-1.27" width="0.1524" layer="51"/>
<wire x1="-2.54" y1="0.508" x2="2.54" y2="0.508" width="0.1524" layer="51"/>
<wire x1="-2.54" y1="0" x2="2.54" y2="0" width="0.1524" layer="51"/>
<wire x1="-2.54" y1="-0.508" x2="2.54" y2="-0.508" width="0.1524" layer="51"/>
<wire x1="-2.54" y1="-1.016" x2="2.54" y2="-1.016" width="0.1524" layer="51"/>
<wire x1="-2.286" y1="1.27" x2="-2.286" y2="-1.27" width="0.1524" layer="51"/>
<wire x1="-1.778" y1="1.27" x2="-1.778" y2="-1.27" width="0.1524" layer="51"/>
<wire x1="-1.27" y1="1.27" x2="-1.27" y2="-1.27" width="0.1524" layer="51"/>
<wire x1="-0.762" y1="1.27" x2="-0.762" y2="-1.27" width="0.1524" layer="51"/>
<wire x1="-0.254" y1="1.27" x2="-0.254" y2="-1.27" width="0.1524" layer="51"/>
<wire x1="0.254" y1="1.27" x2="0.254" y2="-1.27" width="0.1524" layer="51"/>
<wire x1="0.762" y1="1.27" x2="0.762" y2="-1.27" width="0.1524" layer="51"/>
<wire x1="1.27" y1="1.27" x2="1.27" y2="-1.27" width="0.1524" layer="51"/>
<wire x1="1.778" y1="1.27" x2="1.778" y2="-1.27" width="0.1524" layer="51"/>
<pad name="A" x="-1.27" y="0" drill="0.8128" shape="long" rot="R90"/>
<pad name="K" x="1.27" y="0" drill="0.8128" shape="long" rot="R90"/>
<text x="3.683" y="0.254" size="1.27" layer="25" ratio="10">&gt;NAME</text>
<text x="3.683" y="-1.524" size="1.27" layer="27" ratio="10">&gt;VALUE</text>
</package>
<package name="IRL80A">
<description>&lt;B&gt;IR LED&lt;/B&gt;&lt;p&gt;
IR transmitter Siemens</description>
<wire x1="0.889" y1="2.286" x2="0.889" y2="1.778" width="0.1524" layer="21"/>
<wire x1="0.889" y1="1.778" x2="0.889" y2="0.762" width="0.1524" layer="51"/>
<wire x1="0.889" y1="0.762" x2="0.889" y2="-0.635" width="0.1524" layer="21"/>
<wire x1="0.889" y1="-0.635" x2="0.889" y2="-1.778" width="0.1524" layer="51"/>
<wire x1="0.889" y1="-1.778" x2="0.889" y2="-2.286" width="0.1524" layer="21"/>
<wire x1="0.889" y1="-2.286" x2="-0.889" y2="-2.286" width="0.1524" layer="21"/>
<wire x1="-0.889" y1="2.286" x2="-0.889" y2="1.778" width="0.1524" layer="21"/>
<wire x1="-0.889" y1="1.778" x2="-0.889" y2="0.762" width="0.1524" layer="51"/>
<wire x1="-0.889" y1="0.762" x2="-0.889" y2="-0.762" width="0.1524" layer="21"/>
<wire x1="-0.889" y1="-0.762" x2="-0.889" y2="-1.778" width="0.1524" layer="51"/>
<wire x1="-0.889" y1="-1.778" x2="-0.889" y2="-2.286" width="0.1524" layer="21"/>
<wire x1="-0.889" y1="2.286" x2="0.889" y2="2.286" width="0.1524" layer="21"/>
<wire x1="-0.889" y1="-0.762" x2="-0.889" y2="0.762" width="0.1524" layer="21" curve="-180"/>
<wire x1="-1.397" y1="0.254" x2="-1.397" y2="-0.254" width="0.0508" layer="21"/>
<wire x1="-1.143" y1="0.508" x2="-1.143" y2="-0.508" width="0.0508" layer="21"/>
<pad name="K" x="0" y="1.27" drill="0.8128" shape="octagon"/>
<pad name="A" x="0" y="-1.27" drill="0.8128" shape="octagon"/>
<text x="1.27" y="0.381" size="1.27" layer="25" ratio="10">&gt;NAME</text>
<text x="1.27" y="-1.651" size="1.27" layer="27" ratio="10">&gt;VALUE</text>
</package>
<package name="P-LCC-2">
<description>&lt;b&gt;TOPLED® High-optical Power LED (HOP)&lt;/b&gt;&lt;p&gt;
Source: http://www.osram.convergy.de/ ... ls_t675.pdf</description>
<wire x1="-1.4" y1="1.6" x2="-1.4" y2="-0.65" width="0.2032" layer="51"/>
<wire x1="-1.4" y1="-1.05" x2="-1.4" y2="-1.6" width="0.2032" layer="51"/>
<wire x1="-1.4" y1="-1.6" x2="-1.1" y2="-1.6" width="0.2032" layer="51"/>
<wire x1="-1.1" y1="-1.6" x2="-0.85" y2="-1.6" width="0.2032" layer="51"/>
<wire x1="-0.85" y1="-1.6" x2="1.1" y2="-1.6" width="0.2032" layer="51"/>
<wire x1="1.1" y1="-1.6" x2="1.4" y2="-1.6" width="0.2032" layer="51"/>
<wire x1="1.4" y1="-1.6" x2="1.4" y2="1.6" width="0.2032" layer="51"/>
<wire x1="1.4" y1="1.6" x2="-1.4" y2="1.6" width="0.2032" layer="51"/>
<wire x1="-1.1" y1="1.6" x2="-1.1" y2="1.8" width="0.1016" layer="51"/>
<wire x1="-1.1" y1="1.8" x2="1.1" y2="1.8" width="0.1016" layer="51"/>
<wire x1="1.1" y1="1.8" x2="1.1" y2="1.6" width="0.1016" layer="51"/>
<wire x1="-1.1" y1="-1.6" x2="-1.1" y2="-1.8" width="0.1016" layer="51"/>
<wire x1="-1.1" y1="-1.8" x2="1.1" y2="-1.8" width="0.1016" layer="51"/>
<wire x1="1.1" y1="-1.8" x2="1.1" y2="-1.6" width="0.1016" layer="51"/>
<wire x1="-0.85" y1="-1.6" x2="-1.4" y2="-1.05" width="0.2032" layer="51"/>
<wire x1="-1.4" y1="-1.05" x2="-1.4" y2="-0.65" width="0.2032" layer="51"/>
<circle x="0" y="0" radius="1.1" width="0.2032" layer="51"/>
<smd name="C" x="0" y="-2.75" dx="4" dy="4" layer="1" stop="no" cream="no"/>
<smd name="A" x="0" y="2.75" dx="4" dy="4" layer="1" stop="no" cream="no"/>
<text x="-2.54" y="-1.905" size="1.27" layer="25" rot="R90">&gt;NAME</text>
<text x="3.81" y="-1.905" size="1.27" layer="27" rot="R90">&gt;VALUE</text>
<text x="-0.635" y="2.54" size="1.27" layer="21">A</text>
<text x="-0.635" y="-3.81" size="1.27" layer="21">C</text>
<rectangle x1="-1.3" y1="-2.25" x2="1.3" y2="-0.75" layer="31"/>
<rectangle x1="-1.3" y1="0.75" x2="1.3" y2="2.25" layer="31"/>
<rectangle x1="-0.25" y1="-0.25" x2="0.25" y2="0.25" layer="21"/>
<rectangle x1="-1.4" y1="0.65" x2="1.4" y2="2.35" layer="29"/>
<rectangle x1="-1.4" y1="-2.35" x2="1.4" y2="-0.65" layer="29"/>
</package>
<package name="OSRAM-MINI-TOP-LED">
<description>&lt;b&gt;BLUE LINETM Hyper Mini TOPLED® Hyper-Bright LED&lt;/b&gt;&lt;p&gt;
Source: http://www.osram.convergy.de/ ... LB M676.pdf</description>
<wire x1="-0.6" y1="0.9" x2="-0.6" y2="-0.7" width="0.1016" layer="51"/>
<wire x1="-0.45" y1="-0.9" x2="-0.4" y2="-0.9" width="0.1016" layer="51"/>
<wire x1="-0.4" y1="-0.9" x2="0.6" y2="-0.9" width="0.1016" layer="51"/>
<wire x1="0.6" y1="-0.9" x2="0.6" y2="0.9" width="0.1016" layer="51"/>
<wire x1="0.6" y1="0.9" x2="-0.6" y2="0.9" width="0.1016" layer="51"/>
<wire x1="-0.45" y1="0.95" x2="-0.45" y2="1.1" width="0.1016" layer="51"/>
<wire x1="-0.45" y1="1.1" x2="0.45" y2="1.1" width="0.1016" layer="51"/>
<wire x1="0.45" y1="1.1" x2="0.45" y2="0.95" width="0.1016" layer="51"/>
<wire x1="-0.6" y1="-0.7" x2="-0.4" y2="-0.9" width="0.1016" layer="51"/>
<wire x1="-0.45" y1="-0.9" x2="-0.45" y2="-1.1" width="0.1016" layer="51"/>
<wire x1="-0.45" y1="-1.1" x2="0.45" y2="-1.1" width="0.1016" layer="51"/>
<wire x1="0.45" y1="-1.1" x2="0.45" y2="-0.95" width="0.1016" layer="51"/>
<smd name="A" x="0" y="2.6" dx="4" dy="4" layer="1" stop="no" cream="no"/>
<smd name="C" x="0" y="-2.6" dx="4" dy="4" layer="1" stop="no" cream="no"/>
<text x="-0.635" y="1.905" size="1.27" layer="21">A</text>
<text x="-0.635" y="-3.175" size="1.27" layer="21">C</text>
<text x="-2.54" y="-1.905" size="1.27" layer="25" rot="R90">&gt;NAME</text>
<text x="3.81" y="-1.905" size="1.27" layer="27" rot="R90">&gt;VALUE</text>
<rectangle x1="-0.5" y1="0.6" x2="0.5" y2="1.4" layer="31"/>
<rectangle x1="-0.5" y1="-1.4" x2="0.5" y2="-0.6" layer="31"/>
<rectangle x1="-0.15" y1="-0.6" x2="0.15" y2="-0.3" layer="51"/>
<rectangle x1="-0.45" y1="0.65" x2="0.45" y2="1.35" layer="31"/>
<rectangle x1="-0.45" y1="-1.35" x2="0.45" y2="-0.65" layer="31"/>
</package>
<package name="OSRAM-SIDELED">
<description>&lt;b&gt;Super SIDELED® High-Current LED&lt;/b&gt;&lt;p&gt;
LG A672, LP A672 &lt;br&gt;
Source: http://www.osram.convergy.de/ ... LG_LP_A672.pdf (2004.05.13)</description>
<wire x1="-1.85" y1="-2.05" x2="-1.85" y2="-0.75" width="0.1016" layer="51"/>
<wire x1="-1.85" y1="-0.75" x2="-1.7" y2="-0.75" width="0.1016" layer="51"/>
<wire x1="-1.7" y1="-0.75" x2="-1.7" y2="0.75" width="0.1016" layer="51"/>
<wire x1="-1.7" y1="0.75" x2="-1.85" y2="0.75" width="0.1016" layer="51"/>
<wire x1="-1.85" y1="0.75" x2="-1.85" y2="2.05" width="0.1016" layer="51"/>
<wire x1="-1.85" y1="2.05" x2="0.9" y2="2.05" width="0.1016" layer="51"/>
<wire x1="0.9" y1="2.05" x2="0.9" y2="-2.05" width="0.1016" layer="51"/>
<wire x1="0.9" y1="-2.05" x2="-1.85" y2="-2.05" width="0.1016" layer="51"/>
<wire x1="0.9" y1="-2.05" x2="1.05" y2="-2.05" width="0.1016" layer="51"/>
<wire x1="1.05" y1="-2.05" x2="1.85" y2="-1.85" width="0.1016" layer="51"/>
<wire x1="1.85" y1="-1.85" x2="1.85" y2="1.85" width="0.1016" layer="51"/>
<wire x1="1.85" y1="1.85" x2="1.05" y2="2.05" width="0.1016" layer="51"/>
<wire x1="1.05" y1="2.05" x2="0.9" y2="2.05" width="0.1016" layer="51"/>
<wire x1="1.05" y1="2.05" x2="1.05" y2="-2.05" width="0.1016" layer="51"/>
<wire x1="-0.55" y1="-0.9" x2="-0.55" y2="0.9" width="0.1016" layer="51" curve="-167.319617"/>
<wire x1="-0.55" y1="-0.9" x2="0.85" y2="-1.2" width="0.1016" layer="51" style="shortdash"/>
<wire x1="-0.55" y1="0.9" x2="0.85" y2="1.2" width="0.1016" layer="51" style="shortdash"/>
<smd name="C" x="0" y="-2.5" dx="4" dy="4" layer="1" stop="no" cream="no"/>
<smd name="A" x="0" y="2.5" dx="4" dy="4" layer="1" stop="no" cream="no"/>
<text x="0.635" y="-3.175" size="1.27" layer="21" rot="R90">C</text>
<text x="0.635" y="2.54" size="1.27" layer="21" rot="R90">A</text>
<text x="-2.54" y="-2.54" size="1.27" layer="25" rot="R90">&gt;NAME</text>
<text x="3.81" y="-2.54" size="1.27" layer="27" rot="R90">&gt;VALUE</text>
<rectangle x1="-2.1" y1="-2.2" x2="2.1" y2="-0.4" layer="29"/>
<rectangle x1="-2.1" y1="0.4" x2="2.1" y2="2.2" layer="29"/>
<rectangle x1="-1.9" y1="-2.1" x2="1.9" y2="-0.6" layer="31"/>
<rectangle x1="-1.9" y1="0.6" x2="1.9" y2="2.1" layer="31"/>
<rectangle x1="-1.85" y1="-2.05" x2="-0.7" y2="-1" layer="51"/>
</package>
<package name="SMART-LED">
<description>&lt;b&gt;SmartLEDTM Hyper-Bright LED&lt;/b&gt;&lt;p&gt;
Source: http://www.osram.convergy.de/ ... LA_LO_LS_LY L896.pdf</description>
<wire x1="-0.35" y1="0.6" x2="0.35" y2="0.6" width="0.1016" layer="51" style="shortdash"/>
<wire x1="0.35" y1="0.6" x2="0.35" y2="-0.6" width="0.1016" layer="21" style="shortdash"/>
<wire x1="0.35" y1="-0.6" x2="-0.35" y2="-0.6" width="0.1016" layer="51" style="shortdash"/>
<wire x1="-0.35" y1="-0.6" x2="-0.35" y2="0.6" width="0.1016" layer="21" style="shortdash"/>
<wire x1="0.35" y1="-0.4" x2="0.15" y2="-0.6" width="0.1016" layer="51" style="shortdash"/>
<smd name="A" x="0" y="0.725" dx="0.35" dy="0.35" layer="1"/>
<smd name="B" x="0" y="-0.725" dx="0.35" dy="0.35" layer="1"/>
<text x="-0.635" y="-0.635" size="1.016" layer="25" rot="R90">&gt;NAME</text>
<text x="1.905" y="-0.635" size="1.016" layer="27" rot="R90">&gt;VALUE</text>
<rectangle x1="-0.15" y1="-0.35" x2="0.15" y2="-0.05" layer="21"/>
<rectangle x1="-0.15" y1="0.6" x2="0.15" y2="0.85" layer="51"/>
<rectangle x1="-0.15" y1="-0.85" x2="0.15" y2="-0.6" layer="51"/>
</package>
<package name="P-LCC-2-TOPLED-RG">
<description>&lt;b&gt;Hyper TOPLED® RG Hyper-Bright LED&lt;/b&gt;&lt;p&gt;
Source: http://www.osram.convergy.de/ ... LA_LO_LS_LY T776.pdf</description>
<wire x1="-1.4" y1="-1.05" x2="-1.4" y2="-1.6" width="0.2032" layer="51"/>
<wire x1="-1.4" y1="-1.6" x2="-1.1" y2="-1.6" width="0.2032" layer="51"/>
<wire x1="-1.1" y1="-1.6" x2="-0.85" y2="-1.6" width="0.2032" layer="51"/>
<wire x1="-0.85" y1="-1.6" x2="1.1" y2="-1.6" width="0.2032" layer="51"/>
<wire x1="1.1" y1="-1.6" x2="1.4" y2="-1.6" width="0.2032" layer="51"/>
<wire x1="1.4" y1="-1.6" x2="1.4" y2="1.6" width="0.2032" layer="51"/>
<wire x1="1.4" y1="1.6" x2="-1.4" y2="1.6" width="0.2032" layer="51"/>
<wire x1="-1.1" y1="1.6" x2="-1.1" y2="2.45" width="0.1016" layer="51"/>
<wire x1="1.1" y1="2.45" x2="1.1" y2="1.6" width="0.1016" layer="51"/>
<wire x1="-1.1" y1="-1.6" x2="-1.1" y2="-2.45" width="0.1016" layer="51"/>
<wire x1="1.1" y1="-2.45" x2="1.1" y2="-1.6" width="0.1016" layer="51"/>
<wire x1="-0.85" y1="-1.6" x2="-1.4" y2="-1.05" width="0.2032" layer="51"/>
<wire x1="-1.4" y1="1.6" x2="-1.4" y2="-1.05" width="0.2032" layer="51"/>
<circle x="0" y="0" radius="1.1" width="0.2032" layer="21"/>
<smd name="C" x="0" y="-3.5" dx="4" dy="4" layer="1" stop="no" cream="no"/>
<smd name="A" x="0" y="3.5" dx="4" dy="4" layer="1" stop="no" cream="no"/>
<text x="-2.54" y="-1.905" size="1.27" layer="25" rot="R90">&gt;NAME</text>
<text x="3.81" y="-1.905" size="1.27" layer="27" rot="R90">&gt;VALUE</text>
<text x="-0.635" y="3.29" size="1.27" layer="21">A</text>
<text x="-0.635" y="-4.56" size="1.27" layer="21">C</text>
<rectangle x1="-1.3" y1="-3" x2="1.3" y2="-1.5" layer="31"/>
<rectangle x1="-1.3" y1="1.5" x2="1.3" y2="3" layer="31"/>
<rectangle x1="-0.25" y1="-0.25" x2="0.25" y2="0.25" layer="21"/>
<rectangle x1="-1.15" y1="2.4" x2="1.15" y2="2.7" layer="51"/>
<rectangle x1="-1.15" y1="-2.7" x2="1.15" y2="-2.4" layer="51"/>
<rectangle x1="-1.5" y1="1.5" x2="1.5" y2="3.2" layer="29"/>
<rectangle x1="-1.5" y1="-3.2" x2="1.5" y2="-1.5" layer="29"/>
<hole x="0" y="0" drill="2.8"/>
</package>
<package name="MICRO-SIDELED">
<description>&lt;b&gt;Hyper Micro SIDELED®&lt;/b&gt;&lt;p&gt;
Source: http://www.osram.convergy.de/ ... LA_LO_LS_LY Y876.pdf</description>
<wire x1="0.65" y1="1.1" x2="-0.1" y2="1.1" width="0.1016" layer="51"/>
<wire x1="-0.1" y1="1.1" x2="-0.35" y2="1" width="0.1016" layer="51"/>
<wire x1="-0.35" y1="1" x2="-0.35" y2="-0.9" width="0.1016" layer="21"/>
<wire x1="-0.35" y1="-0.9" x2="-0.1" y2="-1.1" width="0.1016" layer="51"/>
<wire x1="-0.1" y1="-1.1" x2="0.65" y2="-1.1" width="0.1016" layer="51"/>
<wire x1="0.65" y1="-1.1" x2="0.65" y2="1.1" width="0.1016" layer="21"/>
<wire x1="0.6" y1="0.9" x2="0.25" y2="0.7" width="0.0508" layer="21"/>
<wire x1="0.25" y1="0.7" x2="0.25" y2="-0.7" width="0.0508" layer="21"/>
<wire x1="0.25" y1="-0.7" x2="0.6" y2="-0.9" width="0.0508" layer="21"/>
<smd name="A" x="0" y="1.95" dx="1.6" dy="1.6" layer="1" stop="no" cream="no"/>
<smd name="C" x="0" y="-1.95" dx="1.6" dy="1.6" layer="1" stop="no" cream="no"/>
<text x="-1.27" y="-1.905" size="1.27" layer="25" rot="R90">&gt;NAME</text>
<text x="2.54" y="-1.905" size="1.27" layer="27" rot="R90">&gt;VALUE</text>
<rectangle x1="-0.4" y1="1.1" x2="0.4" y2="1.8" layer="29"/>
<rectangle x1="-0.4" y1="-1.8" x2="0.4" y2="-1.1" layer="29"/>
<rectangle x1="-0.35" y1="-1.75" x2="0.35" y2="-1.15" layer="31"/>
<rectangle x1="-0.35" y1="1.15" x2="0.35" y2="1.75" layer="31"/>
<rectangle x1="-0.125" y1="1.125" x2="0.125" y2="1.75" layer="51"/>
<rectangle x1="-0.125" y1="-1.75" x2="0.125" y2="-1.125" layer="51"/>
</package>
<package name="P-LCC-4">
<description>&lt;b&gt;Power TOPLED®&lt;/b&gt;&lt;p&gt;
Source: http://www.osram.convergy.de/ ... LA_LO_LA_LY E67B.pdf</description>
<wire x1="-1.4" y1="1.6" x2="-1.4" y2="-0.65" width="0.2032" layer="51"/>
<wire x1="-1.4" y1="-1.05" x2="-1.4" y2="-1.6" width="0.2032" layer="51"/>
<wire x1="-1.4" y1="-1.6" x2="-1" y2="-1.6" width="0.2032" layer="51"/>
<wire x1="-1" y1="-1.6" x2="-0.85" y2="-1.6" width="0.2032" layer="51"/>
<wire x1="-0.85" y1="-1.6" x2="1" y2="-1.6" width="0.2032" layer="51"/>
<wire x1="1" y1="-1.6" x2="1.4" y2="-1.6" width="0.2032" layer="51"/>
<wire x1="1.4" y1="-1.6" x2="1.4" y2="1.6" width="0.2032" layer="51"/>
<wire x1="1.4" y1="1.6" x2="-1" y2="1.6" width="0.2032" layer="51"/>
<wire x1="-1" y1="1.6" x2="-1.4" y2="1.6" width="0.2032" layer="51"/>
<wire x1="-1" y1="1.6" x2="-1" y2="1.8" width="0.1016" layer="51"/>
<wire x1="-1" y1="1.8" x2="-0.5" y2="1.8" width="0.1016" layer="51"/>
<wire x1="-0.5" y1="1.8" x2="-0.5" y2="1.65" width="0.1016" layer="51"/>
<wire x1="0.5" y1="1.65" x2="0.5" y2="1.8" width="0.1016" layer="51"/>
<wire x1="0.5" y1="1.8" x2="1.1" y2="1.8" width="0.1016" layer="51"/>
<wire x1="1.1" y1="1.8" x2="1.1" y2="1.6" width="0.1016" layer="51"/>
<wire x1="-1" y1="-1.6" x2="-1" y2="-1.8" width="0.1016" layer="51"/>
<wire x1="-1" y1="-1.8" x2="-0.5" y2="-1.8" width="0.1016" layer="51"/>
<wire x1="-0.5" y1="-1.8" x2="-0.5" y2="-1.65" width="0.1016" layer="51"/>
<wire x1="0.5" y1="-1.65" x2="0.5" y2="-1.8" width="0.1016" layer="51"/>
<wire x1="0.5" y1="-1.8" x2="1" y2="-1.8" width="0.1016" layer="51"/>
<wire x1="1" y1="-1.8" x2="1" y2="-1.6" width="0.1016" layer="51"/>
<wire x1="-0.85" y1="-1.6" x2="-1.4" y2="-1.05" width="0.2032" layer="51"/>
<wire x1="-1.4" y1="-1.05" x2="-1.4" y2="-0.65" width="0.2032" layer="51"/>
<circle x="0" y="0" radius="1.1" width="0.2032" layer="51"/>
<smd name="A" x="-2" y="3.15" dx="3.3" dy="4.8" layer="1" stop="no" cream="no"/>
<smd name="C@3" x="2" y="3.15" dx="3.3" dy="4.8" layer="1" stop="no" cream="no"/>
<smd name="C@4" x="2" y="-3.15" dx="3.3" dy="4.8" layer="1" stop="no" cream="no"/>
<smd name="C@1" x="-2" y="-3.15" dx="3.3" dy="4.8" layer="1" stop="no" cream="no"/>
<text x="-3.81" y="-2.54" size="1.27" layer="25" rot="R90">&gt;NAME</text>
<text x="5.08" y="-2.54" size="1.27" layer="27" rot="R90">&gt;VALUE</text>
<text x="-1.905" y="-3.81" size="1.27" layer="21">C</text>
<text x="-1.905" y="2.54" size="1.27" layer="21">A</text>
<text x="1.27" y="2.54" size="1.27" layer="21">C</text>
<text x="1.27" y="-3.81" size="1.27" layer="21">C</text>
<rectangle x1="-1.15" y1="0.75" x2="-0.35" y2="1.85" layer="29"/>
<rectangle x1="0.35" y1="0.75" x2="1.15" y2="1.85" layer="29"/>
<rectangle x1="0.35" y1="-1.85" x2="1.15" y2="-0.75" layer="29"/>
<rectangle x1="-1.15" y1="-1.85" x2="-0.35" y2="-0.75" layer="29"/>
<rectangle x1="-1.1" y1="-1.8" x2="-0.4" y2="-0.8" layer="31"/>
<rectangle x1="0.4" y1="-1.8" x2="1.1" y2="-0.8" layer="31"/>
<rectangle x1="0.4" y1="0.8" x2="1.1" y2="1.8" layer="31"/>
<rectangle x1="-1.1" y1="0.8" x2="-0.4" y2="1.8" layer="31"/>
<rectangle x1="-0.2" y1="-0.2" x2="0.2" y2="0.2" layer="21"/>
</package>
<package name="CHIP-LED0603">
<description>&lt;b&gt;Hyper CHIPLED Hyper-Bright LED&lt;/b&gt;&lt;p&gt;
LB Q993&lt;br&gt;
Source: http://www.osram.convergy.de/ ... Lb_q993.pdf</description>
<wire x1="-0.4" y1="0.45" x2="-0.4" y2="-0.45" width="0.1016" layer="51"/>
<wire x1="0.4" y1="0.45" x2="0.4" y2="-0.45" width="0.1016" layer="51"/>
<smd name="C" x="0" y="0.75" dx="0.8" dy="0.8" layer="1"/>
<smd name="A" x="0" y="-0.75" dx="0.8" dy="0.8" layer="1"/>
<text x="-0.635" y="-0.635" size="1.27" layer="25" rot="R90">&gt;NAME</text>
<text x="1.905" y="-0.635" size="1.27" layer="27" rot="R90">&gt;VALUE</text>
<rectangle x1="-0.45" y1="0.45" x2="0.45" y2="0.85" layer="51"/>
<rectangle x1="-0.45" y1="-0.85" x2="0.45" y2="-0.45" layer="51"/>
<rectangle x1="-0.45" y1="0" x2="-0.3" y2="0.3" layer="21"/>
<rectangle x1="0.3" y1="0" x2="0.45" y2="0.3" layer="21"/>
<rectangle x1="-0.15" y1="0" x2="0.15" y2="0.3" layer="21"/>
</package>
<package name="CHIP-LED0805">
<description>&lt;b&gt;Hyper CHIPLED Hyper-Bright LED&lt;/b&gt;&lt;p&gt;
LB R99A&lt;br&gt;
Source: http://www.osram.convergy.de/ ... lb_r99a.pdf</description>
<wire x1="-0.625" y1="0.45" x2="-0.625" y2="-0.45" width="0.1016" layer="51"/>
<wire x1="0.625" y1="0.45" x2="0.625" y2="-0.475" width="0.1016" layer="51"/>
<smd name="C" x="0" y="1.05" dx="1.2" dy="1.2" layer="1"/>
<smd name="A" x="0" y="-1.05" dx="1.2" dy="1.2" layer="1"/>
<text x="-1.27" y="-1.27" size="1.27" layer="25" rot="R90">&gt;NAME</text>
<text x="2.54" y="-1.27" size="1.27" layer="27" rot="R90">&gt;VALUE</text>
<text x="-1.27" y="-2.54" size="1.016" layer="21" font="vector">+</text>
<rectangle x1="-0.675" y1="0" x2="-0.525" y2="0.3" layer="21"/>
<rectangle x1="0.525" y1="0" x2="0.675" y2="0.3" layer="21"/>
<rectangle x1="-0.15" y1="0" x2="0.15" y2="0.3" layer="21"/>
<rectangle x1="-0.675" y1="0.45" x2="0.675" y2="1.05" layer="51"/>
<rectangle x1="-0.675" y1="-1.05" x2="0.675" y2="-0.45" layer="51"/>
</package>
<package name="MINI-TOPLED-SANTANA">
<description>&lt;b&gt;Mini TOPLED Santana®&lt;/b&gt;&lt;p&gt;
Source: http://www.osram.convergy.de/ ... LG M470.pdf</description>
<wire x1="0.7" y1="-1" x2="0.35" y2="-1" width="0.1016" layer="21"/>
<wire x1="0.35" y1="-1" x2="-0.45" y2="-1" width="0.1016" layer="21"/>
<wire x1="-0.45" y1="-1" x2="-0.7" y2="-1" width="0.1016" layer="21"/>
<wire x1="-0.7" y1="-1" x2="-0.7" y2="-0.75" width="0.1016" layer="21"/>
<wire x1="-0.7" y1="-0.75" x2="-0.7" y2="1" width="0.1016" layer="21"/>
<wire x1="-0.7" y1="1" x2="0.7" y2="1" width="0.1016" layer="21"/>
<wire x1="0.7" y1="1" x2="0.7" y2="-0.65" width="0.1016" layer="21"/>
<wire x1="0.7" y1="-0.65" x2="0.7" y2="-1" width="0.1016" layer="21"/>
<wire x1="0.45" y1="-0.7" x2="-0.45" y2="-0.7" width="0.1016" layer="21"/>
<wire x1="-0.45" y1="-0.7" x2="-0.45" y2="0.7" width="0.1016" layer="21"/>
<wire x1="-0.45" y1="0.7" x2="0.45" y2="0.7" width="0.1016" layer="21"/>
<wire x1="0.45" y1="0.7" x2="0.45" y2="-0.7" width="0.1016" layer="21"/>
<wire x1="0.7" y1="-0.65" x2="0.35" y2="-1" width="0.1016" layer="21"/>
<smd name="C" x="0" y="-2.2" dx="1.6" dy="1.6" layer="1" stop="no" cream="no"/>
<smd name="A" x="0" y="2.2" dx="1.6" dy="1.6" layer="1" stop="no" cream="no"/>
<text x="-1.27" y="-1.905" size="1.27" layer="25" rot="R90">&gt;NAME</text>
<text x="2.54" y="-1.905" size="1.27" layer="27" rot="R90">&gt;VALUE</text>
<rectangle x1="-0.55" y1="1.5" x2="0.55" y2="2.1" layer="29"/>
<rectangle x1="-0.55" y1="-2.1" x2="0.55" y2="-1.5" layer="29"/>
<rectangle x1="-0.5" y1="-2.05" x2="0.5" y2="-1.55" layer="31"/>
<rectangle x1="-0.5" y1="1.55" x2="0.5" y2="2.05" layer="31"/>
<rectangle x1="-0.2" y1="-0.4" x2="0.15" y2="-0.05" layer="21"/>
<rectangle x1="-0.5" y1="-2.1" x2="0.5" y2="-1.4" layer="51"/>
<rectangle x1="-0.5" y1="1.4" x2="0.5" y2="2.05" layer="51"/>
<rectangle x1="-0.5" y1="1" x2="0.5" y2="1.4" layer="21"/>
<rectangle x1="-0.5" y1="-1.4" x2="0.5" y2="-1.05" layer="21"/>
<hole x="0" y="0" drill="2.7"/>
</package>
<package name="CHIPLED_0805">
<description>&lt;b&gt;CHIPLED&lt;/b&gt;&lt;p&gt;
Source: http://www.osram.convergy.de/ ... LG_R971.pdf</description>
<wire x1="-0.35" y1="1" x2="0.35" y2="1" width="0.1016" layer="51" curve="180" cap="flat"/>
<wire x1="-0.35" y1="-1" x2="0.35" y2="-1" width="0.1016" layer="51" curve="-180" cap="flat"/>
<wire x1="0.575" y1="0.525" x2="0.575" y2="-0.525" width="0.1016" layer="51"/>
<wire x1="-0.575" y1="-0.5" x2="-0.575" y2="0.925" width="0.1016" layer="51"/>
<circle x="-0.45" y="0.85" radius="0.103" width="0.1016" layer="51"/>
<smd name="C" x="0" y="1.05" dx="1.2" dy="1.2" layer="1"/>
<smd name="A" x="0" y="-1.05" dx="1.2" dy="1.2" layer="1"/>
<text x="-1.27" y="-1.27" size="1.27" layer="25" rot="R90">&gt;NAME</text>
<text x="2.54" y="-1.27" size="1.27" layer="27" rot="R90">&gt;VALUE</text>
<rectangle x1="0.3" y1="0.5" x2="0.625" y2="1" layer="51"/>
<rectangle x1="-0.325" y1="0.5" x2="-0.175" y2="0.75" layer="51"/>
<rectangle x1="0.175" y1="0.5" x2="0.325" y2="0.75" layer="51"/>
<rectangle x1="-0.2" y1="0.5" x2="0.2" y2="0.675" layer="51"/>
<rectangle x1="0.3" y1="-1" x2="0.625" y2="-0.5" layer="51"/>
<rectangle x1="-0.625" y1="-1" x2="-0.3" y2="-0.5" layer="51"/>
<rectangle x1="0.175" y1="-0.75" x2="0.325" y2="-0.5" layer="51"/>
<rectangle x1="-0.325" y1="-0.75" x2="-0.175" y2="-0.5" layer="51"/>
<rectangle x1="-0.2" y1="-0.675" x2="0.2" y2="-0.5" layer="51"/>
<rectangle x1="-0.1" y1="0" x2="0.1" y2="0.2" layer="21"/>
<rectangle x1="-0.6" y1="0.5" x2="-0.3" y2="0.8" layer="51"/>
<rectangle x1="-0.625" y1="0.925" x2="-0.4" y2="1" layer="51"/>
</package>
<package name="CHIPLED_1206">
<description>&lt;b&gt;CHIPLED&lt;/b&gt;&lt;p&gt;
Source: http://www.osram.convergy.de/ ... LG_LY N971.pdf</description>
<wire x1="-0.4" y1="1.625" x2="0.4" y2="1.625" width="0.1016" layer="51" curve="180" cap="flat"/>
<wire x1="-0.8" y1="-0.95" x2="-0.8" y2="0.95" width="0.1016" layer="51"/>
<wire x1="0.8" y1="0.95" x2="0.8" y2="-0.95" width="0.1016" layer="51"/>
<circle x="-0.55" y="1.425" radius="0.1" width="0.1016" layer="51"/>
<smd name="C" x="0" y="1.75" dx="1.5" dy="1.5" layer="1"/>
<smd name="A" x="0" y="-1.75" dx="1.5" dy="1.5" layer="1"/>
<text x="-1.27" y="-1.27" size="1.27" layer="25" rot="R90">&gt;NAME</text>
<text x="2.54" y="-1.27" size="1.27" layer="27" rot="R90">&gt;VALUE</text>
<rectangle x1="-0.85" y1="1.525" x2="-0.35" y2="1.65" layer="51"/>
<rectangle x1="-0.85" y1="1.225" x2="-0.625" y2="1.55" layer="51"/>
<rectangle x1="-0.45" y1="1.225" x2="-0.325" y2="1.45" layer="51"/>
<rectangle x1="-0.65" y1="1.225" x2="-0.225" y2="1.35" layer="51"/>
<rectangle x1="0.35" y1="1.3" x2="0.85" y2="1.65" layer="51"/>
<rectangle x1="0.25" y1="1.225" x2="0.85" y2="1.35" layer="51"/>
<rectangle x1="-0.85" y1="0.95" x2="0.85" y2="1.25" layer="51"/>
<rectangle x1="-0.85" y1="-1.65" x2="0.85" y2="-0.95" layer="51"/>
<rectangle x1="-0.85" y1="0.35" x2="-0.525" y2="0.775" layer="21"/>
<rectangle x1="0.525" y1="0.35" x2="0.85" y2="0.775" layer="21"/>
<rectangle x1="-0.175" y1="0" x2="0.175" y2="0.35" layer="21"/>
</package>
<package name="CHIPLED_0603">
<description>&lt;b&gt;CHIPLED&lt;/b&gt;&lt;p&gt;
Source: http://www.osram.convergy.de/ ... LG_LY Q971.pdf</description>
<wire x1="-0.3" y1="0.825" x2="0.3" y2="0.825" width="0.1016" layer="51" curve="180" cap="flat"/>
<wire x1="-0.275" y1="-0.825" x2="0.275" y2="-0.825" width="0.0508" layer="51" curve="-180" cap="flat"/>
<wire x1="-0.4" y1="0.375" x2="-0.4" y2="-0.35" width="0.1016" layer="51"/>
<wire x1="0.4" y1="0.35" x2="0.4" y2="-0.35" width="0.1016" layer="51"/>
<circle x="-0.35" y="0.625" radius="0.075" width="0.0508" layer="51"/>
<smd name="C" x="0" y="0.75" dx="0.8" dy="0.8" layer="1"/>
<smd name="A" x="0" y="-0.75" dx="0.8" dy="0.8" layer="1"/>
<text x="-0.635" y="-1.27" size="1.27" layer="25" rot="R90">&gt;NAME</text>
<text x="1.905" y="-1.27" size="1.27" layer="27" rot="R90">&gt;VALUE</text>
<rectangle x1="-0.45" y1="0.7" x2="-0.25" y2="0.85" layer="51"/>
<rectangle x1="-0.275" y1="0.55" x2="-0.225" y2="0.6" layer="51"/>
<rectangle x1="-0.45" y1="0.35" x2="-0.4" y2="0.725" layer="51"/>
<rectangle x1="0.25" y1="0.55" x2="0.45" y2="0.85" layer="51"/>
<rectangle x1="-0.45" y1="0.35" x2="0.45" y2="0.575" layer="51"/>
<rectangle x1="-0.45" y1="-0.85" x2="-0.25" y2="-0.35" layer="51"/>
<rectangle x1="0.25" y1="-0.85" x2="0.45" y2="-0.35" layer="51"/>
<rectangle x1="-0.275" y1="-0.575" x2="0.275" y2="-0.35" layer="51"/>
<rectangle x1="-0.275" y1="-0.65" x2="-0.175" y2="-0.55" layer="51"/>
<rectangle x1="0.175" y1="-0.65" x2="0.275" y2="-0.55" layer="51"/>
<rectangle x1="-0.125" y1="0" x2="0.125" y2="0.25" layer="21"/>
</package>
<package name="CHIPLED-0603-TTW">
<description>&lt;b&gt;CHIPLED-0603&lt;/b&gt;&lt;p&gt;
Recommended Solder Pad useable for SmartLEDTM and Chipled - Package 0603&lt;br&gt;
Package able to withstand TTW-soldering heat&lt;br&gt;
Package suitable for TTW-soldering&lt;br&gt;
Source: http://www.osram.convergy.de/ ... LO_LS_LY L89K.pdf</description>
<wire x1="-0.3" y1="0.825" x2="0.3" y2="0.825" width="0.1016" layer="51" curve="180" cap="flat"/>
<wire x1="-0.275" y1="-0.825" x2="0.275" y2="-0.825" width="0.0508" layer="51" curve="-180" cap="flat"/>
<wire x1="-0.4" y1="0.375" x2="-0.4" y2="-0.35" width="0.1016" layer="51"/>
<wire x1="0.4" y1="0.35" x2="0.4" y2="-0.35" width="0.1016" layer="51"/>
<circle x="-0.35" y="0.625" radius="0.075" width="0.0508" layer="51"/>
<smd name="C" x="0" y="0.875" dx="0.8" dy="0.5" layer="1" stop="no" cream="no"/>
<smd name="A" x="0" y="-0.875" dx="0.8" dy="0.5" layer="1" stop="no" cream="no"/>
<smd name="A@1" x="0" y="-0.5" dx="0.35" dy="0.35" layer="1"/>
<smd name="C@1" x="0" y="0.5" dx="0.35" dy="0.35" layer="1"/>
<text x="-0.635" y="-1.27" size="1.27" layer="25" rot="R90">&gt;NAME</text>
<text x="1.905" y="-1.27" size="1.27" layer="27" rot="R90">&gt;VALUE</text>
<rectangle x1="-0.45" y1="0.7" x2="-0.25" y2="0.85" layer="51"/>
<rectangle x1="-0.275" y1="0.55" x2="-0.225" y2="0.6" layer="51"/>
<rectangle x1="-0.45" y1="0.35" x2="-0.4" y2="0.725" layer="51"/>
<rectangle x1="0.25" y1="0.55" x2="0.45" y2="0.85" layer="51"/>
<rectangle x1="-0.45" y1="0.35" x2="0.45" y2="0.575" layer="51"/>
<rectangle x1="-0.45" y1="-0.85" x2="-0.25" y2="-0.35" layer="51"/>
<rectangle x1="0.25" y1="-0.85" x2="0.45" y2="-0.35" layer="51"/>
<rectangle x1="-0.275" y1="-0.575" x2="0.275" y2="-0.35" layer="51"/>
<rectangle x1="-0.275" y1="-0.65" x2="-0.175" y2="-0.55" layer="51"/>
<rectangle x1="0.175" y1="-0.65" x2="0.275" y2="-0.55" layer="51"/>
<rectangle x1="-0.125" y1="0" x2="0.125" y2="0.25" layer="21"/>
<rectangle x1="-0.175" y1="0.325" x2="0.175" y2="0.7" layer="29"/>
<rectangle x1="-0.4" y1="0.625" x2="0.4" y2="1.125" layer="29"/>
<rectangle x1="-0.4" y1="-1.125" x2="0.4" y2="-0.625" layer="29"/>
<rectangle x1="-0.175" y1="-0.675" x2="0.175" y2="-0.325" layer="29"/>
</package>
<package name="SMARTLED-TTW">
<description>&lt;b&gt;SmartLED TTW&lt;/b&gt;&lt;p&gt;
Recommended Solder Pad useable for SmartLEDTM and Chipled - Package 0603&lt;br&gt;
Package able to withstand TTW-soldering heat&lt;br&gt;
Package suitable for TTW-soldering&lt;br&gt;
Source: http://www.osram.convergy.de/ ... LO_LS_LY L89K.pdf</description>
<wire x1="-0.35" y1="0.6" x2="0.35" y2="0.6" width="0.1016" layer="51" style="shortdash"/>
<wire x1="0.35" y1="0.6" x2="0.35" y2="-0.6" width="0.1016" layer="21" style="shortdash"/>
<wire x1="0.35" y1="-0.6" x2="-0.35" y2="-0.6" width="0.1016" layer="51" style="shortdash"/>
<wire x1="-0.35" y1="-0.6" x2="-0.35" y2="0.6" width="0.1016" layer="21" style="shortdash"/>
<wire x1="0.35" y1="-0.4" x2="0.15" y2="-0.6" width="0.1016" layer="51" style="shortdash"/>
<smd name="C" x="0" y="0.875" dx="0.8" dy="0.5" layer="1" stop="no" cream="no"/>
<smd name="A" x="0" y="-0.875" dx="0.8" dy="0.5" layer="1" stop="no" cream="no"/>
<smd name="A@1" x="0" y="-0.5" dx="0.35" dy="0.35" layer="1" stop="no" cream="no"/>
<smd name="C@1" x="0" y="0.5" dx="0.35" dy="0.35" layer="1" stop="no" cream="no"/>
<text x="-0.635" y="-1.27" size="1.27" layer="25" rot="R90">&gt;NAME</text>
<text x="1.905" y="-1.27" size="1.27" layer="27" rot="R90">&gt;VALUE</text>
<rectangle x1="-0.175" y1="0.325" x2="0.175" y2="0.7" layer="29"/>
<rectangle x1="-0.15" y1="-0.35" x2="0.15" y2="-0.05" layer="21"/>
<rectangle x1="-0.15" y1="0.6" x2="0.15" y2="0.85" layer="51"/>
<rectangle x1="-0.15" y1="-0.85" x2="0.15" y2="-0.6" layer="51"/>
<rectangle x1="-0.225" y1="0.3" x2="0.225" y2="0.975" layer="31"/>
<rectangle x1="-0.175" y1="-0.7" x2="0.175" y2="-0.325" layer="29" rot="R180"/>
<rectangle x1="-0.225" y1="-0.975" x2="0.225" y2="-0.3" layer="31" rot="R180"/>
</package>
</packages>
<symbols>
<symbol name="LED">
<wire x1="1.27" y1="0" x2="0" y2="-2.54" width="0.254" layer="94"/>
<wire x1="0" y1="-2.54" x2="-1.27" y2="0" width="0.254" layer="94"/>
<wire x1="1.27" y1="-2.54" x2="0" y2="-2.54" width="0.254" layer="94"/>
<wire x1="0" y1="-2.54" x2="-1.27" y2="-2.54" width="0.254" layer="94"/>
<wire x1="1.27" y1="0" x2="0" y2="0" width="0.254" layer="94"/>
<wire x1="0" y1="0" x2="-1.27" y2="0" width="0.254" layer="94"/>
<wire x1="0" y1="0" x2="0" y2="-2.54" width="0.1524" layer="94"/>
<wire x1="-2.032" y1="-0.762" x2="-3.429" y2="-2.159" width="0.1524" layer="94"/>
<wire x1="-1.905" y1="-1.905" x2="-3.302" y2="-3.302" width="0.1524" layer="94"/>
<text x="3.556" y="-4.572" size="1.778" layer="95" rot="R90">&gt;NAME</text>
<text x="5.715" y="-4.572" size="1.778" layer="96" rot="R90">&gt;VALUE</text>
<pin name="C" x="0" y="-5.08" visible="off" length="short" direction="pas" rot="R90"/>
<pin name="A" x="0" y="2.54" visible="off" length="short" direction="pas" rot="R270"/>
<polygon width="0.1524" layer="94">
<vertex x="-3.429" y="-2.159"/>
<vertex x="-3.048" y="-1.27"/>
<vertex x="-2.54" y="-1.778"/>
</polygon>
<polygon width="0.1524" layer="94">
<vertex x="-3.302" y="-3.302"/>
<vertex x="-2.921" y="-2.413"/>
<vertex x="-2.413" y="-2.921"/>
</polygon>
</symbol>
</symbols>
<devicesets>
<deviceset name="LED" prefix="LED" uservalue="yes">
<description>&lt;b&gt;LED&lt;/b&gt;&lt;p&gt;
&lt;u&gt;OSRAM&lt;/u&gt;:&lt;br&gt;

- &lt;u&gt;CHIPLED&lt;/u&gt;&lt;br&gt;
LG R971, LG N971, LY N971, LG Q971, LY Q971, LO R971, LY R971
LH N974, LH R974&lt;br&gt;
LS Q976, LO Q976, LY Q976&lt;br&gt;
LO Q996&lt;br&gt;


- &lt;u&gt;Hyper CHIPLED&lt;/u&gt;&lt;br&gt;
LW Q18S&lt;br&gt;
LB Q993, LB Q99A, LB R99A&lt;br&gt;

- &lt;u&gt;SideLED&lt;/u&gt;&lt;br&gt;
LS A670, LO A670, LY A670, LG A670, LP A670&lt;br&gt;
LB A673, LV A673, LT A673, LW A673&lt;br&gt;
LH A674&lt;br&gt;
LY A675&lt;br&gt;
LS A676, LA A676, LO A676, LY A676, LW A676&lt;br&gt;
LS A679, LY A679, LG A679&lt;br&gt;

-  &lt;u&gt;Hyper Micro SIDELED®&lt;/u&gt;&lt;br&gt;
LS Y876, LA Y876, LO Y876, LY Y876&lt;br&gt;
LT Y87S&lt;br&gt;

- &lt;u&gt;SmartLED&lt;/u&gt;&lt;br&gt;
LW L88C, LW L88S&lt;br&gt;
LB L89C, LB L89S, LG L890&lt;br&gt;
LS L89K, LO L89K, LY L89K&lt;br&gt;
LS L896, LA L896, LO L896, LY L896&lt;br&gt;

- &lt;u&gt;TOPLED&lt;/u&gt;&lt;br&gt;
LS T670, LO T670, LY T670, LG T670, LP T670&lt;br&gt;
LSG T670, LSP T670, LSY T670, LOP T670, LYG T670&lt;br&gt;
LG T671, LOG T671, LSG T671&lt;br&gt;
LB T673, LV T673, LT T673, LW T673&lt;br&gt;
LH T674&lt;br&gt;
LS T676, LA T676, LO T676, LY T676, LB T676, LH T676, LSB T676, LW T676&lt;br&gt;
LB T67C, LV T67C, LT T67C, LS T67K, LO T67K, LY T67K, LW E67C&lt;br&gt;
LS E67B, LA E67B, LO E67B, LY E67B, LB E67C, LV E67C, LT E67C&lt;br&gt;
LW T67C&lt;br&gt;
LS T679, LY T679, LG T679&lt;br&gt;
LS T770, LO T770, LY T770, LG T770, LP T770&lt;br&gt;
LB T773, LV T773, LT T773, LW T773&lt;br&gt;
LH T774&lt;br&gt;
LS E675, LA E675, LY E675, LS T675&lt;br&gt;
LS T776, LA T776, LO T776, LY T776, LB T776&lt;br&gt;
LHGB T686&lt;br&gt;
LT T68C, LB T68C&lt;br&gt;

- &lt;u&gt;Hyper Mini TOPLED®&lt;/u&gt;&lt;br&gt;
LB M676&lt;br&gt;

- &lt;u&gt;Mini TOPLED Santana®&lt;/u&gt;&lt;br&gt;
LG M470&lt;br&gt;
LS M47K, LO M47K, LY M47K&lt;br&gt;

&lt;p&gt;
Source: http://www.osram.convergy.de/</description>
<gates>
<gate name="G$1" symbol="LED" x="0" y="0"/>
</gates>
<devices>
<device name="SMT1206" package="1206">
<connects>
<connect gate="G$1" pin="A" pad="A"/>
<connect gate="G$1" pin="C" pad="C"/>
</connects>
<technologies>
<technology name=""/>
</technologies>
</device>
<device name="LD260" package="LD260">
<connects>
<connect gate="G$1" pin="A" pad="A"/>
<connect gate="G$1" pin="C" pad="K"/>
</connects>
<technologies>
<technology name=""/>
</technologies>
</device>
<device name="SQR2X5" package="LED2X5">
<connects>
<connect gate="G$1" pin="A" pad="A"/>
<connect gate="G$1" pin="C" pad="K"/>
</connects>
<technologies>
<technology name=""/>
</technologies>
</device>
<device name="3MM" package="LED3MM">
<connects>
<connect gate="G$1" pin="A" pad="A"/>
<connect gate="G$1" pin="C" pad="K"/>
</connects>
<technologies>
<technology name=""/>
</technologies>
</device>
<device name="5MM" package="LED5MM">
<connects>
<connect gate="G$1" pin="A" pad="A"/>
<connect gate="G$1" pin="C" pad="K"/>
</connects>
<technologies>
<technology name=""/>
</technologies>
</device>
<device name="LSU260" package="LSU260">
<connects>
<connect gate="G$1" pin="A" pad="A"/>
<connect gate="G$1" pin="C" pad="K"/>
</connects>
<technologies>
<technology name=""/>
</technologies>
</device>
<device name="LZR181" package="LZR181">
<connects>
<connect gate="G$1" pin="A" pad="A"/>
<connect gate="G$1" pin="C" pad="K"/>
</connects>
<technologies>
<technology name=""/>
</technologies>
</device>
<device name="B152" package="Q62902-B152">
<connects>
<connect gate="G$1" pin="A" pad="A"/>
<connect gate="G$1" pin="C" pad="K"/>
</connects>
<technologies>
<technology name=""/>
</technologies>
</device>
<device name="B153" package="Q62902-B153">
<connects>
<connect gate="G$1" pin="A" pad="A"/>
<connect gate="G$1" pin="C" pad="K"/>
</connects>
<technologies>
<technology name=""/>
</technologies>
</device>
<device name="B155" package="Q62902-B155">
<connects>
<connect gate="G$1" pin="A" pad="A"/>
<connect gate="G$1" pin="C" pad="K"/>
</connects>
<technologies>
<technology name=""/>
</technologies>
</device>
<device name="B156" package="Q62902-B156">
<connects>
<connect gate="G$1" pin="A" pad="A"/>
<connect gate="G$1" pin="C" pad="K"/>
</connects>
<technologies>
<technology name=""/>
</technologies>
</device>
<device name="SFH480" package="SFH480">
<connects>
<connect gate="G$1" pin="A" pad="A"/>
<connect gate="G$1" pin="C" pad="K"/>
</connects>
<technologies>
<technology name=""/>
</technologies>
</device>
<device name="SFH482" package="SFH482">
<connects>
<connect gate="G$1" pin="A" pad="A"/>
<connect gate="G$1" pin="C" pad="K"/>
</connects>
<technologies>
<technology name=""/>
</technologies>
</device>
<device name="SQR5.7X3.2" package="U57X32">
<connects>
<connect gate="G$1" pin="A" pad="A"/>
<connect gate="G$1" pin="C" pad="K"/>
</connects>
<technologies>
<technology name=""/>
</technologies>
</device>
<device name="IRL80A" package="IRL80A">
<connects>
<connect gate="G$1" pin="A" pad="A"/>
<connect gate="G$1" pin="C" pad="K"/>
</connects>
<technologies>
<technology name=""/>
</technologies>
</device>
<device name="P-LCC-2" package="P-LCC-2">
<connects>
<connect gate="G$1" pin="A" pad="A"/>
<connect gate="G$1" pin="C" pad="C"/>
</connects>
<technologies>
<technology name=""/>
</technologies>
</device>
<device name="MINI-TOP" package="OSRAM-MINI-TOP-LED">
<connects>
<connect gate="G$1" pin="A" pad="A"/>
<connect gate="G$1" pin="C" pad="C"/>
</connects>
<technologies>
<technology name=""/>
</technologies>
</device>
<device name="SIDELED" package="OSRAM-SIDELED">
<connects>
<connect gate="G$1" pin="A" pad="A"/>
<connect gate="G$1" pin="C" pad="C"/>
</connects>
<technologies>
<technology name=""/>
</technologies>
</device>
<device name="SMART-LED" package="SMART-LED">
<connects>
<connect gate="G$1" pin="A" pad="A"/>
<connect gate="G$1" pin="C" pad="B"/>
</connects>
<technologies>
<technology name=""/>
</technologies>
</device>
<device name="P-LCC-2-BACK" package="P-LCC-2-TOPLED-RG">
<connects>
<connect gate="G$1" pin="A" pad="A"/>
<connect gate="G$1" pin="C" pad="C"/>
</connects>
<technologies>
<technology name=""/>
</technologies>
</device>
<device name="MICRO-SIDELED" package="MICRO-SIDELED">
<connects>
<connect gate="G$1" pin="A" pad="A"/>
<connect gate="G$1" pin="C" pad="C"/>
</connects>
<technologies>
<technology name=""/>
</technologies>
</device>
<device name="P-LCC-4" package="P-LCC-4">
<connects>
<connect gate="G$1" pin="A" pad="A"/>
<connect gate="G$1" pin="C" pad="C@4"/>
</connects>
<technologies>
<technology name=""/>
</technologies>
</device>
<device name="CHIP-LED0603" package="CHIP-LED0603">
<connects>
<connect gate="G$1" pin="A" pad="A"/>
<connect gate="G$1" pin="C" pad="C"/>
</connects>
<technologies>
<technology name=""/>
</technologies>
</device>
<device name="CHIP-LED0805" package="CHIP-LED0805">
<connects>
<connect gate="G$1" pin="A" pad="A"/>
<connect gate="G$1" pin="C" pad="C"/>
</connects>
<technologies>
<technology name=""/>
</technologies>
</device>
<device name="TOPLED-SANTANA" package="MINI-TOPLED-SANTANA">
<connects>
<connect gate="G$1" pin="A" pad="A"/>
<connect gate="G$1" pin="C" pad="C"/>
</connects>
<technologies>
<technology name=""/>
</technologies>
</device>
<device name="CHIPLED_0805" package="CHIPLED_0805">
<connects>
<connect gate="G$1" pin="A" pad="A"/>
<connect gate="G$1" pin="C" pad="C"/>
</connects>
<technologies>
<technology name=""/>
</technologies>
</device>
<device name="CHIPLED_1206" package="CHIPLED_1206">
<connects>
<connect gate="G$1" pin="A" pad="A"/>
<connect gate="G$1" pin="C" pad="C"/>
</connects>
<technologies>
<technology name=""/>
</technologies>
</device>
<device name="CHIPLED_0603" package="CHIPLED_0603">
<connects>
<connect gate="G$1" pin="A" pad="A"/>
<connect gate="G$1" pin="C" pad="C"/>
</connects>
<technologies>
<technology name=""/>
</technologies>
</device>
<device name="CHIPLED-0603-TTW" package="CHIPLED-0603-TTW">
<connects>
<connect gate="G$1" pin="A" pad="A@1"/>
<connect gate="G$1" pin="C" pad="C@1"/>
</connects>
<technologies>
<technology name=""/>
</technologies>
</device>
<device name="" package="SMARTLED-TTW">
<connects>
<connect gate="G$1" pin="A" pad="A@1"/>
<connect gate="G$1" pin="C" pad="C@1"/>
</connects>
<technologies>
<technology name=""/>
</technologies>
</device>
</devices>
</deviceset>
</devicesets>
</library>
</libraries>
<attributes>
</attributes>
<variantdefs>
</variantdefs>
<classes>
<class number="0" name="default" width="0" drill="0">
<clearance class="0" value="0.355"/>
</class>
</classes>
<parts>
<part name="LED1" library="adafruit" deviceset="LED" device="SMT1206"/>
</parts>
<sheets>
<sheet>
<plain>
</plain>
<instances>
<instance part="LED1" gate="G$1" x="0" y="12.7"/>
</instances>
<busses>
</busses>
<nets>
<net name="N$1" class="0">
<segment>
<pinref part="LED1" gate="G$1" pin="C"/>
<wire x1="0" y1="7.62" x2="0" y2="2.54" width="0.1524" layer="91"/>
</segment>
</net>
<net name="N$2" class="0">
<segment>
<pinref part="LED1" gate="G$1" pin="A"/>
<wire x1="0" y1="15.24" x2="0" y2="22.86" width="0.1524" layer="91"/>
</segment>
</net>
</nets>
</sheet>
</sheets>
</schematic>
</drawing>
</eagle>
