<?xml version="1.0" encoding="utf-8"?>
<!DOCTYPE eagle SYSTEM "eagle.dtd">
<eagle version="7.2.0">
<drawing>
<settings>
<setting alwaysvectorfont="no"/>
<setting verticaltext="up"/>
</settings>
<grid distance="0.1" unitdist="inch" unit="inch" style="lines" multiple="1" display="no" altdistance="0.01" altunitdist="inch" altunit="inch"/>
<layers>
<layer number="1" name="Top" color="4" fill="1" visible="no" active="no"/>
<layer number="16" name="Bottom" color="1" fill="1" visible="no" active="no"/>
<layer number="17" name="Pads" color="2" fill="1" visible="no" active="no"/>
<layer number="18" name="Vias" color="2" fill="1" visible="no" active="no"/>
<layer number="19" name="Unrouted" color="6" fill="1" visible="no" active="no"/>
<layer number="20" name="Dimension" color="15" fill="1" visible="no" active="no"/>
<layer number="21" name="tPlace" color="14" fill="1" visible="no" active="no"/>
<layer number="22" name="bPlace" color="7" fill="1" visible="no" active="no"/>
<layer number="23" name="tOrigins" color="15" fill="1" visible="no" active="no"/>
<layer number="24" name="bOrigins" color="15" fill="1" visible="no" active="no"/>
<layer number="25" name="tNames" color="7" fill="1" visible="no" active="no"/>
<layer number="26" name="bNames" color="7" fill="1" visible="no" active="no"/>
<layer number="27" name="tValues" color="7" fill="1" visible="no" active="no"/>
<layer number="28" name="bValues" color="7" fill="1" visible="no" active="no"/>
<layer number="29" name="tStop" color="7" fill="3" visible="no" active="no"/>
<layer number="30" name="bStop" color="7" fill="6" visible="no" active="no"/>
<layer number="31" name="tCream" color="7" fill="4" visible="no" active="no"/>
<layer number="32" name="bCream" color="7" fill="5" visible="no" active="no"/>
<layer number="33" name="tFinish" color="6" fill="3" visible="no" active="no"/>
<layer number="34" name="bFinish" color="6" fill="6" visible="no" active="no"/>
<layer number="35" name="tGlue" color="7" fill="4" visible="no" active="no"/>
<layer number="36" name="bGlue" color="7" fill="5" visible="no" active="no"/>
<layer number="37" name="tTest" color="7" fill="1" visible="no" active="no"/>
<layer number="38" name="bTest" color="7" fill="1" visible="no" active="no"/>
<layer number="39" name="tKeepout" color="4" fill="11" visible="no" active="no"/>
<layer number="40" name="bKeepout" color="1" fill="11" visible="no" active="no"/>
<layer number="41" name="tRestrict" color="4" fill="10" visible="no" active="no"/>
<layer number="42" name="bRestrict" color="1" fill="10" visible="no" active="no"/>
<layer number="43" name="vRestrict" color="2" fill="10" visible="no" active="no"/>
<layer number="44" name="Drills" color="7" fill="1" visible="no" active="no"/>
<layer number="45" name="Holes" color="7" fill="1" visible="no" active="no"/>
<layer number="46" name="Milling" color="3" fill="1" visible="no" active="no"/>
<layer number="47" name="Measures" color="7" fill="1" visible="no" active="no"/>
<layer number="48" name="Document" color="7" fill="1" visible="no" active="no"/>
<layer number="49" name="Reference" color="7" fill="1" visible="no" active="no"/>
<layer number="50" name="dxf" color="7" fill="1" visible="no" active="no"/>
<layer number="51" name="tDocu" color="7" fill="1" visible="no" active="no"/>
<layer number="52" name="bDocu" color="7" fill="1" visible="no" active="no"/>
<layer number="53" name="tGND_GNDA" color="7" fill="9" visible="no" active="no"/>
<layer number="54" name="bGND_GNDA" color="1" fill="9" visible="no" active="no"/>
<layer number="56" name="wert" color="7" fill="1" visible="no" active="no"/>
<layer number="57" name="tCAD" color="7" fill="1" visible="no" active="no"/>
<layer number="90" name="Modules" color="5" fill="1" visible="yes" active="yes"/>
<layer number="91" name="Nets" color="2" fill="1" visible="yes" active="yes"/>
<layer number="92" name="Busses" color="1" fill="1" visible="yes" active="yes"/>
<layer number="93" name="Pins" color="2" fill="1" visible="no" active="yes"/>
<layer number="94" name="Symbols" color="4" fill="1" visible="yes" active="yes"/>
<layer number="95" name="Names" color="7" fill="1" visible="yes" active="yes"/>
<layer number="96" name="Values" color="7" fill="1" visible="yes" active="yes"/>
<layer number="97" name="Info" color="7" fill="1" visible="yes" active="yes"/>
<layer number="98" name="Guide" color="6" fill="1" visible="yes" active="yes"/>
<layer number="100" name="Muster" color="7" fill="1" visible="no" active="no"/>
<layer number="101" name="Patch_Top" color="12" fill="4" visible="yes" active="yes"/>
<layer number="102" name="Vscore" color="7" fill="1" visible="yes" active="yes"/>
<layer number="103" name="fp3" color="7" fill="1" visible="no" active="yes"/>
<layer number="104" name="Name" color="7" fill="1" visible="yes" active="yes"/>
<layer number="105" name="Beschreib" color="9" fill="1" visible="yes" active="yes"/>
<layer number="106" name="BGA-Top" color="4" fill="1" visible="yes" active="yes"/>
<layer number="107" name="BD-Top" color="5" fill="1" visible="yes" active="yes"/>
<layer number="108" name="fp8" color="7" fill="1" visible="no" active="yes"/>
<layer number="109" name="fp9" color="7" fill="1" visible="no" active="yes"/>
<layer number="110" name="fp0" color="7" fill="1" visible="no" active="yes"/>
<layer number="111" name="LPC17xx" color="7" fill="1" visible="yes" active="yes"/>
<layer number="112" name="tSilk" color="7" fill="1" visible="yes" active="yes"/>
<layer number="116" name="Patch_BOT" color="9" fill="4" visible="yes" active="yes"/>
<layer number="121" name="_tsilk" color="7" fill="1" visible="yes" active="yes"/>
<layer number="122" name="_bsilk" color="7" fill="1" visible="yes" active="yes"/>
<layer number="123" name="tTestmark" color="7" fill="1" visible="no" active="yes"/>
<layer number="124" name="bTestmark" color="7" fill="1" visible="no" active="yes"/>
<layer number="125" name="_tNames" color="7" fill="1" visible="yes" active="yes"/>
<layer number="126" name="_bNames" color="7" fill="1" visible="yes" active="yes"/>
<layer number="127" name="_tValues" color="7" fill="1" visible="yes" active="yes"/>
<layer number="128" name="_bValues" color="7" fill="1" visible="yes" active="yes"/>
<layer number="131" name="tAdjust" color="7" fill="1" visible="no" active="yes"/>
<layer number="132" name="bAdjust" color="7" fill="1" visible="no" active="yes"/>
<layer number="144" name="Drill_legend" color="7" fill="1" visible="yes" active="yes"/>
<layer number="150" name="Notes" color="7" fill="1" visible="no" active="yes"/>
<layer number="151" name="HeatSink" color="7" fill="1" visible="yes" active="yes"/>
<layer number="152" name="_bDocu" color="7" fill="1" visible="yes" active="yes"/>
<layer number="153" name="FabDoc1" color="6" fill="1" visible="no" active="no"/>
<layer number="154" name="FabDoc2" color="2" fill="1" visible="no" active="no"/>
<layer number="155" name="FabDoc3" color="7" fill="15" visible="no" active="no"/>
<layer number="199" name="Contour" color="7" fill="1" visible="yes" active="yes"/>
<layer number="200" name="200bmp" color="1" fill="10" visible="yes" active="yes"/>
<layer number="201" name="201bmp" color="2" fill="1" visible="no" active="no"/>
<layer number="202" name="202bmp" color="3" fill="1" visible="no" active="no"/>
<layer number="203" name="203bmp" color="4" fill="10" visible="yes" active="yes"/>
<layer number="204" name="204bmp" color="5" fill="10" visible="yes" active="yes"/>
<layer number="205" name="205bmp" color="6" fill="10" visible="yes" active="yes"/>
<layer number="206" name="206bmp" color="7" fill="10" visible="yes" active="yes"/>
<layer number="207" name="207bmp" color="8" fill="10" visible="yes" active="yes"/>
<layer number="208" name="208bmp" color="9" fill="10" visible="yes" active="yes"/>
<layer number="209" name="209bmp" color="7" fill="1" visible="no" active="yes"/>
<layer number="210" name="210bmp" color="7" fill="1" visible="no" active="yes"/>
<layer number="211" name="211bmp" color="7" fill="1" visible="yes" active="yes"/>
<layer number="212" name="212bmp" color="7" fill="1" visible="yes" active="yes"/>
<layer number="213" name="213bmp" color="7" fill="1" visible="yes" active="yes"/>
<layer number="214" name="214bmp" color="7" fill="1" visible="yes" active="yes"/>
<layer number="215" name="215bmp" color="7" fill="1" visible="yes" active="yes"/>
<layer number="216" name="216bmp" color="7" fill="1" visible="yes" active="yes"/>
<layer number="217" name="217bmp" color="18" fill="1" visible="no" active="no"/>
<layer number="218" name="218bmp" color="19" fill="1" visible="no" active="no"/>
<layer number="219" name="219bmp" color="20" fill="1" visible="no" active="no"/>
<layer number="220" name="220bmp" color="21" fill="1" visible="no" active="no"/>
<layer number="221" name="221bmp" color="22" fill="1" visible="no" active="no"/>
<layer number="222" name="222bmp" color="23" fill="1" visible="no" active="no"/>
<layer number="223" name="223bmp" color="24" fill="1" visible="no" active="no"/>
<layer number="224" name="224bmp" color="25" fill="1" visible="no" active="no"/>
<layer number="248" name="Housing" color="7" fill="1" visible="yes" active="yes"/>
<layer number="249" name="Edge" color="7" fill="1" visible="yes" active="yes"/>
<layer number="250" name="Descript" color="7" fill="1" visible="no" active="no"/>
<layer number="251" name="SMDround" color="7" fill="1" visible="no" active="no"/>
<layer number="254" name="cooling" color="7" fill="1" visible="yes" active="yes"/>
</layers>
<schematic xreflabel="%F%N/%S.%C%R" xrefpart="/%S.%C%R">
<libraries>
<library name="adafruit">
<packages>
<package name="BEAGLEBONE_SHIELD">
<wire x1="54.61" y1="73.66" x2="54.61" y2="14.605" width="0.127" layer="20"/>
<wire x1="54.61" y1="14.605" x2="54.61" y2="6.35" width="0.127" layer="51" style="shortdash"/>
<wire x1="12.7" y1="86.36" x2="0" y2="73.66" width="0.127" layer="20" curve="90"/>
<wire x1="54.61" y1="73.66" x2="41.91" y2="86.36" width="0.127" layer="20" curve="90"/>
<wire x1="12.7" y1="86.36" x2="41.91" y2="86.36" width="0.127" layer="20"/>
<wire x1="5.08" y1="17.78" x2="5.715" y2="18.415" width="0.1524" layer="21"/>
<wire x1="5.715" y1="18.415" x2="5.715" y2="19.685" width="0.1524" layer="21"/>
<wire x1="5.715" y1="19.685" x2="5.08" y2="20.32" width="0.1524" layer="21"/>
<wire x1="5.08" y1="20.32" x2="5.715" y2="20.955" width="0.1524" layer="21"/>
<wire x1="5.715" y1="20.955" x2="5.715" y2="22.225" width="0.1524" layer="21"/>
<wire x1="5.715" y1="22.225" x2="5.08" y2="22.86" width="0.1524" layer="21"/>
<wire x1="5.08" y1="22.86" x2="5.715" y2="23.495" width="0.1524" layer="21"/>
<wire x1="5.715" y1="23.495" x2="5.715" y2="24.765" width="0.1524" layer="21"/>
<wire x1="5.715" y1="24.765" x2="5.08" y2="25.4" width="0.1524" layer="21"/>
<wire x1="5.08" y1="25.4" x2="5.715" y2="26.035" width="0.1524" layer="21"/>
<wire x1="5.715" y1="26.035" x2="5.715" y2="27.305" width="0.1524" layer="21"/>
<wire x1="5.715" y1="27.305" x2="5.08" y2="27.94" width="0.1524" layer="21"/>
<wire x1="5.08" y1="27.94" x2="5.715" y2="28.575" width="0.1524" layer="21"/>
<wire x1="5.715" y1="28.575" x2="5.715" y2="29.845" width="0.1524" layer="21"/>
<wire x1="5.715" y1="29.845" x2="5.08" y2="30.48" width="0.1524" layer="21"/>
<wire x1="5.08" y1="30.48" x2="5.715" y2="31.115" width="0.1524" layer="21"/>
<wire x1="5.715" y1="31.115" x2="5.715" y2="32.385" width="0.1524" layer="21"/>
<wire x1="5.715" y1="32.385" x2="5.08" y2="33.02" width="0.1524" layer="21"/>
<wire x1="5.08" y1="17.78" x2="1.27" y2="17.78" width="0.1524" layer="21"/>
<wire x1="1.27" y1="17.78" x2="0.635" y2="18.415" width="0.1524" layer="21"/>
<wire x1="0.635" y1="18.415" x2="0.635" y2="19.685" width="0.1524" layer="21"/>
<wire x1="0.635" y1="19.685" x2="1.27" y2="20.32" width="0.1524" layer="21"/>
<wire x1="1.27" y1="20.32" x2="0.635" y2="20.955" width="0.1524" layer="21"/>
<wire x1="0.635" y1="20.955" x2="0.635" y2="22.225" width="0.1524" layer="21"/>
<wire x1="0.635" y1="22.225" x2="1.27" y2="22.86" width="0.1524" layer="21"/>
<wire x1="1.27" y1="22.86" x2="0.635" y2="23.495" width="0.1524" layer="21"/>
<wire x1="0.635" y1="23.495" x2="0.635" y2="24.765" width="0.1524" layer="21"/>
<wire x1="0.635" y1="24.765" x2="1.27" y2="25.4" width="0.1524" layer="21"/>
<wire x1="1.27" y1="25.4" x2="0.635" y2="26.035" width="0.1524" layer="21"/>
<wire x1="0.635" y1="26.035" x2="0.635" y2="27.305" width="0.1524" layer="21"/>
<wire x1="0.635" y1="27.305" x2="1.27" y2="27.94" width="0.1524" layer="21"/>
<wire x1="1.27" y1="27.94" x2="0.635" y2="28.575" width="0.1524" layer="21"/>
<wire x1="0.635" y1="28.575" x2="0.635" y2="29.845" width="0.1524" layer="21"/>
<wire x1="0.635" y1="29.845" x2="1.27" y2="30.48" width="0.1524" layer="21"/>
<wire x1="1.27" y1="30.48" x2="0.635" y2="31.115" width="0.1524" layer="21"/>
<wire x1="0.635" y1="31.115" x2="0.635" y2="32.385" width="0.1524" layer="21"/>
<wire x1="0.635" y1="32.385" x2="1.27" y2="33.02" width="0.1524" layer="21"/>
<wire x1="1.27" y1="33.02" x2="0.635" y2="33.655" width="0.1524" layer="21"/>
<wire x1="0.635" y1="33.655" x2="0.635" y2="34.925" width="0.1524" layer="21"/>
<wire x1="0.635" y1="34.925" x2="1.27" y2="35.56" width="0.1524" layer="21"/>
<wire x1="1.27" y1="35.56" x2="0.635" y2="36.195" width="0.1524" layer="21"/>
<wire x1="0.635" y1="36.195" x2="0.635" y2="37.465" width="0.1524" layer="21"/>
<wire x1="0.635" y1="37.465" x2="1.27" y2="38.1" width="0.1524" layer="21"/>
<wire x1="1.27" y1="38.1" x2="0.635" y2="38.735" width="0.1524" layer="21"/>
<wire x1="0.635" y1="38.735" x2="0.635" y2="40.005" width="0.1524" layer="21"/>
<wire x1="0.635" y1="40.005" x2="1.27" y2="40.64" width="0.1524" layer="21"/>
<wire x1="1.27" y1="40.64" x2="0.635" y2="41.275" width="0.1524" layer="21"/>
<wire x1="0.635" y1="41.275" x2="0.635" y2="42.545" width="0.1524" layer="21"/>
<wire x1="0.635" y1="42.545" x2="1.27" y2="43.18" width="0.1524" layer="21"/>
<wire x1="1.27" y1="43.18" x2="0.635" y2="43.815" width="0.1524" layer="21"/>
<wire x1="0.635" y1="43.815" x2="0.635" y2="45.085" width="0.1524" layer="21"/>
<wire x1="0.635" y1="45.085" x2="1.27" y2="45.72" width="0.1524" layer="21"/>
<wire x1="1.27" y1="45.72" x2="0.635" y2="46.355" width="0.1524" layer="21"/>
<wire x1="0.635" y1="46.355" x2="0.635" y2="47.625" width="0.1524" layer="21"/>
<wire x1="1.27" y1="48.26" x2="0.635" y2="47.625" width="0.1524" layer="21"/>
<wire x1="1.27" y1="48.26" x2="0.635" y2="48.895" width="0.1524" layer="21"/>
<wire x1="0.635" y1="50.165" x2="0.635" y2="48.895" width="0.1524" layer="21"/>
<wire x1="0.635" y1="50.165" x2="1.27" y2="50.8" width="0.1524" layer="21"/>
<wire x1="1.27" y1="50.8" x2="0.635" y2="51.435" width="0.1524" layer="21"/>
<wire x1="0.635" y1="52.705" x2="0.635" y2="51.435" width="0.1524" layer="21"/>
<wire x1="0.635" y1="52.705" x2="1.27" y2="53.34" width="0.1524" layer="21"/>
<wire x1="1.27" y1="53.34" x2="0.635" y2="53.975" width="0.1524" layer="21"/>
<wire x1="0.635" y1="55.245" x2="0.635" y2="53.975" width="0.1524" layer="21"/>
<wire x1="0.635" y1="55.245" x2="1.27" y2="55.88" width="0.1524" layer="21"/>
<wire x1="1.27" y1="55.88" x2="0.635" y2="56.515" width="0.1524" layer="21"/>
<wire x1="0.635" y1="57.785" x2="0.635" y2="56.515" width="0.1524" layer="21"/>
<wire x1="0.635" y1="57.785" x2="1.27" y2="58.42" width="0.1524" layer="21"/>
<wire x1="5.08" y1="58.42" x2="5.715" y2="57.785" width="0.1524" layer="21"/>
<wire x1="5.715" y1="56.515" x2="5.715" y2="57.785" width="0.1524" layer="21"/>
<wire x1="5.715" y1="56.515" x2="5.08" y2="55.88" width="0.1524" layer="21"/>
<wire x1="5.08" y1="55.88" x2="5.715" y2="55.245" width="0.1524" layer="21"/>
<wire x1="5.715" y1="53.975" x2="5.715" y2="55.245" width="0.1524" layer="21"/>
<wire x1="5.715" y1="53.975" x2="5.08" y2="53.34" width="0.1524" layer="21"/>
<wire x1="5.08" y1="53.34" x2="5.715" y2="52.705" width="0.1524" layer="21"/>
<wire x1="5.715" y1="52.705" x2="5.715" y2="51.435" width="0.1524" layer="21"/>
<wire x1="5.08" y1="50.8" x2="5.715" y2="51.435" width="0.1524" layer="21"/>
<wire x1="5.08" y1="50.8" x2="5.715" y2="50.165" width="0.1524" layer="21"/>
<wire x1="5.715" y1="50.165" x2="5.715" y2="48.895" width="0.1524" layer="21"/>
<wire x1="5.08" y1="48.26" x2="5.715" y2="48.895" width="0.1524" layer="21"/>
<wire x1="5.08" y1="48.26" x2="5.715" y2="47.625" width="0.1524" layer="21"/>
<wire x1="5.715" y1="47.625" x2="5.715" y2="46.355" width="0.1524" layer="21"/>
<wire x1="5.08" y1="45.72" x2="5.715" y2="46.355" width="0.1524" layer="21"/>
<wire x1="5.08" y1="45.72" x2="5.715" y2="45.085" width="0.1524" layer="21"/>
<wire x1="5.715" y1="45.085" x2="5.715" y2="43.815" width="0.1524" layer="21"/>
<wire x1="5.08" y1="43.18" x2="5.715" y2="43.815" width="0.1524" layer="21"/>
<wire x1="5.08" y1="43.18" x2="5.715" y2="42.545" width="0.1524" layer="21"/>
<wire x1="5.715" y1="42.545" x2="5.715" y2="41.275" width="0.1524" layer="21"/>
<wire x1="5.08" y1="40.64" x2="5.715" y2="41.275" width="0.1524" layer="21"/>
<wire x1="5.08" y1="40.64" x2="5.715" y2="40.005" width="0.1524" layer="21"/>
<wire x1="5.715" y1="40.005" x2="5.715" y2="38.735" width="0.1524" layer="21"/>
<wire x1="5.08" y1="38.1" x2="5.715" y2="38.735" width="0.1524" layer="21"/>
<wire x1="5.08" y1="38.1" x2="5.715" y2="37.465" width="0.1524" layer="21"/>
<wire x1="5.715" y1="37.465" x2="5.715" y2="36.195" width="0.1524" layer="21"/>
<wire x1="5.08" y1="35.56" x2="5.715" y2="36.195" width="0.1524" layer="21"/>
<wire x1="5.08" y1="35.56" x2="5.715" y2="34.925" width="0.1524" layer="21"/>
<wire x1="5.715" y1="34.925" x2="5.715" y2="33.655" width="0.1524" layer="21"/>
<wire x1="5.08" y1="33.02" x2="5.715" y2="33.655" width="0.1524" layer="21"/>
<wire x1="1.27" y1="20.32" x2="5.08" y2="20.32" width="0.1524" layer="21"/>
<wire x1="1.27" y1="22.86" x2="5.08" y2="22.86" width="0.1524" layer="21"/>
<wire x1="1.27" y1="25.4" x2="5.08" y2="25.4" width="0.1524" layer="21"/>
<wire x1="1.27" y1="27.94" x2="5.08" y2="27.94" width="0.1524" layer="21"/>
<wire x1="1.27" y1="30.48" x2="5.08" y2="30.48" width="0.1524" layer="21"/>
<wire x1="1.27" y1="33.02" x2="5.08" y2="33.02" width="0.1524" layer="21"/>
<wire x1="1.27" y1="35.56" x2="5.08" y2="35.56" width="0.1524" layer="21"/>
<wire x1="1.27" y1="38.1" x2="5.08" y2="38.1" width="0.1524" layer="21"/>
<wire x1="1.27" y1="40.64" x2="5.08" y2="40.64" width="0.1524" layer="21"/>
<wire x1="1.27" y1="43.18" x2="5.08" y2="43.18" width="0.1524" layer="21"/>
<wire x1="1.27" y1="45.72" x2="5.08" y2="45.72" width="0.1524" layer="21"/>
<wire x1="1.27" y1="48.26" x2="5.08" y2="48.26" width="0.1524" layer="21"/>
<wire x1="1.27" y1="50.8" x2="5.08" y2="50.8" width="0.1524" layer="21"/>
<wire x1="1.27" y1="53.34" x2="5.08" y2="53.34" width="0.1524" layer="21"/>
<wire x1="1.27" y1="55.88" x2="5.08" y2="55.88" width="0.1524" layer="21"/>
<wire x1="1.27" y1="58.42" x2="5.08" y2="58.42" width="0.1524" layer="21"/>
<wire x1="1.27" y1="58.42" x2="0.635" y2="59.055" width="0.1524" layer="21"/>
<wire x1="0.635" y1="60.325" x2="0.635" y2="59.055" width="0.1524" layer="21"/>
<wire x1="0.635" y1="60.325" x2="1.27" y2="60.96" width="0.1524" layer="21"/>
<wire x1="5.08" y1="60.96" x2="5.715" y2="60.325" width="0.1524" layer="21"/>
<wire x1="5.715" y1="59.055" x2="5.715" y2="60.325" width="0.1524" layer="21"/>
<wire x1="5.715" y1="59.055" x2="5.08" y2="58.42" width="0.1524" layer="21"/>
<wire x1="1.27" y1="60.96" x2="5.08" y2="60.96" width="0.1524" layer="21"/>
<wire x1="1.27" y1="60.96" x2="0.635" y2="61.595" width="0.1524" layer="21"/>
<wire x1="0.635" y1="62.865" x2="0.635" y2="61.595" width="0.1524" layer="21"/>
<wire x1="0.635" y1="62.865" x2="1.27" y2="63.5" width="0.1524" layer="21"/>
<wire x1="5.08" y1="63.5" x2="5.715" y2="62.865" width="0.1524" layer="21"/>
<wire x1="5.715" y1="61.595" x2="5.715" y2="62.865" width="0.1524" layer="21"/>
<wire x1="5.715" y1="61.595" x2="5.08" y2="60.96" width="0.1524" layer="21"/>
<wire x1="1.27" y1="63.5" x2="5.08" y2="63.5" width="0.1524" layer="21"/>
<wire x1="1.27" y1="63.5" x2="0.635" y2="64.135" width="0.1524" layer="21"/>
<wire x1="0.635" y1="65.405" x2="0.635" y2="64.135" width="0.1524" layer="21"/>
<wire x1="0.635" y1="65.405" x2="1.27" y2="66.04" width="0.1524" layer="21"/>
<wire x1="5.08" y1="66.04" x2="5.715" y2="65.405" width="0.1524" layer="21"/>
<wire x1="5.715" y1="64.135" x2="5.715" y2="65.405" width="0.1524" layer="21"/>
<wire x1="5.715" y1="64.135" x2="5.08" y2="63.5" width="0.1524" layer="21"/>
<wire x1="1.27" y1="66.04" x2="5.08" y2="66.04" width="0.1524" layer="21"/>
<wire x1="1.27" y1="66.04" x2="0.635" y2="66.675" width="0.1524" layer="21"/>
<wire x1="0.635" y1="67.945" x2="0.635" y2="66.675" width="0.1524" layer="21"/>
<wire x1="0.635" y1="67.945" x2="1.27" y2="68.58" width="0.1524" layer="21"/>
<wire x1="5.08" y1="68.58" x2="5.715" y2="67.945" width="0.1524" layer="21"/>
<wire x1="5.715" y1="66.675" x2="5.715" y2="67.945" width="0.1524" layer="21"/>
<wire x1="5.715" y1="66.675" x2="5.08" y2="66.04" width="0.1524" layer="21"/>
<wire x1="1.27" y1="68.58" x2="5.08" y2="68.58" width="0.1524" layer="21"/>
<wire x1="1.27" y1="68.58" x2="0.635" y2="69.215" width="0.1524" layer="21"/>
<wire x1="0.635" y1="70.485" x2="0.635" y2="69.215" width="0.1524" layer="21"/>
<wire x1="0.635" y1="70.485" x2="1.27" y2="71.12" width="0.1524" layer="21"/>
<wire x1="5.08" y1="71.12" x2="5.715" y2="70.485" width="0.1524" layer="21"/>
<wire x1="5.715" y1="69.215" x2="5.715" y2="70.485" width="0.1524" layer="21"/>
<wire x1="5.715" y1="69.215" x2="5.08" y2="68.58" width="0.1524" layer="21"/>
<wire x1="1.27" y1="71.12" x2="5.08" y2="71.12" width="0.1524" layer="21"/>
<wire x1="1.27" y1="71.12" x2="0.635" y2="71.755" width="0.1524" layer="21"/>
<wire x1="0.635" y1="73.025" x2="0.635" y2="71.755" width="0.1524" layer="21"/>
<wire x1="0.635" y1="73.025" x2="1.27" y2="73.66" width="0.1524" layer="21"/>
<wire x1="5.08" y1="73.66" x2="5.715" y2="73.025" width="0.1524" layer="21"/>
<wire x1="5.715" y1="71.755" x2="5.715" y2="73.025" width="0.1524" layer="21"/>
<wire x1="5.715" y1="71.755" x2="5.08" y2="71.12" width="0.1524" layer="21"/>
<wire x1="1.27" y1="73.66" x2="5.08" y2="73.66" width="0.1524" layer="21"/>
<wire x1="1.27" y1="73.66" x2="0.635" y2="74.295" width="0.1524" layer="21"/>
<wire x1="0.635" y1="75.565" x2="0.635" y2="74.295" width="0.1524" layer="21"/>
<wire x1="0.635" y1="75.565" x2="1.27" y2="76.2" width="0.1524" layer="21"/>
<wire x1="5.08" y1="76.2" x2="5.715" y2="75.565" width="0.1524" layer="21"/>
<wire x1="5.715" y1="74.295" x2="5.715" y2="75.565" width="0.1524" layer="21"/>
<wire x1="5.715" y1="74.295" x2="5.08" y2="73.66" width="0.1524" layer="21"/>
<wire x1="1.27" y1="76.2" x2="5.08" y2="76.2" width="0.1524" layer="21"/>
<wire x1="53.34" y1="17.78" x2="53.975" y2="18.415" width="0.1524" layer="21"/>
<wire x1="53.975" y1="18.415" x2="53.975" y2="19.685" width="0.1524" layer="21"/>
<wire x1="53.975" y1="19.685" x2="53.34" y2="20.32" width="0.1524" layer="21"/>
<wire x1="53.34" y1="20.32" x2="53.975" y2="20.955" width="0.1524" layer="21"/>
<wire x1="53.975" y1="20.955" x2="53.975" y2="22.225" width="0.1524" layer="21"/>
<wire x1="53.975" y1="22.225" x2="53.34" y2="22.86" width="0.1524" layer="21"/>
<wire x1="53.34" y1="22.86" x2="53.975" y2="23.495" width="0.1524" layer="21"/>
<wire x1="53.975" y1="23.495" x2="53.975" y2="24.765" width="0.1524" layer="21"/>
<wire x1="53.975" y1="24.765" x2="53.34" y2="25.4" width="0.1524" layer="21"/>
<wire x1="53.34" y1="25.4" x2="53.975" y2="26.035" width="0.1524" layer="21"/>
<wire x1="53.975" y1="26.035" x2="53.975" y2="27.305" width="0.1524" layer="21"/>
<wire x1="53.975" y1="27.305" x2="53.34" y2="27.94" width="0.1524" layer="21"/>
<wire x1="53.34" y1="27.94" x2="53.975" y2="28.575" width="0.1524" layer="21"/>
<wire x1="53.975" y1="28.575" x2="53.975" y2="29.845" width="0.1524" layer="21"/>
<wire x1="53.975" y1="29.845" x2="53.34" y2="30.48" width="0.1524" layer="21"/>
<wire x1="53.34" y1="30.48" x2="53.975" y2="31.115" width="0.1524" layer="21"/>
<wire x1="53.975" y1="31.115" x2="53.975" y2="32.385" width="0.1524" layer="21"/>
<wire x1="53.975" y1="32.385" x2="53.34" y2="33.02" width="0.1524" layer="21"/>
<wire x1="53.34" y1="17.78" x2="49.53" y2="17.78" width="0.1524" layer="21"/>
<wire x1="49.53" y1="17.78" x2="48.895" y2="18.415" width="0.1524" layer="21"/>
<wire x1="48.895" y1="18.415" x2="48.895" y2="19.685" width="0.1524" layer="21"/>
<wire x1="48.895" y1="19.685" x2="49.53" y2="20.32" width="0.1524" layer="21"/>
<wire x1="49.53" y1="20.32" x2="48.895" y2="20.955" width="0.1524" layer="21"/>
<wire x1="48.895" y1="20.955" x2="48.895" y2="22.225" width="0.1524" layer="21"/>
<wire x1="48.895" y1="22.225" x2="49.53" y2="22.86" width="0.1524" layer="21"/>
<wire x1="49.53" y1="22.86" x2="48.895" y2="23.495" width="0.1524" layer="21"/>
<wire x1="48.895" y1="23.495" x2="48.895" y2="24.765" width="0.1524" layer="21"/>
<wire x1="48.895" y1="24.765" x2="49.53" y2="25.4" width="0.1524" layer="21"/>
<wire x1="49.53" y1="25.4" x2="48.895" y2="26.035" width="0.1524" layer="21"/>
<wire x1="48.895" y1="26.035" x2="48.895" y2="27.305" width="0.1524" layer="21"/>
<wire x1="48.895" y1="27.305" x2="49.53" y2="27.94" width="0.1524" layer="21"/>
<wire x1="49.53" y1="27.94" x2="48.895" y2="28.575" width="0.1524" layer="21"/>
<wire x1="48.895" y1="28.575" x2="48.895" y2="29.845" width="0.1524" layer="21"/>
<wire x1="48.895" y1="29.845" x2="49.53" y2="30.48" width="0.1524" layer="21"/>
<wire x1="49.53" y1="30.48" x2="48.895" y2="31.115" width="0.1524" layer="21"/>
<wire x1="48.895" y1="31.115" x2="48.895" y2="32.385" width="0.1524" layer="21"/>
<wire x1="48.895" y1="32.385" x2="49.53" y2="33.02" width="0.1524" layer="21"/>
<wire x1="49.53" y1="33.02" x2="48.895" y2="33.655" width="0.1524" layer="21"/>
<wire x1="48.895" y1="33.655" x2="48.895" y2="34.925" width="0.1524" layer="21"/>
<wire x1="48.895" y1="34.925" x2="49.53" y2="35.56" width="0.1524" layer="21"/>
<wire x1="49.53" y1="35.56" x2="48.895" y2="36.195" width="0.1524" layer="21"/>
<wire x1="48.895" y1="36.195" x2="48.895" y2="37.465" width="0.1524" layer="21"/>
<wire x1="48.895" y1="37.465" x2="49.53" y2="38.1" width="0.1524" layer="21"/>
<wire x1="49.53" y1="38.1" x2="48.895" y2="38.735" width="0.1524" layer="21"/>
<wire x1="48.895" y1="38.735" x2="48.895" y2="40.005" width="0.1524" layer="21"/>
<wire x1="48.895" y1="40.005" x2="49.53" y2="40.64" width="0.1524" layer="21"/>
<wire x1="49.53" y1="40.64" x2="48.895" y2="41.275" width="0.1524" layer="21"/>
<wire x1="48.895" y1="41.275" x2="48.895" y2="42.545" width="0.1524" layer="21"/>
<wire x1="48.895" y1="42.545" x2="49.53" y2="43.18" width="0.1524" layer="21"/>
<wire x1="49.53" y1="43.18" x2="48.895" y2="43.815" width="0.1524" layer="21"/>
<wire x1="48.895" y1="43.815" x2="48.895" y2="45.085" width="0.1524" layer="21"/>
<wire x1="48.895" y1="45.085" x2="49.53" y2="45.72" width="0.1524" layer="21"/>
<wire x1="49.53" y1="45.72" x2="48.895" y2="46.355" width="0.1524" layer="21"/>
<wire x1="48.895" y1="46.355" x2="48.895" y2="47.625" width="0.1524" layer="21"/>
<wire x1="49.53" y1="48.26" x2="48.895" y2="47.625" width="0.1524" layer="21"/>
<wire x1="49.53" y1="48.26" x2="48.895" y2="48.895" width="0.1524" layer="21"/>
<wire x1="48.895" y1="50.165" x2="48.895" y2="48.895" width="0.1524" layer="21"/>
<wire x1="48.895" y1="50.165" x2="49.53" y2="50.8" width="0.1524" layer="21"/>
<wire x1="49.53" y1="50.8" x2="48.895" y2="51.435" width="0.1524" layer="21"/>
<wire x1="48.895" y1="52.705" x2="48.895" y2="51.435" width="0.1524" layer="21"/>
<wire x1="48.895" y1="52.705" x2="49.53" y2="53.34" width="0.1524" layer="21"/>
<wire x1="49.53" y1="53.34" x2="48.895" y2="53.975" width="0.1524" layer="21"/>
<wire x1="48.895" y1="55.245" x2="48.895" y2="53.975" width="0.1524" layer="21"/>
<wire x1="48.895" y1="55.245" x2="49.53" y2="55.88" width="0.1524" layer="21"/>
<wire x1="49.53" y1="55.88" x2="48.895" y2="56.515" width="0.1524" layer="21"/>
<wire x1="48.895" y1="57.785" x2="48.895" y2="56.515" width="0.1524" layer="21"/>
<wire x1="48.895" y1="57.785" x2="49.53" y2="58.42" width="0.1524" layer="21"/>
<wire x1="53.34" y1="58.42" x2="53.975" y2="57.785" width="0.1524" layer="21"/>
<wire x1="53.975" y1="56.515" x2="53.975" y2="57.785" width="0.1524" layer="21"/>
<wire x1="53.975" y1="56.515" x2="53.34" y2="55.88" width="0.1524" layer="21"/>
<wire x1="53.34" y1="55.88" x2="53.975" y2="55.245" width="0.1524" layer="21"/>
<wire x1="53.975" y1="53.975" x2="53.975" y2="55.245" width="0.1524" layer="21"/>
<wire x1="53.975" y1="53.975" x2="53.34" y2="53.34" width="0.1524" layer="21"/>
<wire x1="53.34" y1="53.34" x2="53.975" y2="52.705" width="0.1524" layer="21"/>
<wire x1="53.975" y1="52.705" x2="53.975" y2="51.435" width="0.1524" layer="21"/>
<wire x1="53.34" y1="50.8" x2="53.975" y2="51.435" width="0.1524" layer="21"/>
<wire x1="53.34" y1="50.8" x2="53.975" y2="50.165" width="0.1524" layer="21"/>
<wire x1="53.975" y1="50.165" x2="53.975" y2="48.895" width="0.1524" layer="21"/>
<wire x1="53.34" y1="48.26" x2="53.975" y2="48.895" width="0.1524" layer="21"/>
<wire x1="53.34" y1="48.26" x2="53.975" y2="47.625" width="0.1524" layer="21"/>
<wire x1="53.975" y1="47.625" x2="53.975" y2="46.355" width="0.1524" layer="21"/>
<wire x1="53.34" y1="45.72" x2="53.975" y2="46.355" width="0.1524" layer="21"/>
<wire x1="53.34" y1="45.72" x2="53.975" y2="45.085" width="0.1524" layer="21"/>
<wire x1="53.975" y1="45.085" x2="53.975" y2="43.815" width="0.1524" layer="21"/>
<wire x1="53.34" y1="43.18" x2="53.975" y2="43.815" width="0.1524" layer="21"/>
<wire x1="53.34" y1="43.18" x2="53.975" y2="42.545" width="0.1524" layer="21"/>
<wire x1="53.975" y1="42.545" x2="53.975" y2="41.275" width="0.1524" layer="21"/>
<wire x1="53.34" y1="40.64" x2="53.975" y2="41.275" width="0.1524" layer="21"/>
<wire x1="53.34" y1="40.64" x2="53.975" y2="40.005" width="0.1524" layer="21"/>
<wire x1="53.975" y1="40.005" x2="53.975" y2="38.735" width="0.1524" layer="21"/>
<wire x1="53.34" y1="38.1" x2="53.975" y2="38.735" width="0.1524" layer="21"/>
<wire x1="53.34" y1="38.1" x2="53.975" y2="37.465" width="0.1524" layer="21"/>
<wire x1="53.975" y1="37.465" x2="53.975" y2="36.195" width="0.1524" layer="21"/>
<wire x1="53.34" y1="35.56" x2="53.975" y2="36.195" width="0.1524" layer="21"/>
<wire x1="53.34" y1="35.56" x2="53.975" y2="34.925" width="0.1524" layer="21"/>
<wire x1="53.975" y1="34.925" x2="53.975" y2="33.655" width="0.1524" layer="21"/>
<wire x1="53.34" y1="33.02" x2="53.975" y2="33.655" width="0.1524" layer="21"/>
<wire x1="49.53" y1="20.32" x2="53.34" y2="20.32" width="0.1524" layer="21"/>
<wire x1="49.53" y1="22.86" x2="53.34" y2="22.86" width="0.1524" layer="21"/>
<wire x1="49.53" y1="25.4" x2="53.34" y2="25.4" width="0.1524" layer="21"/>
<wire x1="49.53" y1="27.94" x2="53.34" y2="27.94" width="0.1524" layer="21"/>
<wire x1="49.53" y1="30.48" x2="53.34" y2="30.48" width="0.1524" layer="21"/>
<wire x1="49.53" y1="33.02" x2="53.34" y2="33.02" width="0.1524" layer="21"/>
<wire x1="49.53" y1="35.56" x2="53.34" y2="35.56" width="0.1524" layer="21"/>
<wire x1="49.53" y1="38.1" x2="53.34" y2="38.1" width="0.1524" layer="21"/>
<wire x1="49.53" y1="40.64" x2="53.34" y2="40.64" width="0.1524" layer="21"/>
<wire x1="49.53" y1="43.18" x2="53.34" y2="43.18" width="0.1524" layer="21"/>
<wire x1="49.53" y1="45.72" x2="53.34" y2="45.72" width="0.1524" layer="21"/>
<wire x1="49.53" y1="48.26" x2="53.34" y2="48.26" width="0.1524" layer="21"/>
<wire x1="49.53" y1="50.8" x2="53.34" y2="50.8" width="0.1524" layer="21"/>
<wire x1="49.53" y1="53.34" x2="53.34" y2="53.34" width="0.1524" layer="21"/>
<wire x1="49.53" y1="55.88" x2="53.34" y2="55.88" width="0.1524" layer="21"/>
<wire x1="49.53" y1="58.42" x2="53.34" y2="58.42" width="0.1524" layer="21"/>
<wire x1="49.53" y1="58.42" x2="48.895" y2="59.055" width="0.1524" layer="21"/>
<wire x1="48.895" y1="60.325" x2="48.895" y2="59.055" width="0.1524" layer="21"/>
<wire x1="48.895" y1="60.325" x2="49.53" y2="60.96" width="0.1524" layer="21"/>
<wire x1="53.34" y1="60.96" x2="53.975" y2="60.325" width="0.1524" layer="21"/>
<wire x1="53.975" y1="59.055" x2="53.975" y2="60.325" width="0.1524" layer="21"/>
<wire x1="53.975" y1="59.055" x2="53.34" y2="58.42" width="0.1524" layer="21"/>
<wire x1="49.53" y1="60.96" x2="53.34" y2="60.96" width="0.1524" layer="21"/>
<wire x1="49.53" y1="60.96" x2="48.895" y2="61.595" width="0.1524" layer="21"/>
<wire x1="48.895" y1="62.865" x2="48.895" y2="61.595" width="0.1524" layer="21"/>
<wire x1="48.895" y1="62.865" x2="49.53" y2="63.5" width="0.1524" layer="21"/>
<wire x1="53.34" y1="63.5" x2="53.975" y2="62.865" width="0.1524" layer="21"/>
<wire x1="53.975" y1="61.595" x2="53.975" y2="62.865" width="0.1524" layer="21"/>
<wire x1="53.975" y1="61.595" x2="53.34" y2="60.96" width="0.1524" layer="21"/>
<wire x1="49.53" y1="63.5" x2="53.34" y2="63.5" width="0.1524" layer="21"/>
<wire x1="49.53" y1="63.5" x2="48.895" y2="64.135" width="0.1524" layer="21"/>
<wire x1="48.895" y1="65.405" x2="48.895" y2="64.135" width="0.1524" layer="21"/>
<wire x1="48.895" y1="65.405" x2="49.53" y2="66.04" width="0.1524" layer="21"/>
<wire x1="53.34" y1="66.04" x2="53.975" y2="65.405" width="0.1524" layer="21"/>
<wire x1="53.975" y1="64.135" x2="53.975" y2="65.405" width="0.1524" layer="21"/>
<wire x1="53.975" y1="64.135" x2="53.34" y2="63.5" width="0.1524" layer="21"/>
<wire x1="49.53" y1="66.04" x2="53.34" y2="66.04" width="0.1524" layer="21"/>
<wire x1="49.53" y1="66.04" x2="48.895" y2="66.675" width="0.1524" layer="21"/>
<wire x1="48.895" y1="67.945" x2="48.895" y2="66.675" width="0.1524" layer="21"/>
<wire x1="48.895" y1="67.945" x2="49.53" y2="68.58" width="0.1524" layer="21"/>
<wire x1="53.34" y1="68.58" x2="53.975" y2="67.945" width="0.1524" layer="21"/>
<wire x1="53.975" y1="66.675" x2="53.975" y2="67.945" width="0.1524" layer="21"/>
<wire x1="53.975" y1="66.675" x2="53.34" y2="66.04" width="0.1524" layer="21"/>
<wire x1="49.53" y1="68.58" x2="53.34" y2="68.58" width="0.1524" layer="21"/>
<wire x1="49.53" y1="68.58" x2="48.895" y2="69.215" width="0.1524" layer="21"/>
<wire x1="48.895" y1="70.485" x2="48.895" y2="69.215" width="0.1524" layer="21"/>
<wire x1="48.895" y1="70.485" x2="49.53" y2="71.12" width="0.1524" layer="21"/>
<wire x1="53.34" y1="71.12" x2="53.975" y2="70.485" width="0.1524" layer="21"/>
<wire x1="53.975" y1="69.215" x2="53.975" y2="70.485" width="0.1524" layer="21"/>
<wire x1="53.975" y1="69.215" x2="53.34" y2="68.58" width="0.1524" layer="21"/>
<wire x1="49.53" y1="71.12" x2="53.34" y2="71.12" width="0.1524" layer="21"/>
<wire x1="49.53" y1="71.12" x2="48.895" y2="71.755" width="0.1524" layer="21"/>
<wire x1="48.895" y1="73.025" x2="48.895" y2="71.755" width="0.1524" layer="21"/>
<wire x1="48.895" y1="73.025" x2="49.53" y2="73.66" width="0.1524" layer="21"/>
<wire x1="53.34" y1="73.66" x2="53.975" y2="73.025" width="0.1524" layer="21"/>
<wire x1="53.975" y1="71.755" x2="53.975" y2="73.025" width="0.1524" layer="21"/>
<wire x1="53.975" y1="71.755" x2="53.34" y2="71.12" width="0.1524" layer="21"/>
<wire x1="49.53" y1="73.66" x2="53.34" y2="73.66" width="0.1524" layer="21"/>
<wire x1="49.53" y1="73.66" x2="48.895" y2="74.295" width="0.1524" layer="21"/>
<wire x1="48.895" y1="75.565" x2="48.895" y2="74.295" width="0.1524" layer="21"/>
<wire x1="48.895" y1="75.565" x2="49.53" y2="76.2" width="0.1524" layer="21"/>
<wire x1="53.34" y1="76.2" x2="53.975" y2="75.565" width="0.1524" layer="21"/>
<wire x1="53.975" y1="74.295" x2="53.975" y2="75.565" width="0.1524" layer="21"/>
<wire x1="53.975" y1="74.295" x2="53.34" y2="73.66" width="0.1524" layer="21"/>
<wire x1="49.53" y1="76.2" x2="53.34" y2="76.2" width="0.1524" layer="21"/>
<wire x1="0" y1="6.35" x2="6.35" y2="0" width="0.127" layer="51" style="shortdash" curve="90"/>
<wire x1="0" y1="73.66" x2="0" y2="14.605" width="0.127" layer="20"/>
<wire x1="48.26" y1="0" x2="54.61" y2="6.35" width="0.127" layer="51" style="shortdash" curve="90"/>
<wire x1="6.35" y1="0" x2="48.26" y2="0" width="0.127" layer="51" style="shortdash"/>
<wire x1="0" y1="14.605" x2="0" y2="6.35" width="0.127" layer="51" style="shortdash"/>
<wire x1="0" y1="14.605" x2="12.7" y2="14.605" width="0.127" layer="20"/>
<wire x1="41.91" y1="14.605" x2="54.61" y2="14.605" width="0.127" layer="20"/>
<wire x1="18.415" y1="20.32" x2="36.195" y2="20.32" width="0.127" layer="20"/>
<wire x1="18.415" y1="20.32" x2="12.7" y2="14.605" width="0.127" layer="20" curve="90"/>
<wire x1="36.195" y1="20.32" x2="41.91" y2="14.605" width="0.127" layer="20" curve="-90"/>
<pad name="1" x="4.445" y="19.05" drill="1" shape="square" rot="R90"/>
<pad name="2" x="1.905" y="19.05" drill="1" rot="R90"/>
<pad name="3" x="4.445" y="21.59" drill="1" rot="R90"/>
<pad name="4" x="1.905" y="21.59" drill="1" rot="R90"/>
<pad name="5" x="4.445" y="24.13" drill="1" rot="R90"/>
<pad name="6" x="1.905" y="24.13" drill="1" rot="R90"/>
<pad name="7" x="4.445" y="26.67" drill="1" rot="R90"/>
<pad name="8" x="1.905" y="26.67" drill="1" rot="R90"/>
<pad name="9" x="4.445" y="29.21" drill="1" rot="R90"/>
<pad name="10" x="1.905" y="29.21" drill="1" rot="R90"/>
<pad name="11" x="4.445" y="31.75" drill="1" rot="R90"/>
<pad name="12" x="1.905" y="31.75" drill="1" rot="R90"/>
<pad name="13" x="4.445" y="34.29" drill="1" rot="R90"/>
<pad name="14" x="1.905" y="34.29" drill="1" rot="R90"/>
<pad name="15" x="4.445" y="36.83" drill="1" rot="R90"/>
<pad name="16" x="1.905" y="36.83" drill="1" rot="R90"/>
<pad name="17" x="4.445" y="39.37" drill="1" rot="R90"/>
<pad name="18" x="1.905" y="39.37" drill="1" rot="R90"/>
<pad name="19" x="4.445" y="41.91" drill="1" rot="R90"/>
<pad name="20" x="1.905" y="41.91" drill="1" rot="R90"/>
<pad name="21" x="4.445" y="44.45" drill="1" rot="R90"/>
<pad name="22" x="1.905" y="44.45" drill="1" rot="R90"/>
<pad name="23" x="4.445" y="46.99" drill="1" rot="R90"/>
<pad name="24" x="1.905" y="46.99" drill="1" rot="R90"/>
<pad name="25" x="4.445" y="49.53" drill="1" rot="R90"/>
<pad name="26" x="1.905" y="49.53" drill="1" rot="R90"/>
<pad name="27" x="4.445" y="52.07" drill="1" rot="R90"/>
<pad name="28" x="1.905" y="52.07" drill="1" rot="R90"/>
<pad name="29" x="4.445" y="54.61" drill="1" rot="R90"/>
<pad name="30" x="1.905" y="54.61" drill="1" rot="R90"/>
<pad name="31" x="4.445" y="57.15" drill="1" rot="R90"/>
<pad name="32" x="1.905" y="57.15" drill="1" rot="R90"/>
<pad name="33" x="4.445" y="59.69" drill="1" rot="R90"/>
<pad name="34" x="1.905" y="59.69" drill="1" rot="R90"/>
<pad name="35" x="4.445" y="62.23" drill="1" rot="R90"/>
<pad name="36" x="1.905" y="62.23" drill="1" rot="R90"/>
<pad name="37" x="4.445" y="64.77" drill="1" rot="R90"/>
<pad name="38" x="1.905" y="64.77" drill="1" rot="R90"/>
<pad name="39" x="4.445" y="67.31" drill="1" rot="R90"/>
<pad name="40" x="1.905" y="67.31" drill="1" rot="R90"/>
<pad name="41" x="4.445" y="69.85" drill="1" rot="R90"/>
<pad name="42" x="1.905" y="69.85" drill="1" rot="R90"/>
<pad name="43" x="4.445" y="72.39" drill="1" rot="R90"/>
<pad name="44" x="1.905" y="72.39" drill="1" rot="R90"/>
<pad name="45" x="4.445" y="74.93" drill="1" rot="R90"/>
<pad name="46" x="1.905" y="74.93" drill="1" rot="R90"/>
<pad name="47" x="52.705" y="19.05" drill="1" shape="square" rot="R90"/>
<pad name="48" x="50.165" y="19.05" drill="1" rot="R90"/>
<pad name="49" x="52.705" y="21.59" drill="1" rot="R90"/>
<pad name="50" x="50.165" y="21.59" drill="1" rot="R90"/>
<pad name="51" x="52.705" y="24.13" drill="1" rot="R90"/>
<pad name="52" x="50.165" y="24.13" drill="1" rot="R90"/>
<pad name="53" x="52.705" y="26.67" drill="1" rot="R90"/>
<pad name="54" x="50.165" y="26.67" drill="1" rot="R90"/>
<pad name="55" x="52.705" y="29.21" drill="1" rot="R90"/>
<pad name="56" x="50.165" y="29.21" drill="1" rot="R90"/>
<pad name="57" x="52.705" y="31.75" drill="1" rot="R90"/>
<pad name="58" x="50.165" y="31.75" drill="1" rot="R90"/>
<pad name="59" x="52.705" y="34.29" drill="1" rot="R90"/>
<pad name="60" x="50.165" y="34.29" drill="1" rot="R90"/>
<pad name="61" x="52.705" y="36.83" drill="1" rot="R90"/>
<pad name="62" x="50.165" y="36.83" drill="1" rot="R90"/>
<pad name="63" x="52.705" y="39.37" drill="1" rot="R90"/>
<pad name="64" x="50.165" y="39.37" drill="1" rot="R90"/>
<pad name="65" x="52.705" y="41.91" drill="1" rot="R90"/>
<pad name="66" x="50.165" y="41.91" drill="1" rot="R90"/>
<pad name="67" x="52.705" y="44.45" drill="1" rot="R90"/>
<pad name="68" x="50.165" y="44.45" drill="1" rot="R90"/>
<pad name="69" x="52.705" y="46.99" drill="1" rot="R90"/>
<pad name="70" x="50.165" y="46.99" drill="1" rot="R90"/>
<pad name="71" x="52.705" y="49.53" drill="1" rot="R90"/>
<pad name="72" x="50.165" y="49.53" drill="1" rot="R90"/>
<pad name="73" x="52.705" y="52.07" drill="1" rot="R90"/>
<pad name="74" x="50.165" y="52.07" drill="1" rot="R90"/>
<pad name="75" x="52.705" y="54.61" drill="1" rot="R90"/>
<pad name="76" x="50.165" y="54.61" drill="1" rot="R90"/>
<pad name="77" x="52.705" y="57.15" drill="1" rot="R90"/>
<pad name="78" x="50.165" y="57.15" drill="1" rot="R90"/>
<pad name="79" x="52.705" y="59.69" drill="1" rot="R90"/>
<pad name="80" x="50.165" y="59.69" drill="1" rot="R90"/>
<pad name="81" x="52.705" y="62.23" drill="1" rot="R90"/>
<pad name="82" x="50.165" y="62.23" drill="1" rot="R90"/>
<pad name="83" x="52.705" y="64.77" drill="1" rot="R90"/>
<pad name="84" x="50.165" y="64.77" drill="1" rot="R90"/>
<pad name="85" x="52.705" y="67.31" drill="1" rot="R90"/>
<pad name="86" x="50.165" y="67.31" drill="1" rot="R90"/>
<pad name="87" x="52.705" y="69.85" drill="1" rot="R90"/>
<pad name="88" x="50.165" y="69.85" drill="1" rot="R90"/>
<pad name="89" x="52.705" y="72.39" drill="1" rot="R90"/>
<pad name="90" x="50.165" y="72.39" drill="1" rot="R90"/>
<pad name="91" x="52.705" y="74.93" drill="1" rot="R90"/>
<pad name="92" x="50.165" y="74.93" drill="1" rot="R90"/>
<text x="7.62" y="17.78" size="1.27" layer="25" rot="R90">&gt;NAME</text>
<text x="10.16" y="17.78" size="1.27" layer="27" rot="R90">&gt;VALUE</text>
<text x="45.72" y="17.78" size="1.27" layer="25" rot="R90">&gt;NAME</text>
<text x="48.26" y="17.78" size="1.27" layer="27" rot="R90">&gt;VALUE</text>
<text x="2.54" y="77.47" size="1.27" layer="51">P8</text>
<text x="50.8" y="77.47" size="1.27" layer="51">P9</text>
<rectangle x1="4.191" y1="18.796" x2="4.699" y2="19.304" layer="51" rot="R90"/>
<rectangle x1="1.651" y1="18.796" x2="2.159" y2="19.304" layer="51" rot="R90"/>
<rectangle x1="1.651" y1="21.336" x2="2.159" y2="21.844" layer="51" rot="R90"/>
<rectangle x1="4.191" y1="21.336" x2="4.699" y2="21.844" layer="51" rot="R90"/>
<rectangle x1="1.651" y1="23.876" x2="2.159" y2="24.384" layer="51" rot="R90"/>
<rectangle x1="4.191" y1="23.876" x2="4.699" y2="24.384" layer="51" rot="R90"/>
<rectangle x1="1.651" y1="26.416" x2="2.159" y2="26.924" layer="51" rot="R90"/>
<rectangle x1="1.651" y1="28.956" x2="2.159" y2="29.464" layer="51" rot="R90"/>
<rectangle x1="1.651" y1="31.496" x2="2.159" y2="32.004" layer="51" rot="R90"/>
<rectangle x1="4.191" y1="26.416" x2="4.699" y2="26.924" layer="51" rot="R90"/>
<rectangle x1="4.191" y1="28.956" x2="4.699" y2="29.464" layer="51" rot="R90"/>
<rectangle x1="4.191" y1="31.496" x2="4.699" y2="32.004" layer="51" rot="R90"/>
<rectangle x1="1.651" y1="34.036" x2="2.159" y2="34.544" layer="51" rot="R90"/>
<rectangle x1="4.191" y1="34.036" x2="4.699" y2="34.544" layer="51" rot="R90"/>
<rectangle x1="1.651" y1="36.576" x2="2.159" y2="37.084" layer="51" rot="R90"/>
<rectangle x1="4.191" y1="36.576" x2="4.699" y2="37.084" layer="51" rot="R90"/>
<rectangle x1="1.651" y1="39.116" x2="2.159" y2="39.624" layer="51" rot="R90"/>
<rectangle x1="4.191" y1="39.116" x2="4.699" y2="39.624" layer="51" rot="R90"/>
<rectangle x1="1.651" y1="41.656" x2="2.159" y2="42.164" layer="51" rot="R90"/>
<rectangle x1="4.191" y1="41.656" x2="4.699" y2="42.164" layer="51" rot="R90"/>
<rectangle x1="1.651" y1="44.196" x2="2.159" y2="44.704" layer="51" rot="R90"/>
<rectangle x1="4.191" y1="44.196" x2="4.699" y2="44.704" layer="51" rot="R90"/>
<rectangle x1="1.651" y1="46.736" x2="2.159" y2="47.244" layer="51" rot="R90"/>
<rectangle x1="4.191" y1="46.736" x2="4.699" y2="47.244" layer="51" rot="R90"/>
<rectangle x1="1.651" y1="49.276" x2="2.159" y2="49.784" layer="51" rot="R90"/>
<rectangle x1="4.191" y1="49.276" x2="4.699" y2="49.784" layer="51" rot="R90"/>
<rectangle x1="1.651" y1="51.816" x2="2.159" y2="52.324" layer="51" rot="R90"/>
<rectangle x1="4.191" y1="51.816" x2="4.699" y2="52.324" layer="51" rot="R90"/>
<rectangle x1="1.651" y1="54.356" x2="2.159" y2="54.864" layer="51" rot="R90"/>
<rectangle x1="4.191" y1="54.356" x2="4.699" y2="54.864" layer="51" rot="R90"/>
<rectangle x1="1.651" y1="56.896" x2="2.159" y2="57.404" layer="51" rot="R90"/>
<rectangle x1="4.191" y1="56.896" x2="4.699" y2="57.404" layer="51" rot="R90"/>
<rectangle x1="1.651" y1="59.436" x2="2.159" y2="59.944" layer="51" rot="R90"/>
<rectangle x1="4.191" y1="59.436" x2="4.699" y2="59.944" layer="51" rot="R90"/>
<rectangle x1="1.651" y1="61.976" x2="2.159" y2="62.484" layer="51" rot="R90"/>
<rectangle x1="4.191" y1="61.976" x2="4.699" y2="62.484" layer="51" rot="R90"/>
<rectangle x1="1.651" y1="64.516" x2="2.159" y2="65.024" layer="51" rot="R90"/>
<rectangle x1="4.191" y1="64.516" x2="4.699" y2="65.024" layer="51" rot="R90"/>
<rectangle x1="1.651" y1="67.056" x2="2.159" y2="67.564" layer="51" rot="R90"/>
<rectangle x1="4.191" y1="67.056" x2="4.699" y2="67.564" layer="51" rot="R90"/>
<rectangle x1="1.651" y1="69.596" x2="2.159" y2="70.104" layer="51" rot="R90"/>
<rectangle x1="4.191" y1="69.596" x2="4.699" y2="70.104" layer="51" rot="R90"/>
<rectangle x1="1.651" y1="72.136" x2="2.159" y2="72.644" layer="51" rot="R90"/>
<rectangle x1="4.191" y1="72.136" x2="4.699" y2="72.644" layer="51" rot="R90"/>
<rectangle x1="1.651" y1="74.676" x2="2.159" y2="75.184" layer="51" rot="R90"/>
<rectangle x1="4.191" y1="74.676" x2="4.699" y2="75.184" layer="51" rot="R90"/>
<rectangle x1="52.451" y1="18.796" x2="52.959" y2="19.304" layer="51" rot="R90"/>
<rectangle x1="49.911" y1="18.796" x2="50.419" y2="19.304" layer="51" rot="R90"/>
<rectangle x1="49.911" y1="21.336" x2="50.419" y2="21.844" layer="51" rot="R90"/>
<rectangle x1="52.451" y1="21.336" x2="52.959" y2="21.844" layer="51" rot="R90"/>
<rectangle x1="49.911" y1="23.876" x2="50.419" y2="24.384" layer="51" rot="R90"/>
<rectangle x1="52.451" y1="23.876" x2="52.959" y2="24.384" layer="51" rot="R90"/>
<rectangle x1="49.911" y1="26.416" x2="50.419" y2="26.924" layer="51" rot="R90"/>
<rectangle x1="49.911" y1="28.956" x2="50.419" y2="29.464" layer="51" rot="R90"/>
<rectangle x1="49.911" y1="31.496" x2="50.419" y2="32.004" layer="51" rot="R90"/>
<rectangle x1="52.451" y1="26.416" x2="52.959" y2="26.924" layer="51" rot="R90"/>
<rectangle x1="52.451" y1="28.956" x2="52.959" y2="29.464" layer="51" rot="R90"/>
<rectangle x1="52.451" y1="31.496" x2="52.959" y2="32.004" layer="51" rot="R90"/>
<rectangle x1="49.911" y1="34.036" x2="50.419" y2="34.544" layer="51" rot="R90"/>
<rectangle x1="52.451" y1="34.036" x2="52.959" y2="34.544" layer="51" rot="R90"/>
<rectangle x1="49.911" y1="36.576" x2="50.419" y2="37.084" layer="51" rot="R90"/>
<rectangle x1="52.451" y1="36.576" x2="52.959" y2="37.084" layer="51" rot="R90"/>
<rectangle x1="49.911" y1="39.116" x2="50.419" y2="39.624" layer="51" rot="R90"/>
<rectangle x1="52.451" y1="39.116" x2="52.959" y2="39.624" layer="51" rot="R90"/>
<rectangle x1="49.911" y1="41.656" x2="50.419" y2="42.164" layer="51" rot="R90"/>
<rectangle x1="52.451" y1="41.656" x2="52.959" y2="42.164" layer="51" rot="R90"/>
<rectangle x1="49.911" y1="44.196" x2="50.419" y2="44.704" layer="51" rot="R90"/>
<rectangle x1="52.451" y1="44.196" x2="52.959" y2="44.704" layer="51" rot="R90"/>
<rectangle x1="49.911" y1="46.736" x2="50.419" y2="47.244" layer="51" rot="R90"/>
<rectangle x1="52.451" y1="46.736" x2="52.959" y2="47.244" layer="51" rot="R90"/>
<rectangle x1="49.911" y1="49.276" x2="50.419" y2="49.784" layer="51" rot="R90"/>
<rectangle x1="52.451" y1="49.276" x2="52.959" y2="49.784" layer="51" rot="R90"/>
<rectangle x1="49.911" y1="51.816" x2="50.419" y2="52.324" layer="51" rot="R90"/>
<rectangle x1="52.451" y1="51.816" x2="52.959" y2="52.324" layer="51" rot="R90"/>
<rectangle x1="49.911" y1="54.356" x2="50.419" y2="54.864" layer="51" rot="R90"/>
<rectangle x1="52.451" y1="54.356" x2="52.959" y2="54.864" layer="51" rot="R90"/>
<rectangle x1="49.911" y1="56.896" x2="50.419" y2="57.404" layer="51" rot="R90"/>
<rectangle x1="52.451" y1="56.896" x2="52.959" y2="57.404" layer="51" rot="R90"/>
<rectangle x1="49.911" y1="59.436" x2="50.419" y2="59.944" layer="51" rot="R90"/>
<rectangle x1="52.451" y1="59.436" x2="52.959" y2="59.944" layer="51" rot="R90"/>
<rectangle x1="49.911" y1="61.976" x2="50.419" y2="62.484" layer="51" rot="R90"/>
<rectangle x1="52.451" y1="61.976" x2="52.959" y2="62.484" layer="51" rot="R90"/>
<rectangle x1="49.911" y1="64.516" x2="50.419" y2="65.024" layer="51" rot="R90"/>
<rectangle x1="52.451" y1="64.516" x2="52.959" y2="65.024" layer="51" rot="R90"/>
<rectangle x1="49.911" y1="67.056" x2="50.419" y2="67.564" layer="51" rot="R90"/>
<rectangle x1="52.451" y1="67.056" x2="52.959" y2="67.564" layer="51" rot="R90"/>
<rectangle x1="49.911" y1="69.596" x2="50.419" y2="70.104" layer="51" rot="R90"/>
<rectangle x1="52.451" y1="69.596" x2="52.959" y2="70.104" layer="51" rot="R90"/>
<rectangle x1="49.911" y1="72.136" x2="50.419" y2="72.644" layer="51" rot="R90"/>
<rectangle x1="52.451" y1="72.136" x2="52.959" y2="72.644" layer="51" rot="R90"/>
<rectangle x1="49.911" y1="74.676" x2="50.419" y2="75.184" layer="51" rot="R90"/>
<rectangle x1="52.451" y1="74.676" x2="52.959" y2="75.184" layer="51" rot="R90"/>
<rectangle x1="28.575" y1="69.215" x2="43.815" y2="86.36" layer="39"/>
<rectangle x1="40.005" y1="0" x2="50.165" y2="11.43" layer="39"/>
<rectangle x1="15.875" y1="0" x2="34.29" y2="17.78" layer="39"/>
</package>
</packages>
<symbols>
<symbol name="BEAGLEBONE-1">
<wire x1="-31.75" y1="2.54" x2="31.75" y2="2.54" width="0.4064" layer="94"/>
<wire x1="31.75" y1="2.54" x2="31.75" y2="63.5" width="0.4064" layer="94"/>
<wire x1="31.75" y1="63.5" x2="-31.75" y2="63.5" width="0.4064" layer="94"/>
<wire x1="-31.75" y1="63.5" x2="-31.75" y2="2.54" width="0.4064" layer="94"/>
<wire x1="-31.75" y1="-63.5" x2="31.75" y2="-63.5" width="0.4064" layer="94"/>
<wire x1="31.75" y1="-63.5" x2="31.75" y2="-2.54" width="0.4064" layer="94"/>
<wire x1="31.75" y1="-2.54" x2="-31.75" y2="-2.54" width="0.4064" layer="94"/>
<wire x1="-31.75" y1="-2.54" x2="-31.75" y2="-63.5" width="0.4064" layer="94"/>
<text x="-31.75" y="66.675" size="1.778" layer="95">&gt;NAME</text>
<text x="-31.75" y="-66.04" size="1.778" layer="96">&gt;VALUE</text>
<text x="-31.75" y="64.135" size="1.778" layer="95">P8</text>
<text x="-31.75" y="-1.905" size="1.778" layer="95">P9</text>
<pin name="GND@1" x="-27.94" y="-5.08" visible="pin" length="short" direction="pwr" function="dot"/>
<pin name="GND@2" x="27.94" y="-5.08" visible="pin" length="short" direction="pwr" function="dot" rot="R180"/>
<pin name="VDD_3V3EXP@1" x="-27.94" y="-7.62" visible="pin" length="short" direction="pwr" function="dot"/>
<pin name="VDD_3V3EXP@2" x="27.94" y="-7.62" visible="pin" length="short" direction="pwr" function="dot" rot="R180"/>
<pin name="VDD_5V@1" x="-27.94" y="-10.16" visible="pin" length="short" direction="pwr" function="dot"/>
<pin name="VDD_5V@2" x="27.94" y="-10.16" visible="pin" length="short" direction="pwr" function="dot" rot="R180"/>
<pin name="SYS_5V@1" x="-27.94" y="-12.7" visible="pin" length="short" direction="pwr" function="dot"/>
<pin name="SYS_5V@2" x="27.94" y="-12.7" visible="pin" length="short" direction="pas" function="dot" rot="R180"/>
<pin name="PWR_BUT" x="-27.94" y="-15.24" visible="pin" length="short" direction="pas" function="dot"/>
<pin name="SYS_RESETN" x="27.94" y="-15.24" visible="pin" length="short" direction="pas" function="dot" rot="R180"/>
<pin name="UART4_RXD" x="-27.94" y="-17.78" visible="pin" length="short" direction="pas" function="dot"/>
<pin name="GPIO1_28" x="27.94" y="-17.78" visible="pin" length="short" direction="pas" function="dot" rot="R180"/>
<pin name="UART4_TXD" x="-27.94" y="-20.32" visible="pin" length="short" direction="pas" function="dot"/>
<pin name="EHRPWM1A" x="27.94" y="-20.32" visible="pin" length="short" direction="pas" function="dot" rot="R180"/>
<pin name="GPIO1_16" x="-27.94" y="-22.86" visible="pin" length="short" direction="pas" function="dot"/>
<pin name="EHRPWM1B" x="27.94" y="-22.86" visible="pin" length="short" direction="pas" function="dot" rot="R180"/>
<pin name="I2C1_SCL" x="-27.94" y="-25.4" visible="pin" length="short" direction="pas" function="dot"/>
<pin name="I2C1_SDA" x="27.94" y="-25.4" visible="pin" length="short" direction="pas" function="dot" rot="R180"/>
<pin name="I2C2_SCL" x="-27.94" y="-27.94" visible="pin" length="short" direction="pas" function="dot"/>
<pin name="I2C2_SDA" x="27.94" y="-27.94" visible="pin" length="short" direction="pas" function="dot" rot="R180"/>
<pin name="UART2_TXD" x="-27.94" y="-30.48" visible="pin" length="short" direction="pas" function="dot"/>
<pin name="UART2_RXD" x="27.94" y="-30.48" visible="pin" length="short" direction="pas" function="dot" rot="R180"/>
<pin name="GPIO1_17" x="-27.94" y="-33.02" visible="pin" length="short" direction="pas" function="dot"/>
<pin name="UART1_TXD" x="27.94" y="-33.02" visible="pin" length="short" direction="pas" function="dot" rot="R180"/>
<pin name="GPIO3_21" x="-27.94" y="-35.56" visible="pin" length="short" direction="pas" function="dot"/>
<pin name="UART1_RXD" x="27.94" y="-35.56" visible="pin" length="short" direction="pas" function="dot" rot="R180"/>
<pin name="GPIO3_19" x="-27.94" y="-38.1" visible="pin" length="short" direction="pas" function="dot"/>
<pin name="SPI1_CS0" x="27.94" y="-38.1" visible="pin" length="short" direction="pas" function="dot" rot="R180"/>
<pin name="SPI1_DO" x="-27.94" y="-40.64" visible="pin" length="short" direction="pas" function="dot"/>
<pin name="SPI1_DI" x="27.94" y="-40.64" visible="pin" length="short" direction="pas" function="dot" rot="R180"/>
<pin name="SPI1_SCLK" x="-27.94" y="-43.18" visible="pin" length="short" direction="pas" function="dot"/>
<pin name="VDD_ADC" x="27.94" y="-43.18" visible="pin" length="short" direction="pas" function="dot" rot="R180"/>
<pin name="AIN4" x="-27.94" y="-45.72" visible="pin" length="short" direction="pas" function="dot"/>
<pin name="GNDA_ADC" x="27.94" y="-45.72" visible="pin" length="short" direction="pas" function="dot" rot="R180"/>
<pin name="AIN6" x="-27.94" y="-48.26" visible="pin" length="short" direction="pas" function="dot"/>
<pin name="AIN5" x="27.94" y="-48.26" visible="pin" length="short" direction="pas" function="dot" rot="R180"/>
<pin name="AIN2" x="-27.94" y="-50.8" visible="pin" length="short" direction="pas" function="dot"/>
<pin name="AIN3" x="27.94" y="-50.8" visible="pin" length="short" direction="pas" function="dot" rot="R180"/>
<pin name="AIN0" x="-27.94" y="-53.34" visible="pin" length="short" direction="pwr" function="dot"/>
<pin name="AIN1" x="27.94" y="-53.34" visible="pin" length="short" direction="pas" function="dot" rot="R180"/>
<pin name="CLKOUT2" x="-27.94" y="-55.88" visible="pin" length="short" direction="in" function="dot"/>
<pin name="GPIO0_7" x="27.94" y="-55.88" visible="pin" length="short" direction="pas" function="dot" rot="R180"/>
<pin name="GND@3" x="-27.94" y="-58.42" visible="pin" length="short" direction="pwr" function="dot"/>
<pin name="GND@5" x="27.94" y="-58.42" visible="pin" length="short" direction="pwr" function="dot" rot="R180"/>
<pin name="GND@4" x="-27.94" y="-60.96" visible="pin" length="short" direction="pwr" function="dot"/>
<pin name="GND@6" x="27.94" y="-60.96" visible="pin" length="short" direction="pwr" function="dot" rot="R180"/>
<pin name="GND@7" x="-27.94" y="60.96" visible="pin" length="short" direction="pwr" function="dot"/>
<pin name="GND@8" x="27.94" y="60.96" visible="pin" length="short" direction="pwr" function="dot" rot="R180"/>
<pin name="GPIO1_6" x="-27.94" y="58.42" visible="pin" length="short" direction="pas" function="dot"/>
<pin name="GPIO1_7" x="27.94" y="58.42" visible="pin" length="short" direction="pas" function="dot" rot="R180"/>
<pin name="GPIO1_2" x="-27.94" y="55.88" visible="pin" length="short" direction="pas" function="dot"/>
<pin name="GPIO1_3" x="27.94" y="55.88" visible="pin" length="short" direction="pas" function="dot" rot="R180"/>
<pin name="TIMER4" x="-27.94" y="53.34" visible="pin" length="short" direction="pas" function="dot"/>
<pin name="TIMER7" x="27.94" y="53.34" visible="pin" length="short" direction="pas" function="dot" rot="R180"/>
<pin name="TIMER5" x="-27.94" y="50.8" visible="pin" length="short" direction="pas" function="dot"/>
<pin name="TIMER6" x="27.94" y="50.8" visible="pin" length="short" direction="pas" function="dot" rot="R180"/>
<pin name="GPIO1_13" x="-27.94" y="48.26" visible="pin" length="short" direction="pas" function="dot"/>
<pin name="GPIO1_12" x="27.94" y="48.26" visible="pin" length="short" direction="pas" function="dot" rot="R180"/>
<pin name="EHRPWM2B" x="-27.94" y="45.72" visible="pin" length="short" direction="pas" function="dot"/>
<pin name="GPIO0_26" x="27.94" y="45.72" visible="pin" length="short" direction="pas" function="dot" rot="R180"/>
<pin name="GPIO1_15" x="-27.94" y="43.18" visible="pin" length="short" direction="pas" function="dot"/>
<pin name="GPIO1_14" x="27.94" y="43.18" visible="pin" length="short" direction="pas" function="dot" rot="R180"/>
<pin name="GPIO0_27" x="-27.94" y="40.64" visible="pin" length="short" direction="pas" function="dot"/>
<pin name="GPIO2_1" x="27.94" y="40.64" visible="pin" length="short" direction="pas" function="dot" rot="R180"/>
<pin name="EHRPWM2A" x="-27.94" y="38.1" visible="pin" length="short" direction="pas" function="dot"/>
<pin name="GPIO1_31" x="27.94" y="38.1" visible="pin" length="short" direction="pas" function="dot" rot="R180"/>
<pin name="GPIO1_30" x="-27.94" y="35.56" visible="pin" length="short" direction="pas" function="dot"/>
<pin name="GPIO1_5" x="27.94" y="35.56" visible="pin" length="short" direction="pas" function="dot" rot="R180"/>
<pin name="GPIO1_4" x="-27.94" y="33.02" visible="pin" length="short" direction="pas" function="dot"/>
<pin name="GPIO1_1" x="27.94" y="33.02" visible="pin" length="short" direction="pas" function="dot" rot="R180"/>
<pin name="GPIO1_0" x="-27.94" y="30.48" visible="pin" length="short" direction="pas" function="dot"/>
<pin name="GPIO1_29" x="27.94" y="30.48" visible="pin" length="short" direction="pas" function="dot" rot="R180"/>
<pin name="GPIO2_22" x="-27.94" y="27.94" visible="pin" length="short" direction="pas" function="dot"/>
<pin name="GPIO2_24" x="27.94" y="27.94" visible="pin" length="short" direction="pas" function="dot" rot="R180"/>
<pin name="GPIO2_23" x="-27.94" y="25.4" visible="pin" length="short" direction="pas" function="dot"/>
<pin name="GPIO2_25" x="27.94" y="25.4" visible="pin" length="short" direction="pas" function="dot" rot="R180"/>
<pin name="UART5_CTSN" x="-27.94" y="22.86" visible="pin" length="short" direction="pas" function="dot"/>
<pin name="UART5_RTSN" x="27.94" y="22.86" visible="pin" length="short" direction="pas" function="dot" rot="R180"/>
<pin name="UART4_RTSN" x="-27.94" y="20.32" visible="pin" length="short" direction="pas" function="dot"/>
<pin name="UART3_RTSN" x="27.94" y="20.32" visible="pin" length="short" direction="pas" function="dot" rot="R180"/>
<pin name="UART4_CTSN" x="-27.94" y="17.78" visible="pin" length="short" direction="pas" function="dot"/>
<pin name="UART3_CTSN" x="27.94" y="17.78" visible="pin" length="short" direction="pas" function="dot" rot="R180"/>
<pin name="UART5_TXD" x="-27.94" y="15.24" visible="pin" length="short" direction="pas" function="dot"/>
<pin name="UART5_RXD" x="27.94" y="15.24" visible="pin" length="short" direction="pas" function="dot" rot="R180"/>
<pin name="GPIO2_12" x="-27.94" y="12.7" visible="pin" length="short" direction="pas" function="dot"/>
<pin name="GPIO2_13" x="27.94" y="12.7" visible="pin" length="short" direction="pas" function="dot" rot="R180"/>
<pin name="GPIO2_10" x="-27.94" y="10.16" visible="pin" length="short" direction="pas" function="dot"/>
<pin name="GPIO2_11" x="27.94" y="10.16" visible="pin" length="short" direction="pas" function="dot" rot="R180"/>
<pin name="GPIO2_8" x="-27.94" y="7.62" visible="pin" length="short" direction="pas" function="dot"/>
<pin name="GPIO2_9" x="27.94" y="7.62" visible="pin" length="short" direction="pas" function="dot" rot="R180"/>
<pin name="GPIO2_6" x="-27.94" y="5.08" visible="pin" length="short" direction="pas" function="dot"/>
<pin name="GPIO2_7" x="27.94" y="5.08" visible="pin" length="short" direction="pas" function="dot" rot="R180"/>
</symbol>
</symbols>
<devicesets>
<deviceset name="BEAGLEBONE_OUTLINE">
<description>Should match A3 pinout - but not completely tested</description>
<gates>
<gate name="G$1" symbol="BEAGLEBONE-1" x="0" y="0"/>
</gates>
<devices>
<device name="" package="BEAGLEBONE_SHIELD">
<connects>
<connect gate="G$1" pin="AIN0" pad="85"/>
<connect gate="G$1" pin="AIN1" pad="86"/>
<connect gate="G$1" pin="AIN2" pad="83"/>
<connect gate="G$1" pin="AIN3" pad="84"/>
<connect gate="G$1" pin="AIN4" pad="79"/>
<connect gate="G$1" pin="AIN5" pad="82"/>
<connect gate="G$1" pin="AIN6" pad="81"/>
<connect gate="G$1" pin="CLKOUT2" pad="87"/>
<connect gate="G$1" pin="EHRPWM1A" pad="60"/>
<connect gate="G$1" pin="EHRPWM1B" pad="62"/>
<connect gate="G$1" pin="EHRPWM2A" pad="19"/>
<connect gate="G$1" pin="EHRPWM2B" pad="13"/>
<connect gate="G$1" pin="GND@1" pad="47"/>
<connect gate="G$1" pin="GND@2" pad="48"/>
<connect gate="G$1" pin="GND@3" pad="89"/>
<connect gate="G$1" pin="GND@4" pad="91"/>
<connect gate="G$1" pin="GND@5" pad="90"/>
<connect gate="G$1" pin="GND@6" pad="92"/>
<connect gate="G$1" pin="GND@7" pad="1"/>
<connect gate="G$1" pin="GND@8" pad="2"/>
<connect gate="G$1" pin="GNDA_ADC" pad="80"/>
<connect gate="G$1" pin="GPIO0_26" pad="14"/>
<connect gate="G$1" pin="GPIO0_27" pad="17"/>
<connect gate="G$1" pin="GPIO0_7" pad="88"/>
<connect gate="G$1" pin="GPIO1_0" pad="25"/>
<connect gate="G$1" pin="GPIO1_1" pad="24"/>
<connect gate="G$1" pin="GPIO1_12" pad="12"/>
<connect gate="G$1" pin="GPIO1_13" pad="11"/>
<connect gate="G$1" pin="GPIO1_14" pad="16"/>
<connect gate="G$1" pin="GPIO1_15" pad="15"/>
<connect gate="G$1" pin="GPIO1_16" pad="61"/>
<connect gate="G$1" pin="GPIO1_17" pad="69"/>
<connect gate="G$1" pin="GPIO1_2" pad="5"/>
<connect gate="G$1" pin="GPIO1_28" pad="58"/>
<connect gate="G$1" pin="GPIO1_29" pad="26"/>
<connect gate="G$1" pin="GPIO1_3" pad="6"/>
<connect gate="G$1" pin="GPIO1_30" pad="21"/>
<connect gate="G$1" pin="GPIO1_31" pad="20"/>
<connect gate="G$1" pin="GPIO1_4" pad="23"/>
<connect gate="G$1" pin="GPIO1_5" pad="22"/>
<connect gate="G$1" pin="GPIO1_6" pad="3"/>
<connect gate="G$1" pin="GPIO1_7" pad="4"/>
<connect gate="G$1" pin="GPIO2_1" pad="18"/>
<connect gate="G$1" pin="GPIO2_10" pad="41"/>
<connect gate="G$1" pin="GPIO2_11" pad="42"/>
<connect gate="G$1" pin="GPIO2_12" pad="39"/>
<connect gate="G$1" pin="GPIO2_13" pad="40"/>
<connect gate="G$1" pin="GPIO2_22" pad="27"/>
<connect gate="G$1" pin="GPIO2_23" pad="29"/>
<connect gate="G$1" pin="GPIO2_24" pad="28"/>
<connect gate="G$1" pin="GPIO2_25" pad="30"/>
<connect gate="G$1" pin="GPIO2_6" pad="45"/>
<connect gate="G$1" pin="GPIO2_7" pad="46"/>
<connect gate="G$1" pin="GPIO2_8" pad="43"/>
<connect gate="G$1" pin="GPIO2_9" pad="44"/>
<connect gate="G$1" pin="GPIO3_19" pad="73"/>
<connect gate="G$1" pin="GPIO3_21" pad="71"/>
<connect gate="G$1" pin="I2C1_SCL" pad="63"/>
<connect gate="G$1" pin="I2C1_SDA" pad="64"/>
<connect gate="G$1" pin="I2C2_SCL" pad="65"/>
<connect gate="G$1" pin="I2C2_SDA" pad="66"/>
<connect gate="G$1" pin="PWR_BUT" pad="55"/>
<connect gate="G$1" pin="SPI1_CS0" pad="74"/>
<connect gate="G$1" pin="SPI1_DI" pad="76"/>
<connect gate="G$1" pin="SPI1_DO" pad="75"/>
<connect gate="G$1" pin="SPI1_SCLK" pad="77"/>
<connect gate="G$1" pin="SYS_5V@1" pad="53"/>
<connect gate="G$1" pin="SYS_5V@2" pad="54"/>
<connect gate="G$1" pin="SYS_RESETN" pad="56"/>
<connect gate="G$1" pin="TIMER4" pad="7"/>
<connect gate="G$1" pin="TIMER5" pad="9"/>
<connect gate="G$1" pin="TIMER6" pad="10"/>
<connect gate="G$1" pin="TIMER7" pad="8"/>
<connect gate="G$1" pin="UART1_RXD" pad="72"/>
<connect gate="G$1" pin="UART1_TXD" pad="70"/>
<connect gate="G$1" pin="UART2_RXD" pad="68"/>
<connect gate="G$1" pin="UART2_TXD" pad="67"/>
<connect gate="G$1" pin="UART3_CTSN" pad="36"/>
<connect gate="G$1" pin="UART3_RTSN" pad="34"/>
<connect gate="G$1" pin="UART4_CTSN" pad="35"/>
<connect gate="G$1" pin="UART4_RTSN" pad="33"/>
<connect gate="G$1" pin="UART4_RXD" pad="57"/>
<connect gate="G$1" pin="UART4_TXD" pad="59"/>
<connect gate="G$1" pin="UART5_CTSN" pad="31"/>
<connect gate="G$1" pin="UART5_RTSN" pad="32"/>
<connect gate="G$1" pin="UART5_RXD" pad="38"/>
<connect gate="G$1" pin="UART5_TXD" pad="37"/>
<connect gate="G$1" pin="VDD_3V3EXP@1" pad="49"/>
<connect gate="G$1" pin="VDD_3V3EXP@2" pad="50"/>
<connect gate="G$1" pin="VDD_5V@1" pad="51"/>
<connect gate="G$1" pin="VDD_5V@2" pad="52"/>
<connect gate="G$1" pin="VDD_ADC" pad="78"/>
</connects>
<technologies>
<technology name=""/>
</technologies>
</device>
</devices>
</deviceset>
</devicesets>
</library>
</libraries>
<attributes>
</attributes>
<variantdefs>
</variantdefs>
<classes>
<class number="0" name="default" width="0" drill="0">
</class>
</classes>
<parts>
<part name="U$1" library="adafruit" deviceset="BEAGLEBONE_OUTLINE" device=""/>
</parts>
<sheets>
<sheet>
<plain>
</plain>
<instances>
<instance part="U$1" gate="G$1" x="0" y="0"/>
</instances>
<busses>
</busses>
<nets>
</nets>
</sheet>
</sheets>
</schematic>
</drawing>
</eagle>
